clc------ window
clear all---work space
close all----close all active window

###########
>> a=[9 8 7 ; 2 3 4]

a =

     9     8     7
     2     3     4

>> x=[0;.2;10]

x =

         0
    0.2000
   10.0000

>> x=[0:.2:10]

x =

  Columns 1 through 8

         0    0.2000    0.4000    0.6000    0.8000    1.0000    1.2000    1.4000

  Columns 9 through 16

    1.6000    1.8000    2.0000    2.2000    2.4000    2.6000    2.8000    3.0000

  Columns 17 through 24

    3.2000    3.4000    3.6000    3.8000    4.0000    4.2000    4.4000    4.6000

  Columns 25 through 32

    4.8000    5.0000    5.2000    5.4000    5.6000    5.8000    6.0000    6.2000

  Columns 33 through 40

    6.4000    6.6000    6.8000    7.0000    7.2000    7.4000    7.6000    7.8000

  Columns 41 through 48

    8.0000    8.2000    8.4000    8.6000    8.8000    9.0000    9.2000    9.4000

  Columns 49 through 51

    9.6000    9.8000   10.0000


############


>> clear all
>> x= [0:.2:10]

x =

  Columns 1 through 8

         0    0.2000    0.4000    0.6000    0.8000    1.0000    1.2000    1.4000

  Columns 9 through 16

    1.6000    1.8000    2.0000    2.2000    2.4000    2.6000    2.8000    3.0000

  Columns 17 through 24

    3.2000    3.4000    3.6000    3.8000    4.0000    4.2000    4.4000    4.6000

  Columns 25 through 32

    4.8000    5.0000    5.2000    5.4000    5.6000    5.8000    6.0000    6.2000

  Columns 33 through 40

    6.4000    6.6000    6.8000    7.0000    7.2000    7.4000    7.6000    7.8000

  Columns 41 through 48

    8.0000    8.2000    8.4000    8.6000    8.8000    9.0000    9.2000    9.4000

  Columns 49 through 51

    9.6000    9.8000   10.0000

>> y=x^2
??? Error using ==> mpower
Matrix must be square.
 
>> y=x^2;
??? Error using ==> mpower
Matrix must be square.
 
>> y=x.^2;
>> plot(x,y)
>> 

###################


