DSCH3
VERSION 4/9/2010 2:58:55 PM
BB(-135,-135,275,149)
SYM  #sym30
BB(-115,-5,-25,50)
TITLE -122 40  #sym30
MODEL 6000
PROP                                                                                                                                   
REC(-110,0,80,45,r)
VIS 5
PIN(-105,50,0.000,0.000)i1
PIN(-95,50,0.000,0.000)i2
PIN(-85,50,0.000,0.000)i3
PIN(-75,50,0.000,0.000)i4
PIN(-35,50,0.000,0.000)i8
PIN(-45,50,0.000,0.000)i7
PIN(-65,50,0.000,0.000)i5
PIN(-55,50,0.000,0.000)i6
PIN(-105,-5,0.060,0.070)o1
PIN(-95,-5,0.060,0.070)o2
PIN(-85,-5,0.060,0.070)o3
PIN(-75,-5,0.060,0.070)o4
LIG(-105,50,-105,45)
LIG(-95,50,-95,45)
LIG(-85,50,-85,45)
LIG(-75,50,-75,45)
LIG(-35,50,-35,45)
LIG(-45,50,-45,45)
LIG(-65,50,-65,45)
LIG(-55,50,-55,45)
LIG(-105,0,-105,-5)
LIG(-95,0,-95,-5)
LIG(-85,0,-85,-5)
LIG(-75,0,-75,-5)
LIG(-110,45,-30,45)
LIG(-110,45,-110,0)
LIG(-110,0,-30,0)
LIG(-30,0,-30,45)
VLG  module sym30( i1,i2,i3,i4,i8,i7,i5,i6,
VLG   o1,o2,o3,o4);
VLG   input i1,i2,i3,i4,i8,i7,i5,i6;
VLG   output o1,o2,o3,o4;
VLG   wire ;
VLG   and #(16) and2_1(o1,i2,i1);
VLG   and #(16) and2_2(o2,i4,i3);
VLG   and #(16) and2_3(o4,i7,i8);
VLG   and #(16) and2_4(o3,i5,i6);
VLG  endmodule
FSYM
SYM  #sym20
BB(-105,-135,5,-75)
TITLE -112 -85  #
MODEL 6000
PROP                                                                                                                                   
REC(-100,-130,100,50,r)
VIS 5
PIN(-15,-75,0.000,0.000)A1
PIN(-55,-75,0.000,0.000)B1
PIN(5,-100,0.000,0.000)Cin
PIN(-25,-75,0.000,0.000)A2
PIN(-65,-75,0.000,0.000)B2
PIN(-35,-75,0.000,0.000)A3
PIN(-75,-75,0.000,0.000)B3
PIN(-45,-75,0.000,0.000)A4
PIN(-85,-75,0.000,0.000)B4
PIN(-95,-135,0.060,0.070)S4
PIN(-105,-110,0.060,0.070)Cout
PIN(-85,-135,0.060,0.070)S3
PIN(-75,-135,0.060,0.070)S2
PIN(-65,-135,0.060,0.070)S1
LIG(-15,-75,-15,-80)
LIG(-55,-75,-55,-80)
LIG(0,-100,5,-100)
LIG(-25,-75,-25,-80)
LIG(-65,-75,-65,-80)
LIG(-35,-75,-35,-80)
LIG(-75,-75,-75,-80)
LIG(-45,-75,-45,-80)
LIG(-85,-75,-85,-80)
LIG(-95,-130,-95,-135)
LIG(-105,-110,-100,-110)
LIG(-85,-130,-85,-135)
LIG(-75,-130,-75,-135)
LIG(-65,-130,-65,-135)
LIG(-100,-80,0,-80)
LIG(-100,-80,-100,-130)
LIG(-100,-130,0,-130)
LIG(0,-130,0,-80)
VLG  module sym20( A1,B1,Cin,A2,B2,A3,B3,A4,
VLG   B4,S4,Cout,S3,S2,S1);
VLG   input A1,B1,Cin,A2,B2,A3,B3,A4;
VLG   input B4;
VLG   output S4,Cout,S3,S2,S1;
VLG   wire w4,w9,w10,w14,w15,w19,w20,w22;
VLG   wire w23,w24,w25,w26,w27,w28,w29,;
VLG   xor #(23) xor2_1(w4,A1,B1);
VLG   xor #(16) xor2_2(S1,w4,Cin);
VLG   xor #(23) xor2_3(w9,A2,B2);
VLG   xor #(16) xor2_4(S2,w9,w10);
VLG   xor #(23) xor2_5(w14,A3,B3);
VLG   xor #(16) xor2_6(S3,w14,w15);
VLG   xor #(23) xor2_7(w19,A4,B4);
VLG   xor #(16) xor2_8(S4,w19,w20);
VLG   and #(16) and2_9(w22,B1,A1);
VLG   and #(16) and2_10(w23,Cin,w4);
VLG   or #(23) or2_11(w10,w23,w22);
VLG   and #(16) and2_12(w24,B2,A2);
VLG   and #(16) and2_13(w25,w10,w9);
VLG   or #(23) or2_14(w15,w24,w25);
VLG   and #(16) and2_15(w26,A3,B3);
VLG   and #(16) and2_16(w27,w15,w14);
VLG   and #(16) and2_17(w28,w20,w19);
VLG   and #(16) and2_18(w29,A4,B4);
VLG   or #(23) or2_19(w20,w27,w26);
VLG   or #(16) or2_20(Cout,w28,w29);
VLG  endmodule
FSYM
SYM  #sym20
BB(120,-85,230,-25)
TITLE 113 -35  #
MODEL 6000
PROP                                                                                                                                   
REC(125,-80,100,50,r)
VIS 5
PIN(210,-25,0.000,0.000)A1
PIN(170,-25,0.000,0.000)B1
PIN(230,-50,0.000,0.000)Cin
PIN(200,-25,0.000,0.000)A2
PIN(160,-25,0.000,0.000)B2
PIN(190,-25,0.000,0.000)A3
PIN(150,-25,0.000,0.000)B3
PIN(180,-25,0.000,0.000)A4
PIN(140,-25,0.000,0.000)B4
PIN(130,-85,0.060,0.070)S4
PIN(120,-60,0.060,0.070)Cout
PIN(140,-85,0.060,0.070)S3
PIN(150,-85,0.060,0.070)S2
PIN(160,-85,0.060,0.070)S1
LIG(210,-25,210,-30)
LIG(170,-25,170,-30)
LIG(225,-50,230,-50)
LIG(200,-25,200,-30)
LIG(160,-25,160,-30)
LIG(190,-25,190,-30)
LIG(150,-25,150,-30)
LIG(180,-25,180,-30)
LIG(140,-25,140,-30)
LIG(130,-80,130,-85)
LIG(120,-60,125,-60)
LIG(140,-80,140,-85)
LIG(150,-80,150,-85)
LIG(160,-80,160,-85)
LIG(125,-30,225,-30)
LIG(125,-30,125,-80)
LIG(125,-80,225,-80)
LIG(225,-80,225,-30)
VLG  module sym20( A1,B1,Cin,A2,B2,A3,B3,A4,
VLG   B4,S4,Cout,S3,S2,S1);
VLG   input A1,B1,Cin,A2,B2,A3,B3,A4;
VLG   input B4;
VLG   output S4,Cout,S3,S2,S1;
VLG   wire w4,w9,w10,w14,w15,w19,w20,w22;
VLG   wire w23,w24,w25,w26,w27,w28,w29,;
VLG   xor #(23) xor2_1(w4,A1,B1);
VLG   xor #(16) xor2_2(S1,w4,Cin);
VLG   xor #(23) xor2_3(w9,A2,B2);
VLG   xor #(16) xor2_4(S2,w9,w10);
VLG   xor #(23) xor2_5(w14,A3,B3);
VLG   xor #(16) xor2_6(S3,w14,w15);
VLG   xor #(23) xor2_7(w19,A4,B4);
VLG   xor #(16) xor2_8(S4,w19,w20);
VLG   and #(16) and2_9(w22,B1,A1);
VLG   and #(16) and2_10(w23,Cin,w4);
VLG   or #(23) or2_11(w10,w23,w22);
VLG   and #(16) and2_12(w24,B2,A2);
VLG   and #(16) and2_13(w25,w10,w9);
VLG   or #(23) or2_14(w15,w24,w25);
VLG   and #(16) and2_15(w26,A3,B3);
VLG   and #(16) and2_16(w27,w15,w14);
VLG   and #(16) and2_17(w28,w20,w19);
VLG   and #(16) and2_18(w29,A4,B4);
VLG   or #(23) or2_19(w20,w27,w26);
VLG   or #(16) or2_20(Cout,w28,w29);
VLG  endmodule
FSYM
SYM  #sym20
BB(-80,-85,30,-25)
TITLE -87 -35  #
MODEL 6000
PROP                                                                                                                                   
REC(-75,-80,100,50,r)
VIS 5
PIN(10,-25,0.000,0.000)A1
PIN(-30,-25,0.000,0.000)B1
PIN(30,-50,0.000,0.000)Cin
PIN(0,-25,0.000,0.000)A2
PIN(-40,-25,0.000,0.000)B2
PIN(-10,-25,0.000,0.000)A3
PIN(-50,-25,0.000,0.000)B3
PIN(-20,-25,0.000,0.000)A4
PIN(-60,-25,0.000,0.000)B4
PIN(-70,-85,0.060,0.070)S4
PIN(-80,-60,0.060,0.070)Cout
PIN(-60,-85,0.060,0.070)S3
PIN(-50,-85,0.060,0.070)S2
PIN(-40,-85,0.060,0.070)S1
LIG(10,-25,10,-30)
LIG(-30,-25,-30,-30)
LIG(25,-50,30,-50)
LIG(0,-25,0,-30)
LIG(-40,-25,-40,-30)
LIG(-10,-25,-10,-30)
LIG(-50,-25,-50,-30)
LIG(-20,-25,-20,-30)
LIG(-60,-25,-60,-30)
LIG(-70,-80,-70,-85)
LIG(-80,-60,-75,-60)
LIG(-60,-80,-60,-85)
LIG(-50,-80,-50,-85)
LIG(-40,-80,-40,-85)
LIG(-75,-30,25,-30)
LIG(-75,-30,-75,-80)
LIG(-75,-80,25,-80)
LIG(25,-80,25,-30)
VLG  module sym20( A1,B1,Cin,A2,B2,A3,B3,A4,
VLG   B4,S4,Cout,S3,S2,S1);
VLG   input A1,B1,Cin,A2,B2,A3,B3,A4;
VLG   input B4;
VLG   output S4,Cout,S3,S2,S1;
VLG   wire w4,w9,w10,w14,w15,w19,w20,w22;
VLG   wire w23,w24,w25,w26,w27,w28,w29,;
VLG   xor #(23) xor2_1(w4,A1,B1);
VLG   xor #(16) xor2_2(S1,w4,Cin);
VLG   xor #(23) xor2_3(w9,A2,B2);
VLG   xor #(16) xor2_4(S2,w9,w10);
VLG   xor #(23) xor2_5(w14,A3,B3);
VLG   xor #(16) xor2_6(S3,w14,w15);
VLG   xor #(23) xor2_7(w19,A4,B4);
VLG   xor #(16) xor2_8(S4,w19,w20);
VLG   and #(16) and2_9(w22,B1,A1);
VLG   and #(16) and2_10(w23,Cin,w4);
VLG   or #(23) or2_11(w10,w23,w22);
VLG   and #(16) and2_12(w24,B2,A2);
VLG   and #(16) and2_13(w25,w10,w9);
VLG   or #(23) or2_14(w15,w24,w25);
VLG   and #(16) and2_15(w26,A3,B3);
VLG   and #(16) and2_16(w27,w15,w14);
VLG   and #(16) and2_17(w28,w20,w19);
VLG   and #(16) and2_18(w29,A4,B4);
VLG   or #(23) or2_19(w20,w27,w26);
VLG   or #(16) or2_20(Cout,w28,w29);
VLG  endmodule
FSYM
SYM  #button
BB(186,140,194,149)
TITLE 190 145  #button1
MODEL 59
PROP                                                                                                                                   
REC(187,142,6,6,r)
VIS 1
PIN(190,140,0.000,0.000)in1
LIG(190,141,190,140)
LIG(194,149,186,149)
LIG(194,141,194,149)
LIG(186,141,194,141)
LIG(186,149,186,141)
LIG(193,148,187,148)
LIG(193,142,193,148)
LIG(187,142,193,142)
LIG(187,148,187,142)
FSYM
SYM  #button
BB(-19,140,-11,149)
TITLE -15 145  #button2
MODEL 59
PROP                                                                                                                                   
REC(-18,142,6,6,r)
VIS 1
PIN(-15,140,0.000,0.000)in2
LIG(-15,141,-15,140)
LIG(-11,149,-19,149)
LIG(-11,141,-11,149)
LIG(-19,141,-11,141)
LIG(-19,149,-19,141)
LIG(-12,148,-18,148)
LIG(-12,142,-12,148)
LIG(-18,142,-12,142)
LIG(-18,148,-18,142)
FSYM
SYM  #button
BB(76,140,84,149)
TITLE 80 145  #button3
MODEL 59
PROP                                                                                                                                   
REC(77,142,6,6,r)
VIS 1
PIN(80,140,0.000,0.000)in3
LIG(80,141,80,140)
LIG(84,149,76,149)
LIG(84,141,84,149)
LIG(76,141,84,141)
LIG(76,149,76,141)
LIG(83,148,77,148)
LIG(83,142,83,148)
LIG(77,142,83,142)
LIG(77,148,77,142)
FSYM
SYM  #button
BB(-69,140,-61,149)
TITLE -65 145  #button4
MODEL 59
PROP                                                                                                                                   
REC(-68,142,6,6,r)
VIS 1
PIN(-65,140,0.000,0.000)in4
LIG(-65,141,-65,140)
LIG(-61,149,-69,149)
LIG(-61,141,-61,149)
LIG(-69,141,-61,141)
LIG(-69,149,-69,141)
LIG(-62,148,-68,148)
LIG(-62,142,-62,148)
LIG(-68,142,-62,142)
LIG(-68,148,-68,142)
FSYM
SYM  #button
BB(111,135,119,144)
TITLE 115 140  #button5
MODEL 59
PROP                                                                                                                                   
REC(112,137,6,6,r)
VIS 1
PIN(115,135,0.000,0.000)in5
LIG(115,136,115,135)
LIG(119,144,111,144)
LIG(119,136,119,144)
LIG(111,136,119,136)
LIG(111,144,111,136)
LIG(118,143,112,143)
LIG(118,137,118,143)
LIG(112,137,118,137)
LIG(112,143,112,137)
FSYM
SYM  #button
BB(126,135,134,144)
TITLE 130 140  #button6
MODEL 59
PROP                                                                                                                                   
REC(127,137,6,6,r)
VIS 1
PIN(130,135,0.000,0.000)in6
LIG(130,136,130,135)
LIG(134,144,126,144)
LIG(134,136,134,144)
LIG(126,136,134,136)
LIG(126,144,126,136)
LIG(133,143,127,143)
LIG(133,137,133,143)
LIG(127,137,133,137)
LIG(127,143,127,137)
FSYM
SYM  #button
BB(141,135,149,144)
TITLE 145 140  #button7
MODEL 59
PROP                                                                                                                                   
REC(142,137,6,6,r)
VIS 1
PIN(145,135,0.000,0.000)in7
LIG(145,136,145,135)
LIG(149,144,141,144)
LIG(149,136,149,144)
LIG(141,136,149,136)
LIG(141,144,141,136)
LIG(148,143,142,143)
LIG(148,137,148,143)
LIG(142,137,148,137)
LIG(142,143,142,137)
FSYM
SYM  #button
BB(156,135,164,144)
TITLE 160 140  #button8
MODEL 59
PROP                                                                                                                                   
REC(157,137,6,6,r)
VIS 1
PIN(160,135,0.000,0.000)in8
LIG(160,136,160,135)
LIG(164,144,156,144)
LIG(164,136,164,144)
LIG(156,136,164,136)
LIG(156,144,156,136)
LIG(163,143,157,143)
LIG(163,137,163,143)
LIG(157,137,163,137)
LIG(157,143,157,137)
FSYM
SYM  #sym30
BB(-20,-5,70,50)
TITLE -27 40  #sym30
MODEL 6000
PROP                                                                                                                                   
REC(-15,0,80,45,r)
VIS 5
PIN(-10,50,0.000,0.000)i1
PIN(0,50,0.000,0.000)i2
PIN(10,50,0.000,0.000)i3
PIN(20,50,0.000,0.000)i4
PIN(60,50,0.000,0.000)i8
PIN(50,50,0.000,0.000)i7
PIN(30,50,0.000,0.000)i5
PIN(40,50,0.000,0.000)i6
PIN(-10,-5,0.060,0.070)o1
PIN(0,-5,0.060,0.070)o2
PIN(10,-5,0.060,0.070)o3
PIN(20,-5,0.060,0.070)o4
LIG(-10,50,-10,45)
LIG(0,50,0,45)
LIG(10,50,10,45)
LIG(20,50,20,45)
LIG(60,50,60,45)
LIG(50,50,50,45)
LIG(30,50,30,45)
LIG(40,50,40,45)
LIG(-10,0,-10,-5)
LIG(0,0,0,-5)
LIG(10,0,10,-5)
LIG(20,0,20,-5)
LIG(-15,45,65,45)
LIG(-15,45,-15,0)
LIG(-15,0,65,0)
LIG(65,0,65,45)
VLG  module sym30( i1,i2,i3,i4,i8,i7,i5,i6,
VLG   o1,o2,o3,o4);
VLG   input i1,i2,i3,i4,i8,i7,i5,i6;
VLG   output o1,o2,o3,o4;
VLG   wire ;
VLG   and #(16) and2_1(o1,i2,i1);
VLG   and #(16) and2_2(o2,i4,i3);
VLG   and #(16) and2_3(o4,i7,i8);
VLG   and #(16) and2_4(o3,i5,i6);
VLG  endmodule
FSYM
SYM  #sym30
BB(75,-5,165,50)
TITLE 68 40  #sym30
MODEL 6000
PROP                                                                                                                                   
REC(80,0,80,45,r)
VIS 5
PIN(85,50,0.000,0.000)i1
PIN(95,50,0.000,0.000)i2
PIN(105,50,0.000,0.000)i3
PIN(115,50,0.000,0.000)i4
PIN(155,50,0.000,0.000)i8
PIN(145,50,0.000,0.000)i7
PIN(125,50,0.000,0.000)i5
PIN(135,50,0.000,0.000)i6
PIN(85,-5,0.060,0.070)o1
PIN(95,-5,0.060,0.070)o2
PIN(105,-5,0.060,0.070)o3
PIN(115,-5,0.060,0.070)o4
LIG(85,50,85,45)
LIG(95,50,95,45)
LIG(105,50,105,45)
LIG(115,50,115,45)
LIG(155,50,155,45)
LIG(145,50,145,45)
LIG(125,50,125,45)
LIG(135,50,135,45)
LIG(85,0,85,-5)
LIG(95,0,95,-5)
LIG(105,0,105,-5)
LIG(115,0,115,-5)
LIG(80,45,160,45)
LIG(80,45,80,0)
LIG(80,0,160,0)
LIG(160,0,160,45)
VLG  module sym30( i1,i2,i3,i4,i8,i7,i5,i6,
VLG   o1,o2,o3,o4);
VLG   input i1,i2,i3,i4,i8,i7,i5,i6;
VLG   output o1,o2,o3,o4;
VLG   wire ;
VLG   and #(16) and2_1(o1,i2,i1);
VLG   and #(16) and2_2(o2,i4,i3);
VLG   and #(16) and2_3(o4,i7,i8);
VLG   and #(16) and2_4(o3,i5,i6);
VLG  endmodule
FSYM
SYM  #sym30
BB(180,-5,270,50)
TITLE 173 40  #sym30
MODEL 6000
PROP                                                                                                                                   
REC(185,0,80,45,r)
VIS 5
PIN(190,50,0.000,0.000)i1
PIN(200,50,0.000,0.000)i2
PIN(210,50,0.000,0.000)i3
PIN(220,50,0.000,0.000)i4
PIN(260,50,0.000,0.000)i8
PIN(250,50,0.000,0.000)i7
PIN(230,50,0.000,0.000)i5
PIN(240,50,0.000,0.000)i6
PIN(190,-5,0.060,0.070)o1
PIN(200,-5,0.060,0.070)o2
PIN(210,-5,0.060,0.070)o3
PIN(220,-5,0.060,0.070)o4
LIG(190,50,190,45)
LIG(200,50,200,45)
LIG(210,50,210,45)
LIG(220,50,220,45)
LIG(260,50,260,45)
LIG(250,50,250,45)
LIG(230,50,230,45)
LIG(240,50,240,45)
LIG(190,0,190,-5)
LIG(200,0,200,-5)
LIG(210,0,210,-5)
LIG(220,0,220,-5)
LIG(185,45,265,45)
LIG(185,45,185,0)
LIG(185,0,265,0)
LIG(265,0,265,45)
VLG  module sym30( i1,i2,i3,i4,i8,i7,i5,i6,
VLG   o1,o2,o3,o4);
VLG   input i1,i2,i3,i4,i8,i7,i5,i6;
VLG   output o1,o2,o3,o4;
VLG   wire ;
VLG   and #(16) and2_1(o1,i2,i1);
VLG   and #(16) and2_2(o2,i4,i3);
VLG   and #(16) and2_3(o4,i7,i8);
VLG   and #(16) and2_4(o3,i5,i6);
VLG  endmodule
FSYM
CNC(115 105)
CNC(145 95)
CNC(130 100)
CNC(-85 55)
CNC(-65 55)
CNC(170 -15)
CNC(160 90)
CNC(-35 90)
CNC(-55 95)
CNC(-75 100)
CNC(-95 105)
CNC(-65 55)
CNC(-65 55)
CNC(60 90)
CNC(40 95)
CNC(20 100)
CNC(0 105)
CNC(-10 55)
CNC(10 55)
CNC(30 55)
CNC(155 90)
CNC(135 95)
CNC(115 100)
CNC(95 105)
CNC(85 55)
CNC(105 55)
CNC(125 55)
CNC(190 55)
CNC(250 55)
CNC(230 55)
CNC(210 55)
CNC(260 90)
CNC(240 95)
CNC(220 100)
CNC(200 105)
CNC(190 55)
LIG(130,135,130,100)
LIG(-105,55,-85,55)
LIG(-95,105,0,105)
LIG(-130,105,-95,105)
LIG(-135,100,-75,100)
LIG(-130,95,-55,95)
LIG(115,105,200,105)
LIG(130,100,220,100)
LIG(-55,50,-55,95)
LIG(115,135,115,105)
LIG(145,95,240,95)
LIG(145,135,145,95)
LIG(-95,50,-95,105)
LIG(-75,100,20,100)
LIG(-75,50,-75,100)
LIG(-55,95,40,95)
LIG(-105,50,-105,55)
LIG(-85,50,-85,55)
LIG(-85,55,-65,55)
LIG(-65,50,-65,55)
LIG(-65,55,-45,55)
LIG(-45,50,-45,55)
LIG(-15,55,-15,140)
LIG(-130,90,-35,90)
LIG(160,135,160,90)
LIG(160,90,260,90)
LIG(-35,50,-35,90)
LIG(-35,90,60,90)
LIG(-65,55,-65,140)
LIG(80,55,80,140)
LIG(60,50,60,90)
LIG(60,90,155,90)
LIG(40,50,40,95)
LIG(40,95,135,95)
LIG(20,50,20,100)
LIG(20,100,115,100)
LIG(0,50,0,105)
LIG(0,105,95,105)
LIG(-15,55,-10,55)
LIG(-10,50,-10,55)
LIG(-10,55,10,55)
LIG(10,50,10,55)
LIG(10,55,30,55)
LIG(30,50,30,55)
LIG(30,55,50,55)
LIG(50,50,50,55)
LIG(155,50,155,90)
LIG(155,90,160,90)
LIG(135,50,135,95)
LIG(135,95,145,95)
LIG(115,50,115,100)
LIG(115,100,130,100)
LIG(95,50,95,105)
LIG(95,105,115,105)
LIG(80,55,85,55)
LIG(85,50,85,55)
LIG(85,55,105,55)
LIG(105,50,105,55)
LIG(105,55,125,55)
LIG(125,50,125,55)
LIG(125,55,145,55)
LIG(145,50,145,55)
LIG(170,-15,175,-15)
LIG(170,-25,170,-15)
LIG(115,-15,170,-15)
LIG(115,-5,115,-15)
LIG(210,-25,210,-5)
LIG(260,50,260,90)
LIG(260,90,270,90)
LIG(240,50,240,95)
LIG(240,95,275,95)
LIG(220,50,220,100)
LIG(220,100,275,100)
LIG(200,50,200,105)
LIG(200,105,275,105)
LIG(185,55,190,55)
LIG(190,50,190,55)
LIG(190,55,210,55)
LIG(210,50,210,55)
LIG(210,55,230,55)
LIG(230,50,230,55)
LIG(230,55,250,55)
LIG(250,50,250,55)
LIG(250,55,265,55)
LIG(190,55,190,140)
FFIG E:\Galib\DSCH\System\example10001.sch
