USER SYMBOL by DSCH3
DATE 5/22/2015 9:07:48 PM
SYM  #halfadder
BB(0,0,40,30)
TITLE 10 -7  #halfadder
MODEL 6000
REC(5,5,30,20)
PIN(0,20,0.00,0.00)A
PIN(0,10,0.00,0.00)B
PIN(40,10,2.00,1.00)S
PIN(40,20,2.00,1.00)C
LIG(0,20,5,20)
LIG(0,10,5,10)
LIG(35,10,40,10)
LIG(35,20,40,20)
LIG(5,5,5,25)
LIG(5,5,35,5)
LIG(35,5,35,25)
LIG(35,25,5,25)
VLG module halfadder( A,B,S,C);
VLG  input A,B;
VLG  output S,C;
VLG  wire ;
VLG  xor #(16) xor2_1(S,A,B);
VLG  and #(16) and2_2(C,B,A);
VLG endmodule
FSYM
