DSCH3
VERSION 4/3/2010 10:17:11 AM
BB(236,-330,480,-185)
SYM  #inv
BB(260,-240,295,-220)
TITLE 275 -230  #~
MODEL 101
PROP                                                                                                                                   
REC(5,0,0,0, )
VIS 0
PIN(260,-230,0.000,0.000)in
PIN(295,-230,0.030,0.140)out
LIG(260,-230,270,-230)
LIG(270,-240,270,-220)
LIG(270,-240,285,-230)
LIG(270,-220,285,-230)
LIG(287,-230,287,-230)
LIG(289,-230,295,-230)
VLG  not not1(out,in);
FSYM
SYM  #and3
BB(340,-295,375,-265)
TITLE 355 -280  #&
MODEL 403
PROP                                                                                                                                   
REC(340,-295,0,0,P)
VIS 0
PIN(340,-290,0.000,0.000)a
PIN(340,-280,0.000,0.000)b
PIN(340,-270,0.000,0.000)c
PIN(380,-280,0.090,0.070)s
LIG(380,-280,370,-280)
LIG(340,-270,350,-270)
LIG(340,-280,350,-280)
LIG(340,-290,350,-290)
LIG(350,-280,350,-265)
LIG(365,-269,360,-266)
LIG(369,-277,365,-269)
LIG(350,-295,350,-280)
LIG(350,-295,360,-294)
LIG(370,-280,369,-277)
LIG(369,-283,370,-280)
LIG(350,-265,360,-266)
LIG(365,-291,369,-283)
LIG(360,-294,365,-291)
VLG  and and3(s,a,b,c);
FSYM
SYM  #and3
BB(340,-265,375,-235)
TITLE 355 -250  #&
MODEL 403
PROP                                                                                                                                   
REC(340,-265,0,0,P)
VIS 0
PIN(340,-260,0.000,0.000)a
PIN(340,-250,0.000,0.000)b
PIN(340,-240,0.000,0.000)c
PIN(380,-250,0.090,0.070)s
LIG(380,-250,370,-250)
LIG(340,-240,350,-240)
LIG(340,-250,350,-250)
LIG(340,-260,350,-260)
LIG(350,-250,350,-235)
LIG(365,-239,360,-236)
LIG(369,-247,365,-239)
LIG(350,-265,350,-250)
LIG(350,-265,360,-264)
LIG(370,-250,369,-247)
LIG(369,-253,370,-250)
LIG(350,-235,360,-236)
LIG(365,-261,369,-253)
LIG(360,-264,365,-261)
VLG  and and3(s,a,b,c);
FSYM
SYM  #and3
BB(340,-235,375,-205)
TITLE 355 -220  #&
MODEL 403
PROP                                                                                                                                   
REC(340,-235,0,0,P)
VIS 0
PIN(340,-230,0.000,0.000)a
PIN(340,-220,0.000,0.000)b
PIN(340,-210,0.000,0.000)c
PIN(380,-220,0.090,0.070)s
LIG(380,-220,370,-220)
LIG(340,-210,350,-210)
LIG(340,-220,350,-220)
LIG(340,-230,350,-230)
LIG(350,-220,350,-205)
LIG(365,-209,360,-206)
LIG(369,-217,365,-209)
LIG(350,-235,350,-220)
LIG(350,-235,360,-234)
LIG(370,-220,369,-217)
LIG(369,-223,370,-220)
LIG(350,-205,360,-206)
LIG(365,-231,369,-223)
LIG(360,-234,365,-231)
VLG  and and3(s,a,b,c);
FSYM
SYM  #and3
BB(340,-325,375,-295)
TITLE 355 -310  #&
MODEL 403
PROP                                                                                                                                   
REC(340,-325,0,0,P)
VIS 0
PIN(340,-320,0.000,0.000)a
PIN(340,-310,0.000,0.000)b
PIN(340,-300,0.000,0.000)c
PIN(380,-310,0.090,0.070)s
LIG(380,-310,370,-310)
LIG(340,-300,350,-300)
LIG(340,-310,350,-310)
LIG(340,-320,350,-320)
LIG(350,-310,350,-295)
LIG(365,-299,360,-296)
LIG(369,-307,365,-299)
LIG(350,-325,350,-310)
LIG(350,-325,360,-324)
LIG(370,-310,369,-307)
LIG(369,-313,370,-310)
LIG(350,-295,360,-296)
LIG(365,-321,369,-313)
LIG(360,-324,365,-321)
VLG  and and3(s,a,b,c);
FSYM
SYM  #or2
BB(395,-315,430,-295)
TITLE 415 -305  #|
MODEL 502
PROP                                                                                                                                   
REC(0,0,0,0, )
VIS 0
PIN(395,-310,0.000,0.000)a
PIN(395,-300,0.000,0.000)b
PIN(430,-305,0.090,0.070)s
LIG(395,-300,408,-300)
LIG(407,-298,403,-295)
LIG(423,-305,430,-305)
LIG(422,-303,419,-299)
LIG(423,-305,422,-303)
LIG(422,-307,423,-305)
LIG(419,-311,422,-307)
LIG(414,-314,419,-311)
LIG(419,-299,414,-296)
LIG(414,-296,403,-295)
LIG(403,-315,414,-314)
LIG(409,-302,407,-298)
LIG(403,-315,407,-312)
LIG(407,-312,409,-308)
LIG(409,-308,410,-305)
LIG(410,-305,409,-302)
LIG(395,-310,408,-310)
VLG  or or2(s,a,b);
FSYM
SYM  #or3
BB(395,-285,435,-255)
TITLE 410 -265  #|
MODEL 503
PROP                                                                                                                                   
REC(0,0,0,0, )
VIS 0
PIN(395,-280,0.000,0.000)a
PIN(395,-270,0.000,0.000)b
PIN(395,-260,0.000,0.000)c
PIN(435,-270,0.120,0.070)s
LIG(395,-260,409,-260)
LIG(395,-270,411,-270)
LIG(395,-280,409,-280)
LIG(409,-260,405,-255)
LIG(420,-259,415,-256)
LIG(424,-267,420,-259)
LIG(415,-284,420,-281)
LIG(405,-285,415,-284)
LIG(425,-270,424,-267)
LIG(424,-273,425,-270)
LIG(405,-255,415,-256)
LIG(420,-281,424,-273)
LIG(405,-285,409,-280)
LIG(409,-280,411,-270)
LIG(411,-270,409,-260)
LIG(425,-270,435,-270)
VLG  or or3(s,a,b,c);
FSYM
SYM  #inv
BB(275,-220,310,-200)
TITLE 290 -210  #~
MODEL 101
PROP                                                                                                                                   
REC(15,0,0,0, )
VIS 0
PIN(275,-210,0.000,0.000)in
PIN(310,-210,0.030,0.140)out
LIG(275,-210,285,-210)
LIG(285,-220,285,-200)
LIG(285,-220,300,-210)
LIG(285,-200,300,-210)
LIG(302,-210,302,-210)
LIG(304,-210,310,-210)
VLG  not not1(out,in);
FSYM
SYM  #button
BB(331,-304,340,-296)
TITLE 335 -300  #button12
MODEL 59
PROP                                                                                                                                   
REC(332,-303,6,6,r)
VIS 1
PIN(340,-300,0.000,0.000)in12
LIG(339,-300,340,-300)
LIG(331,-296,331,-304)
LIG(339,-296,331,-296)
LIG(339,-304,339,-296)
LIG(331,-304,339,-304)
LIG(332,-297,332,-303)
LIG(338,-297,332,-297)
LIG(338,-303,338,-297)
LIG(332,-303,338,-303)
FSYM
SYM  #button
BB(331,-274,340,-266)
TITLE 335 -270  #button13
MODEL 59
PROP                                                                                                                                   
REC(332,-273,6,6,r)
VIS 1
PIN(340,-270,0.000,0.000)in13
LIG(339,-270,340,-270)
LIG(331,-266,331,-274)
LIG(339,-266,331,-266)
LIG(339,-274,339,-266)
LIG(331,-274,339,-274)
LIG(332,-267,332,-273)
LIG(338,-267,332,-267)
LIG(338,-273,338,-267)
LIG(332,-273,338,-273)
FSYM
SYM  #button
BB(331,-244,340,-236)
TITLE 335 -240  #button14
MODEL 59
PROP                                                                                                                                   
REC(332,-243,6,6,r)
VIS 1
PIN(340,-240,0.000,0.000)in14
LIG(339,-240,340,-240)
LIG(331,-236,331,-244)
LIG(339,-236,331,-236)
LIG(339,-244,339,-236)
LIG(331,-244,339,-244)
LIG(332,-237,332,-243)
LIG(338,-237,332,-237)
LIG(338,-243,338,-237)
LIG(332,-243,338,-243)
FSYM
SYM  #button
BB(331,-214,340,-206)
TITLE 335 -210  #button15
MODEL 59
PROP                                                                                                                                   
REC(332,-213,6,6,r)
VIS 1
PIN(340,-210,0.000,0.000)in15
LIG(339,-210,340,-210)
LIG(331,-206,331,-214)
LIG(339,-206,331,-206)
LIG(339,-214,339,-206)
LIG(331,-214,339,-214)
LIG(332,-207,332,-213)
LIG(338,-207,332,-207)
LIG(338,-213,338,-207)
LIG(332,-213,338,-213)
FSYM
SYM  #light
BB(428,-320,434,-306)
TITLE 430 -306  #light8
MODEL 49
PROP                                                                                                                                   
REC(429,-319,4,4,r)
VIS 1
PIN(430,-305,0.000,0.000)out8
LIG(433,-314,433,-319)
LIG(433,-319,432,-320)
LIG(429,-319,429,-314)
LIG(432,-309,432,-312)
LIG(431,-309,434,-309)
LIG(431,-307,433,-309)
LIG(432,-307,434,-309)
LIG(428,-312,434,-312)
LIG(430,-312,430,-305)
LIG(428,-314,428,-312)
LIG(434,-314,428,-314)
LIG(434,-312,434,-314)
LIG(430,-320,429,-319)
LIG(432,-320,430,-320)
FSYM
SYM  #button
BB(236,-214,245,-206)
TITLE 240 -210  #button16
MODEL 59
PROP                                                                                                                                   
REC(237,-213,6,6,r)
VIS 1
PIN(245,-210,0.000,0.000)in16
LIG(244,-210,245,-210)
LIG(236,-206,236,-214)
LIG(244,-206,236,-206)
LIG(244,-214,244,-206)
LIG(236,-214,244,-214)
LIG(237,-207,237,-213)
LIG(243,-207,237,-207)
LIG(243,-213,243,-207)
LIG(237,-213,243,-213)
FSYM
SYM  #button
BB(251,-234,260,-226)
TITLE 255 -230  #button17
MODEL 59
PROP                                                                                                                                   
REC(252,-233,6,6,r)
VIS 1
PIN(260,-230,0.000,0.000)in17
LIG(259,-230,260,-230)
LIG(251,-226,251,-234)
LIG(259,-226,251,-226)
LIG(259,-234,259,-226)
LIG(251,-234,259,-234)
LIG(252,-227,252,-233)
LIG(258,-227,252,-227)
LIG(258,-233,258,-227)
LIG(252,-233,258,-233)
FSYM
SYM  #sym4
BB(420,-245,480,-185)
TITLE 430 -252  #sym4
MODEL 6000
PROP                                                                                                                                   
REC(425,-240,50,50,r)
VIS 5
PIN(455,-185,0.000,0.000)B
PIN(420,-235,0.000,0.000)in1
PIN(420,-225,0.000,0.000)in2
PIN(420,-215,0.000,0.000)in3
PIN(420,-205,0.000,0.000)in4
PIN(445,-185,0.000,0.000)A
PIN(480,-225,0.060,0.070)out1
LIG(455,-190,455,-185)
LIG(420,-235,425,-235)
LIG(420,-225,425,-225)
LIG(420,-215,425,-215)
LIG(420,-205,425,-205)
LIG(445,-190,445,-185)
LIG(475,-225,480,-225)
LIG(425,-240,425,-190)
LIG(425,-240,475,-240)
LIG(475,-240,475,-190)
LIG(475,-190,425,-190)
VLG  module sym4( B,in1,in2,in3,in4,A,out1);
VLG   input B,in1,in2,in3,in4,A;
VLG   output out1;
VLG   wire w4,w5,w6,w8,w11,w13,w14,;
VLG   and #(16) and3_1(w6,in1,w4,w5);
VLG   and #(16) and3_2(w8,in2,w5,B);
VLG   and #(16) and3_3(w11,in3,A,w4);
VLG   and #(16) and3_4(w13,in4,A,A);
VLG   or #(19) or3_5(w14,w6,w8,w11);
VLG   or #(16) or2_6(out1,w14,w13);
VLG   not #(17) inv_7(w4,B);
VLG   not #(17) inv_8(w5,A);
VLG  endmodule
FSYM
CNC(435 -290)
CNC(395 -290)
CNC(245 -210)
CNC(295 -310)
CNC(310 -290)
CNC(315 -280)
CNC(260 -280)
CNC(245 -260)
CNC(295 -250)
CNC(265 -210)
CNC(330 -190)
LIG(380,-280,395,-280)
LIG(380,-250,380,-270)
LIG(380,-270,395,-270)
LIG(380,-220,395,-220)
LIG(395,-260,395,-220)
LIG(435,-270,435,-290)
LIG(390,-290,395,-290)
LIG(435,-290,435,-295)
LIG(395,-300,395,-290)
LIG(395,-290,435,-290)
LIG(380,-310,395,-310)
LIG(295,-230,295,-250)
LIG(310,-290,310,-210)
LIG(315,-220,340,-220)
LIG(260,-325,260,-280)
LIG(245,-210,265,-210)
LIG(245,-210,245,-260)
LIG(245,-210,240,-210)
LIG(310,-320,340,-320)
LIG(295,-310,340,-310)
LIG(295,-310,295,-320)
LIG(310,-290,345,-290)
LIG(310,-290,310,-320)
LIG(315,-280,260,-280)
LIG(315,-280,315,-220)
LIG(340,-280,315,-280)
LIG(260,-280,260,-230)
LIG(340,-260,245,-260)
LIG(245,-260,245,-330)
LIG(295,-250,340,-250)
LIG(295,-250,295,-310)
LIG(265,-210,265,-190)
LIG(265,-210,275,-210)
LIG(265,-190,330,-190)
LIG(330,-190,330,-230)
LIG(330,-190,345,-190)
LIG(330,-230,340,-230)
FFIG E:\Galib\DSCH\System\mux.sch
