DSCH3
VERSION 4/3/2010 10:46:35 AM
BB(-65,-465,635,145)
SYM  #button
BB(326,110,334,119)
TITLE 330 115  #B1
MODEL 59
PROP                                                                                                                                    
REC(327,112,6,6,r)
VIS 1
PIN(330,110,0.000,0.000)B1
LIG(330,111,330,110)
LIG(334,119,326,119)
LIG(334,111,334,119)
LIG(326,111,334,111)
LIG(326,119,326,111)
LIG(333,118,327,118)
LIG(333,112,333,118)
LIG(327,112,333,112)
LIG(327,118,327,112)
FSYM
SYM  #button
BB(286,110,294,119)
TITLE 290 115  #B2
MODEL 59
PROP                                                                                                                                    
REC(287,112,6,6,r)
VIS 1
PIN(290,110,0.000,0.000)B2
LIG(290,111,290,110)
LIG(294,119,286,119)
LIG(294,111,294,119)
LIG(286,111,294,111)
LIG(286,119,286,111)
LIG(293,118,287,118)
LIG(293,112,293,118)
LIG(287,112,293,112)
LIG(287,118,287,112)
FSYM
SYM  #button
BB(126,110,134,119)
TITLE 130 115  #A4
MODEL 59
PROP                                                                                                                                    
REC(127,112,6,6,r)
VIS 1
PIN(130,110,0.000,0.000)A4
LIG(130,111,130,110)
LIG(134,119,126,119)
LIG(134,111,134,119)
LIG(126,111,134,111)
LIG(126,119,126,111)
LIG(133,118,127,118)
LIG(133,112,133,118)
LIG(127,112,133,112)
LIG(127,118,127,112)
FSYM
SYM  #button
BB(151,110,159,119)
TITLE 155 115  #A3
MODEL 59
PROP                                                                                                                                    
REC(152,112,6,6,r)
VIS 1
PIN(155,110,0.000,0.000)A3
LIG(155,111,155,110)
LIG(159,119,151,119)
LIG(159,111,159,119)
LIG(151,111,159,111)
LIG(151,119,151,111)
LIG(158,118,152,118)
LIG(158,112,158,118)
LIG(152,112,158,112)
LIG(152,118,152,112)
FSYM
SYM  #button
BB(186,110,194,119)
TITLE 190 115  #A2
MODEL 59
PROP                                                                                                                                    
REC(187,112,6,6,r)
VIS 1
PIN(190,110,0.000,0.000)A2
LIG(190,111,190,110)
LIG(194,119,186,119)
LIG(194,111,194,119)
LIG(186,111,194,111)
LIG(186,119,186,111)
LIG(193,118,187,118)
LIG(193,112,193,118)
LIG(187,112,193,112)
LIG(187,118,187,112)
FSYM
SYM  #button
BB(211,110,219,119)
TITLE 215 115  #A1
MODEL 59
PROP                                                                                                                                    
REC(212,112,6,6,r)
VIS 1
PIN(215,110,0.000,0.000)A1
LIG(215,111,215,110)
LIG(219,119,211,119)
LIG(219,111,219,119)
LIG(211,111,219,111)
LIG(211,119,211,111)
LIG(218,118,212,118)
LIG(218,112,218,118)
LIG(212,112,218,112)
LIG(212,118,212,112)
FSYM
SYM  #button
BB(246,110,254,119)
TITLE 250 115  #B4
MODEL 59
PROP                                                                                                                                    
REC(247,112,6,6,r)
VIS 1
PIN(250,110,0.000,0.000)B4
LIG(250,111,250,110)
LIG(254,119,246,119)
LIG(254,111,254,119)
LIG(246,111,254,111)
LIG(246,119,246,111)
LIG(253,118,247,118)
LIG(253,112,253,118)
LIG(247,112,253,112)
LIG(247,118,247,112)
FSYM
SYM  #button
BB(266,110,274,119)
TITLE 270 115  #B3
MODEL 59
PROP                                                                                                                                    
REC(267,112,6,6,r)
VIS 1
PIN(270,110,0.000,0.000)B3
LIG(270,111,270,110)
LIG(274,119,266,119)
LIG(274,111,274,119)
LIG(266,111,274,111)
LIG(266,119,266,111)
LIG(273,118,267,118)
LIG(273,112,273,118)
LIG(267,112,273,112)
LIG(267,118,267,112)
FSYM
SYM  #sym2
BB(360,0,450,45)
TITLE 353 35  #XOR
MODEL 6000
PROP                                                                                                                                    
REC(365,5,80,35,r)
VIS 5
PIN(370,45,0.000,0.000)in1
PIN(380,45,0.000,0.000)in2
PIN(390,45,0.000,0.000)in3
PIN(400,45,0.000,0.000)in4
PIN(410,45,0.000,0.000)in5
PIN(420,45,0.000,0.000)in6
PIN(430,45,0.000,0.000)in7
PIN(440,45,0.000,0.000)in8
PIN(400,0,0.060,0.210)out4
PIN(370,0,0.060,0.210)out1
PIN(380,0,0.060,0.210)out2
PIN(390,0,0.060,0.210)out3
LIG(370,45,370,40)
LIG(380,45,380,40)
LIG(390,45,390,40)
LIG(400,45,400,40)
LIG(410,45,410,40)
LIG(420,45,420,40)
LIG(430,45,430,40)
LIG(440,45,440,40)
LIG(400,5,400,0)
LIG(370,5,370,0)
LIG(380,5,380,0)
LIG(390,5,390,0)
LIG(365,40,445,40)
LIG(365,40,365,5)
LIG(365,5,445,5)
LIG(445,5,445,40)
VLG              module sym2( in1,in2,in3,in4,in5,in6,in7,in8,
VLG               out4,out1,out2,out3);
VLG               input in1,in2,in3,in4,in5,in6,in7,in8;
VLG               output out4,out1,out2,out3;
VLG               wire ;
VLG               xor #(16) xor2_1(out1,in1,in2);
VLG               xor #(16) xor2_2(out2,in3,in4);
VLG               xor #(16) xor2_3(out4,in8,in7);
VLG               xor #(16) xor2_4(out3,in6,in5);
VLG              endmodule
FSYM
SYM  #sym20
BB(350,-75,460,-15)
TITLE 343 -25  #
MODEL 6000
PROP                                                                                                                                    
REC(355,-70,100,50,r)
VIS 5
PIN(440,-15,0.000,0.000)A1
PIN(400,-15,0.000,0.000)B1
PIN(460,-40,0.000,0.000)Cin
PIN(430,-15,0.000,0.000)A2
PIN(390,-15,0.000,0.000)B2
PIN(420,-15,0.000,0.000)A3
PIN(380,-15,0.000,0.000)B3
PIN(410,-15,0.000,0.000)A4
PIN(370,-15,0.000,0.000)B4
PIN(360,-75,0.060,0.140)S4
PIN(350,-50,0.060,0.280)Cout
PIN(370,-75,0.060,0.140)S3
PIN(380,-75,0.060,0.140)S2
PIN(390,-75,0.060,0.140)S1
LIG(440,-15,440,-20)
LIG(400,-15,400,-20)
LIG(455,-40,460,-40)
LIG(430,-15,430,-20)
LIG(390,-15,390,-20)
LIG(420,-15,420,-20)
LIG(380,-15,380,-20)
LIG(410,-15,410,-20)
LIG(370,-15,370,-20)
LIG(360,-70,360,-75)
LIG(350,-50,355,-50)
LIG(370,-70,370,-75)
LIG(380,-70,380,-75)
LIG(390,-70,390,-75)
LIG(355,-20,455,-20)
LIG(355,-20,355,-70)
LIG(355,-70,455,-70)
LIG(455,-70,455,-20)
VLG              module sym20( A1,B1,Cin,A2,B2,A3,B3,A4,
VLG               B4,S4,Cout,S3,S2,S1);
VLG               input A1,B1,Cin,A2,B2,A3,B3,A4;
VLG               input B4;
VLG               output S4,Cout,S3,S2,S1;
VLG               wire w4,w9,w10,w14,w15,w19,w20,w22;
VLG               wire w23,w24,w25,w26,w27,w28,w29,;
VLG               xor #(23) xor2_1(w4,A1,B1);
VLG               xor #(16) xor2_2(S1,w4,Cin);
VLG               xor #(23) xor2_3(w9,A2,B2);
VLG               xor #(16) xor2_4(S2,w9,w10);
VLG               xor #(23) xor2_5(w14,A3,B3);
VLG               xor #(16) xor2_6(S3,w14,w15);
VLG               xor #(23) xor2_7(w19,A4,B4);
VLG               xor #(16) xor2_8(S4,w19,w20);
VLG               and #(16) and2_9(w22,B1,A1);
VLG               and #(16) and2_10(w23,Cin,w4);
VLG               or #(23) or2_11(w10,w23,w22);
VLG               and #(16) and2_12(w24,B2,A2);
VLG               and #(16) and2_13(w25,w10,w9);
VLG               or #(23) or2_14(w15,w24,w25);
VLG               and #(16) and2_15(w26,A3,B3);
VLG               and #(16) and2_16(w27,w15,w14);
VLG               and #(16) and2_17(w28,w20,w19);
VLG               and #(16) and2_18(w29,A4,B4);
VLG               or #(23) or2_19(w20,w27,w26);
VLG               or #(16) or2_20(Cout,w28,w29);
VLG              endmodule
FSYM
SYM  #sym25
BB(200,0,270,25)
TITLE 193 15  #sym25
MODEL 6000
PROP                                                                                                                                    
REC(205,5,60,15,r)
VIS 5
PIN(210,25,0.000,0.000)c11
PIN(220,25,0.000,0.000)c22
PIN(230,25,0.000,0.000)c33
PIN(260,25,0.000,0.000)c66
PIN(250,25,0.000,0.000)c55
PIN(240,25,0.000,0.000)c44
PIN(210,0,0.060,0.140)o1
PIN(220,0,0.060,0.140)o2
PIN(260,0,0.060,0.140)o6
PIN(250,0,0.060,0.140)o5
PIN(240,0,0.060,0.140)o4
PIN(230,0,0.060,0.140)o3
LIG(210,25,210,20)
LIG(220,25,220,20)
LIG(230,25,230,20)
LIG(260,25,260,20)
LIG(250,25,250,20)
LIG(240,25,240,20)
LIG(210,5,210,0)
LIG(220,5,220,0)
LIG(260,5,260,0)
LIG(250,5,250,0)
LIG(240,5,240,0)
LIG(230,5,230,0)
LIG(205,20,265,20)
LIG(205,20,205,5)
LIG(205,5,265,5)
LIG(265,5,265,20)
VLG              module sym25( c11,c22,c33,c66,c55,c44,o1,o2,
VLG               o6,o5,o4,o3);
VLG               input c11,c22,c33,c66,c55,c44;
VLG               output o1,o2,o6,o5,o4,o3;
VLG               wire w14,w15,w16,w17,w18,w19,w20,w21;
VLG               wire w22,w23,w24,w25;
VLG               not #(10) inv_1(o2,c22);
VLG               not #(10) inv_2(o1,c11);
VLG               not #(10) inv_3(o3,c33);
VLG               not #(10) inv_4(o4,c44);
VLG               not #(10) inv_5(o5,c55);
VLG               not #(10) inv_6(o6,c66);
VLG               not #(5) inv_1_7(w21,w15);
VLG               not #(5) inv_2_8(w20,w14);
VLG               not #(5) inv_3_9(w25,w16);
VLG               not #(5) inv_4_10(w24,w19);
VLG               not #(5) inv_5_11(w23,w18);
VLG               not #(5) inv_6_12(w22,w17);
VLG              endmodule
FSYM
SYM  #sym30
BB(530,-10,585,80)
TITLE 540 -17  #sym30
MODEL 6000
PROP                                                                                                                                    
REC(535,-5,45,80,r)
VIS 5
PIN(530,0,0.000,0.000)i1
PIN(530,10,0.000,0.000)i2
PIN(530,20,0.000,0.000)i3
PIN(530,30,0.000,0.000)i4
PIN(530,70,0.000,0.000)i8
PIN(530,60,0.000,0.000)i7
PIN(530,40,0.000,0.000)i5
PIN(530,50,0.000,0.000)i6
PIN(585,0,0.060,0.210)o1
PIN(585,10,0.060,0.490)o2
PIN(585,20,0.060,0.210)o3
PIN(585,30,0.060,0.070)o4
LIG(530,0,535,0)
LIG(530,10,535,10)
LIG(530,20,535,20)
LIG(530,30,535,30)
LIG(530,70,535,70)
LIG(530,60,535,60)
LIG(530,40,535,40)
LIG(530,50,535,50)
LIG(580,0,585,0)
LIG(580,10,585,10)
LIG(580,20,585,20)
LIG(580,30,585,30)
LIG(535,-5,535,75)
LIG(535,-5,580,-5)
LIG(580,-5,580,75)
LIG(580,75,535,75)
VLG              module sym30( i1,i2,i3,i4,i8,i7,i5,i6,
VLG               o1,o2,o3,o4);
VLG               input i1,i2,i3,i4,i8,i7,i5,i6;
VLG               output o1,o2,o3,o4;
VLG               wire ;
VLG               and #(16) and2_1(o1,i2,i1);
VLG               and #(16) and2_2(o2,i4,i3);
VLG               and #(16) and2_3(o4,i7,i8);
VLG               and #(16) and2_4(o3,i5,i6);
VLG              endmodule
FSYM
SYM  #sym30
BB(115,0,205,55)
TITLE 108 45  #sym30
MODEL 6000
PROP                                                                                                                                    
REC(120,5,80,45,r)
VIS 5
PIN(125,55,0.000,0.000)i1
PIN(135,55,0.000,0.000)i2
PIN(145,55,0.000,0.000)i3
PIN(155,55,0.000,0.000)i4
PIN(195,55,0.000,0.000)i8
PIN(185,55,0.000,0.000)i7
PIN(165,55,0.000,0.000)i5
PIN(175,55,0.000,0.000)i6
PIN(125,0,0.060,0.140)o1
PIN(135,0,0.060,0.140)o2
PIN(145,0,0.060,0.140)o3
PIN(155,0,0.060,0.140)o4
LIG(125,55,125,50)
LIG(135,55,135,50)
LIG(145,55,145,50)
LIG(155,55,155,50)
LIG(195,55,195,50)
LIG(185,55,185,50)
LIG(165,55,165,50)
LIG(175,55,175,50)
LIG(125,5,125,0)
LIG(135,5,135,0)
LIG(145,5,145,0)
LIG(155,5,155,0)
LIG(120,50,200,50)
LIG(120,50,120,5)
LIG(120,5,200,5)
LIG(200,5,200,50)
VLG              module sym30( i1,i2,i3,i4,i8,i7,i5,i6,
VLG               o1,o2,o3,o4);
VLG               input i1,i2,i3,i4,i8,i7,i5,i6;
VLG               output o1,o2,o3,o4;
VLG               wire ;
VLG               and #(16) and2_1(o1,i2,i1);
VLG               and #(16) and2_2(o2,i4,i3);
VLG               and #(16) and2_3(o4,i7,i8);
VLG               and #(16) and2_4(o3,i5,i6);
VLG              endmodule
FSYM
SYM  #button
BB(481,105,489,114)
TITLE 485 110  #R
MODEL 59
PROP                                                                                                                                    
REC(482,107,6,6,r)
VIS 1
PIN(485,105,0.000,0.000)R
LIG(485,106,485,105)
LIG(489,114,481,114)
LIG(489,106,489,114)
LIG(481,106,489,106)
LIG(481,114,481,106)
LIG(488,113,482,113)
LIG(488,107,488,113)
LIG(482,107,488,107)
LIG(482,113,482,107)
FSYM
SYM  #sym38
BB(275,0,365,55)
TITLE 268 45  #or
MODEL 6000
PROP                                                                                                                                    
REC(280,5,80,45,r)
VIS 5
PIN(335,55,0.000,0.000)i6
PIN(355,55,0.000,0.000)i8
PIN(345,55,0.000,0.000)i7
PIN(325,55,0.000,0.000)i5
PIN(285,55,0.000,0.000)i1
PIN(295,55,0.000,0.000)i2
PIN(315,55,0.000,0.000)i4
PIN(305,55,0.000,0.000)i3
PIN(295,0,0.060,0.140)o2
PIN(315,0,0.060,0.140)o4
PIN(305,0,0.060,0.140)o3
PIN(285,0,0.060,0.140)o1
LIG(335,55,335,50)
LIG(355,55,355,50)
LIG(345,55,345,50)
LIG(325,55,325,50)
LIG(285,55,285,50)
LIG(295,55,295,50)
LIG(315,55,315,50)
LIG(305,55,305,50)
LIG(295,5,295,0)
LIG(315,5,315,0)
LIG(305,5,305,0)
LIG(285,5,285,0)
LIG(280,50,360,50)
LIG(280,50,280,5)
LIG(280,5,360,5)
LIG(360,5,360,50)
VLG              module sym38( i6,i8,i7,i5,i1,i2,i4,i3,
VLG               o2,o4,o3,o1);
VLG               input i6,i8,i7,i5,i1,i2,i4,i3;
VLG               output o2,o4,o3,o1;
VLG               wire ;
VLG               or #(16) or2_1(o1,i1,i2);
VLG               or #(16) or2_2(o2,i3,i4);
VLG               or #(16) or2_3(o3,i5,i6);
VLG               or #(16) or2_4(o4,i7,i8);
VLG              endmodule
FSYM
SYM  #sym2
BB(350,-165,440,-120)
TITLE 343 -130  #XOR
MODEL 6000
PROP                                                                                                                                    
REC(355,-160,80,35,r)
VIS 5
PIN(360,-120,0.000,0.000)in1
PIN(370,-120,0.000,0.000)in2
PIN(380,-120,0.000,0.000)in3
PIN(390,-120,0.000,0.000)in4
PIN(400,-120,0.000,0.000)in5
PIN(410,-120,0.000,0.000)in6
PIN(420,-120,0.000,0.000)in7
PIN(430,-120,0.000,0.000)in8
PIN(390,-165,0.060,0.140)out4
PIN(360,-165,0.060,0.140)out1
PIN(370,-165,0.060,0.140)out2
PIN(380,-165,0.060,0.140)out3
LIG(360,-120,360,-125)
LIG(370,-120,370,-125)
LIG(380,-120,380,-125)
LIG(390,-120,390,-125)
LIG(400,-120,400,-125)
LIG(410,-120,410,-125)
LIG(420,-120,420,-125)
LIG(430,-120,430,-125)
LIG(390,-160,390,-165)
LIG(360,-160,360,-165)
LIG(370,-160,370,-165)
LIG(380,-160,380,-165)
LIG(355,-125,435,-125)
LIG(355,-125,355,-160)
LIG(355,-160,435,-160)
LIG(435,-160,435,-125)
VLG              module sym2( in1,in2,in3,in4,in5,in6,in7,in8,
VLG               out4,out1,out2,out3);
VLG               input in1,in2,in3,in4,in5,in6,in7,in8;
VLG               output out4,out1,out2,out3;
VLG               wire ;
VLG               xor #(16) xor2_1(out1,in1,in2);
VLG               xor #(16) xor2_2(out2,in3,in4);
VLG               xor #(16) xor2_3(out4,in8,in7);
VLG               xor #(16) xor2_4(out3,in6,in5);
VLG              endmodule
FSYM
SYM  #sym30
BB(20,-380,110,-325)
TITLE 13 -335  #sym30
MODEL 6000
PROP                                                                                                                                    
REC(25,-375,80,45,r)
VIS 5
PIN(30,-325,0.000,0.000)i1
PIN(40,-325,0.000,0.000)i2
PIN(50,-325,0.000,0.000)i3
PIN(60,-325,0.000,0.000)i4
PIN(100,-325,0.000,0.000)i8
PIN(90,-325,0.000,0.000)i7
PIN(70,-325,0.000,0.000)i5
PIN(80,-325,0.000,0.000)i6
PIN(30,-380,0.060,0.140)o1
PIN(40,-380,0.060,0.140)o2
PIN(50,-380,0.060,0.140)o3
PIN(60,-380,0.060,0.140)o4
LIG(30,-325,30,-330)
LIG(40,-325,40,-330)
LIG(50,-325,50,-330)
LIG(60,-325,60,-330)
LIG(100,-325,100,-330)
LIG(90,-325,90,-330)
LIG(70,-325,70,-330)
LIG(80,-325,80,-330)
LIG(30,-375,30,-380)
LIG(40,-375,40,-380)
LIG(50,-375,50,-380)
LIG(60,-375,60,-380)
LIG(25,-330,105,-330)
LIG(25,-330,25,-375)
LIG(25,-375,105,-375)
LIG(105,-375,105,-330)
VLG     module sym30( i1,i2,i3,i4,i8,i7,i5,i6,
VLG      o1,o2,o3,o4);
VLG      input i1,i2,i3,i4,i8,i7,i5,i6;
VLG      output o1,o2,o3,o4;
VLG      wire ;
VLG      and #(16) and2_1(o1,i2,i1);
VLG      and #(16) and2_2(o2,i4,i3);
VLG      and #(16) and2_3(o4,i7,i8);
VLG      and #(16) and2_4(o3,i5,i6);
VLG     endmodule
FSYM
SYM  #sym6
BB(200,-430,290,-390)
TITLE 193 -400  #
MODEL 6000
PROP                                                                                                                                    
REC(205,-425,80,30,r)
VIS 5
PIN(210,-390,0.000,0.000)in1
PIN(220,-390,0.000,0.000)in2
PIN(230,-390,0.000,0.000)in3
PIN(240,-390,0.000,0.000)in4
PIN(250,-390,0.000,0.000)in5
PIN(260,-390,0.000,0.000)in6
PIN(270,-390,0.000,0.000)in7
PIN(280,-390,0.000,0.000)in8
PIN(250,-430,0.060,0.140)out4
PIN(230,-430,0.060,0.140)out2
PIN(240,-430,0.060,0.070)out3
PIN(220,-430,0.060,0.140)out1
LIG(210,-390,210,-395)
LIG(220,-390,220,-395)
LIG(230,-390,230,-395)
LIG(240,-390,240,-395)
LIG(250,-390,250,-395)
LIG(260,-390,260,-395)
LIG(270,-390,270,-395)
LIG(280,-390,280,-395)
LIG(250,-425,250,-430)
LIG(230,-425,230,-430)
LIG(240,-425,240,-430)
LIG(220,-425,220,-430)
LIG(205,-395,285,-395)
LIG(205,-395,205,-425)
LIG(205,-425,285,-425)
LIG(285,-425,285,-395)
VLG     module sym6( in1,in2,in3,in4,in5,in6,in7,in8,
VLG      out4,out2,out3,out1);
VLG      input in1,in2,in3,in4,in5,in6,in7,in8;
VLG      output out4,out2,out3,out1;
VLG      wire ;
VLG      nor #(16) nor2_1(out3,in6,in5);
VLG      nor #(16) nor2_2(out1,in1,in2);
VLG      nor #(16) nor2_3(out2,in3,in4);
VLG      nor #(16) nor2_4(out4,in8,in7);
VLG     endmodule
FSYM
SYM  #light
BB(48,-395,54,-381)
TITLE 50 -381  #ZF
MODEL 49
PROP                                                                                                                                    
REC(49,-394,4,4,r)
VIS 1
PIN(50,-380,0.000,0.000)ZF
LIG(53,-389,53,-394)
LIG(53,-394,52,-395)
LIG(49,-394,49,-389)
LIG(52,-384,52,-387)
LIG(51,-384,54,-384)
LIG(51,-382,53,-384)
LIG(52,-382,54,-384)
LIG(48,-387,54,-387)
LIG(50,-387,50,-380)
LIG(48,-389,48,-387)
LIG(54,-389,48,-389)
LIG(54,-387,54,-389)
LIG(50,-395,49,-394)
LIG(52,-395,50,-395)
FSYM
SYM  #mux
BB(115,-355,175,-295)
TITLE 108 -305  #mux
MODEL 6000
PROP                                                                                                                                    
REC(120,-350,50,50,r)
VIS 5
PIN(125,-295,0.000,0.000)in1
PIN(135,-295,0.000,0.000)i2
PIN(145,-295,0.000,0.000)i3
PIN(155,-295,0.000,0.000)i4
PIN(175,-320,0.000,0.000)A
PIN(175,-330,0.000,0.000)B
PIN(145,-355,0.060,0.210)o1
LIG(125,-295,125,-300)
LIG(135,-295,135,-300)
LIG(145,-295,145,-300)
LIG(155,-295,155,-300)
LIG(170,-320,175,-320)
LIG(170,-330,175,-330)
LIG(145,-350,145,-355)
LIG(120,-300,170,-300)
LIG(120,-300,120,-350)
LIG(120,-350,170,-350)
LIG(170,-350,170,-300)
VLG   module mux( in1,i2,i3,i4,A,B,o1);
VLG    input in1,i2,i3,i4,A,B;
VLG    output o1;
VLG    wire w3,w4,w6,w9,w11,w13,w14,;
VLG    not #(17) inv_1(w3,B);
VLG    and #(16) and3_2(w6,w4,B,i2);
VLG    and #(16) and3_3(w9,A,w3,i3);
VLG    and #(16) and3_4(w11,A,B,i4);
VLG    and #(16) and3_5(w13,w4,w3,in1);
VLG    or #(16) or2_6(o1,w13,w14);
VLG    or #(19) or3_7(w14,w6,w9,w11);
VLG    not #(17) inv_8(w4,A);
VLG   endmodule
FSYM
SYM  #light
BB(143,-370,149,-356)
TITLE 145 -356  #light1
MODEL 49
PROP                                                                                                                                    
REC(144,-369,4,4,r)
VIS 1
PIN(145,-355,0.000,0.000)out1
LIG(148,-364,148,-369)
LIG(148,-369,147,-370)
LIG(144,-369,144,-364)
LIG(147,-359,147,-362)
LIG(146,-359,149,-359)
LIG(146,-357,148,-359)
LIG(147,-357,149,-359)
LIG(143,-362,149,-362)
LIG(145,-362,145,-355)
LIG(143,-364,143,-362)
LIG(149,-364,143,-364)
LIG(149,-362,149,-364)
LIG(145,-370,144,-369)
LIG(147,-370,145,-370)
FSYM
SYM  #light
BB(253,-370,259,-356)
TITLE 255 -356  #light2
MODEL 49
PROP                                                                                                                                    
REC(254,-369,4,4,r)
VIS 1
PIN(255,-355,0.000,0.000)out2
LIG(258,-364,258,-369)
LIG(258,-369,257,-370)
LIG(254,-369,254,-364)
LIG(257,-359,257,-362)
LIG(256,-359,259,-359)
LIG(256,-357,258,-359)
LIG(257,-357,259,-359)
LIG(253,-362,259,-362)
LIG(255,-362,255,-355)
LIG(253,-364,253,-362)
LIG(259,-364,253,-364)
LIG(259,-362,259,-364)
LIG(255,-370,254,-369)
LIG(257,-370,255,-370)
FSYM
SYM  #light
BB(368,-375,374,-361)
TITLE 370 -361  #light3
MODEL 49
PROP                                                                                                                                    
REC(369,-374,4,4,r)
VIS 1
PIN(370,-360,0.000,0.000)out3
LIG(373,-369,373,-374)
LIG(373,-374,372,-375)
LIG(369,-374,369,-369)
LIG(372,-364,372,-367)
LIG(371,-364,374,-364)
LIG(371,-362,373,-364)
LIG(372,-362,374,-364)
LIG(368,-367,374,-367)
LIG(370,-367,370,-360)
LIG(368,-369,368,-367)
LIG(374,-369,368,-369)
LIG(374,-367,374,-369)
LIG(370,-375,369,-374)
LIG(372,-375,370,-375)
FSYM
SYM  #light
BB(458,-375,464,-361)
TITLE 460 -361  #light4
MODEL 49
PROP                                                                                                                                    
REC(459,-374,4,4,r)
VIS 1
PIN(460,-360,0.000,0.000)out4
LIG(463,-369,463,-374)
LIG(463,-374,462,-375)
LIG(459,-374,459,-369)
LIG(462,-364,462,-367)
LIG(461,-364,464,-364)
LIG(461,-362,463,-364)
LIG(462,-362,464,-364)
LIG(458,-367,464,-367)
LIG(460,-367,460,-360)
LIG(458,-369,458,-367)
LIG(464,-369,458,-369)
LIG(464,-367,464,-369)
LIG(460,-375,459,-374)
LIG(462,-375,460,-375)
FSYM
SYM  #button
BB(46,110,54,119)
TITLE 50 115  #Q
MODEL 59
PROP                                                                                                                                    
REC(47,112,6,6,r)
VIS 1
PIN(50,110,0.000,0.000)Q
LIG(50,111,50,110)
LIG(54,119,46,119)
LIG(54,111,54,119)
LIG(46,111,54,111)
LIG(46,119,46,111)
LIG(53,118,47,118)
LIG(53,112,53,118)
LIG(47,112,53,112)
LIG(47,118,47,112)
FSYM
SYM  #button
BB(56,110,64,119)
TITLE 60 115  #P
MODEL 59
PROP                                                                                                                                    
REC(57,112,6,6,r)
VIS 1
PIN(60,110,0.000,0.000)P
LIG(60,111,60,110)
LIG(64,119,56,119)
LIG(64,111,64,119)
LIG(56,111,64,111)
LIG(56,119,56,111)
LIG(63,118,57,118)
LIG(63,112,63,118)
LIG(57,112,63,112)
LIG(57,118,57,112)
FSYM
SYM  #light
BB(68,-400,74,-386)
TITLE 70 -386  #SF
MODEL 49
PROP                                                                                                                                    
REC(69,-399,4,4,r)
VIS 1
PIN(70,-385,0.000,0.000)SF
LIG(73,-394,73,-399)
LIG(73,-399,72,-400)
LIG(69,-399,69,-394)
LIG(72,-389,72,-392)
LIG(71,-389,74,-389)
LIG(71,-387,73,-389)
LIG(72,-387,74,-389)
LIG(68,-392,74,-392)
LIG(70,-392,70,-385)
LIG(68,-394,68,-392)
LIG(74,-394,68,-394)
LIG(74,-392,74,-394)
LIG(70,-400,69,-399)
LIG(72,-400,70,-400)
FSYM
SYM  #light
BB(28,-395,34,-381)
TITLE 30 -381  #CF
MODEL 49
PROP                                                                                                                                    
REC(29,-394,4,4,r)
VIS 1
PIN(30,-380,0.000,0.000)CF
LIG(33,-389,33,-394)
LIG(33,-394,32,-395)
LIG(29,-394,29,-389)
LIG(32,-384,32,-387)
LIG(31,-384,34,-384)
LIG(31,-382,33,-384)
LIG(32,-382,34,-384)
LIG(28,-387,34,-387)
LIG(30,-387,30,-380)
LIG(28,-389,28,-387)
LIG(34,-389,28,-389)
LIG(34,-387,34,-389)
LIG(30,-395,29,-394)
LIG(32,-395,30,-395)
FSYM
SYM  #mux
BB(225,-355,285,-295)
TITLE 218 -305  #mux
MODEL 6000
PROP                                                                                                                                   
REC(230,-350,50,50,r)
VIS 5
PIN(235,-295,0.000,0.000)in1
PIN(245,-295,0.000,0.000)i2
PIN(255,-295,0.000,0.000)i3
PIN(265,-295,0.000,0.000)i4
PIN(285,-320,0.000,0.000)A
PIN(285,-330,0.000,0.000)B
PIN(255,-355,0.060,0.210)o1
LIG(235,-295,235,-300)
LIG(245,-295,245,-300)
LIG(255,-295,255,-300)
LIG(265,-295,265,-300)
LIG(280,-320,285,-320)
LIG(280,-330,285,-330)
LIG(255,-350,255,-355)
LIG(230,-300,280,-300)
LIG(230,-300,230,-350)
LIG(230,-350,280,-350)
LIG(280,-350,280,-300)
VLG  module mux( in1,i2,i3,i4,A,B,o1);
VLG   input in1,i2,i3,i4,A,B;
VLG   output o1;
VLG   wire w3,w4,w6,w9,w11,w13,w14,;
VLG   not #(17) inv_1(w3,B);
VLG   and #(16) and3_2(w6,w4,B,i2);
VLG   and #(16) and3_3(w9,A,w3,i3);
VLG   and #(16) and3_4(w11,A,B,i4);
VLG   and #(16) and3_5(w13,w4,w3,in1);
VLG   or #(16) or2_6(o1,w13,w14);
VLG   or #(19) or3_7(w14,w6,w9,w11);
VLG   not #(17) inv_8(w4,A);
VLG  endmodule
FSYM
SYM  #mux
BB(340,-360,400,-300)
TITLE 333 -310  #mux
MODEL 6000
PROP                                                                                                                                   
REC(345,-355,50,50,r)
VIS 5
PIN(350,-300,0.000,0.000)in1
PIN(360,-300,0.000,0.000)i2
PIN(370,-300,0.000,0.000)i3
PIN(380,-300,0.000,0.000)i4
PIN(400,-325,0.000,0.000)A
PIN(400,-335,0.000,0.000)B
PIN(370,-360,0.060,0.210)o1
LIG(350,-300,350,-305)
LIG(360,-300,360,-305)
LIG(370,-300,370,-305)
LIG(380,-300,380,-305)
LIG(395,-325,400,-325)
LIG(395,-335,400,-335)
LIG(370,-355,370,-360)
LIG(345,-305,395,-305)
LIG(345,-305,345,-355)
LIG(345,-355,395,-355)
LIG(395,-355,395,-305)
VLG  module mux( in1,i2,i3,i4,A,B,o1);
VLG   input in1,i2,i3,i4,A,B;
VLG   output o1;
VLG   wire w3,w4,w6,w9,w11,w13,w14,;
VLG   not #(17) inv_1(w3,B);
VLG   and #(16) and3_2(w6,w4,B,i2);
VLG   and #(16) and3_3(w9,A,w3,i3);
VLG   and #(16) and3_4(w11,A,B,i4);
VLG   and #(16) and3_5(w13,w4,w3,in1);
VLG   or #(16) or2_6(o1,w13,w14);
VLG   or #(19) or3_7(w14,w6,w9,w11);
VLG   not #(17) inv_8(w4,A);
VLG  endmodule
FSYM
SYM  #mux
BB(430,-360,490,-300)
TITLE 423 -310  #mux
MODEL 6000
PROP                                                                                                                                   
REC(435,-355,50,50,r)
VIS 5
PIN(440,-300,0.000,0.000)in1
PIN(450,-300,0.000,0.000)i2
PIN(460,-300,0.000,0.000)i3
PIN(470,-300,0.000,0.000)i4
PIN(490,-325,0.000,0.000)A
PIN(490,-335,0.000,0.000)B
PIN(460,-360,0.060,0.210)o1
LIG(440,-300,440,-305)
LIG(450,-300,450,-305)
LIG(460,-300,460,-305)
LIG(470,-300,470,-305)
LIG(485,-325,490,-325)
LIG(485,-335,490,-335)
LIG(460,-355,460,-360)
LIG(435,-305,485,-305)
LIG(435,-305,435,-355)
LIG(435,-355,485,-355)
LIG(485,-355,485,-305)
VLG  module mux( in1,i2,i3,i4,A,B,o1);
VLG   input in1,i2,i3,i4,A,B;
VLG   output o1;
VLG   wire w3,w4,w6,w9,w11,w13,w14,;
VLG   not #(17) inv_1(w3,B);
VLG   and #(16) and3_2(w6,w4,B,i2);
VLG   and #(16) and3_3(w9,A,w3,i3);
VLG   and #(16) and3_4(w11,A,B,i4);
VLG   and #(16) and3_5(w13,w4,w3,in1);
VLG   or #(16) or2_6(o1,w13,w14);
VLG   or #(19) or3_7(w14,w6,w9,w11);
VLG   not #(17) inv_8(w4,A);
VLG  endmodule
FSYM
CNC(130 100)
CNC(155 95)
CNC(190 90)
CNC(285 100)
CNC(215 85)
CNC(270 75)
CNC(290 70)
CNC(295 80)
CNC(310 -465)
CNC(400 -265)
CNC(430 -105)
CNC(190 -270)
CNC(50 -270)
CNC(415 -270)
CNC(60 -265)
CNC(520 0)
CNC(195 -265)
CNC(210 100)
CNC(220 95)
CNC(230 90)
CNC(250 80)
CNC(240 85)
CNC(355 85)
CNC(330 65)
CNC(305 95)
CNC(315 75)
CNC(325 90)
CNC(335 70)
CNC(345 65)
CNC(390 55)
CNC(410 55)
CNC(430 55)
CNC(410 -105)
CNC(310 -265)
CNC(505 105)
CNC(390 -105)
CNC(505 50)
CNC(50 -270)
CNC(50 -270)
CNC(295 -270)
CNC(270 -385)
CNC(565 -105)
LIG(415,-335,415,-270)
LIG(195,-320,195,-265)
LIG(295,-330,295,-270)
LIG(285,-320,310,-320)
LIG(490,-325,490,-265)
LIG(210,-390,210,-355)
LIG(310,-320,310,-265)
LIG(460,-40,635,-40)
LIG(130,110,130,100)
LIG(130,100,210,100)
LIG(155,110,155,95)
LIG(155,95,220,95)
LIG(190,110,190,90)
LIG(190,90,230,90)
LIG(215,110,215,85)
LIG(135,80,250,80)
LIG(285,100,495,100)
LIG(285,55,285,100)
LIG(270,110,270,75)
LIG(270,75,315,75)
LIG(290,110,290,70)
LIG(290,70,335,70)
LIG(295,55,295,80)
LIG(185,65,330,65)
LIG(125,55,125,100)
LIG(125,100,130,100)
LIG(135,55,135,80)
LIG(215,85,240,85)
LIG(145,55,145,95)
LIG(145,95,155,95)
LIG(155,55,155,75)
LIG(155,75,270,75)
LIG(165,55,165,90)
LIG(165,90,190,90)
LIG(175,55,175,70)
LIG(175,70,290,70)
LIG(185,55,185,65)
LIG(330,65,345,65)
LIG(195,55,195,85)
LIG(195,85,215,85)
LIG(230,90,325,90)
LIG(210,25,210,100)
LIG(210,100,285,100)
LIG(220,25,220,95)
LIG(220,95,305,95)
LIG(230,25,230,90)
LIG(250,80,250,110)
LIG(250,80,295,80)
LIG(240,25,240,85)
LIG(240,85,355,85)
LIG(295,80,380,80)
LIG(355,85,490,85)
LIG(355,55,355,85)
LIG(330,65,330,110)
LIG(305,55,305,95)
LIG(305,95,460,95)
LIG(315,55,315,75)
LIG(315,75,400,75)
LIG(325,55,325,90)
LIG(325,90,470,90)
LIG(335,55,335,70)
LIG(335,70,420,70)
LIG(345,55,345,65)
LIG(345,65,440,65)
LIG(370,55,390,55)
LIG(485,55,485,105)
LIG(370,45,370,55)
LIG(390,45,390,55)
LIG(390,55,410,55)
LIG(410,45,410,55)
LIG(410,55,430,55)
LIG(430,45,430,55)
LIG(430,55,485,55)
LIG(380,45,380,80)
LIG(400,-265,490,-265)
LIG(400,45,400,75)
LIG(310,-265,400,-265)
LIG(420,45,420,70)
LIG(50,-270,50,110)
LIG(440,45,440,65)
LIG(60,110,60,-265)
LIG(370,-15,370,0)
LIG(380,-15,380,0)
LIG(390,-15,390,0)
LIG(400,-15,400,5)
LIG(410,0,495,0)
LIG(440,-15,490,-15)
LIG(430,-15,430,-10)
LIG(430,-10,470,-10)
LIG(410,-15,410,0)
LIG(240,-390,240,-375)
LIG(420,-15,420,-5)
LIG(420,-5,460,-5)
LIG(260,0,260,-180)
LIG(220,-390,220,-355)
LIG(70,-325,70,-280)
LIG(260,-180,525,-180)
LIG(280,-390,310,-390)
LIG(490,-15,490,85)
LIG(520,0,520,40)
LIG(310,-465,585,-465)
LIG(470,-10,470,90)
LIG(520,0,530,0)
LIG(-20,-465,310,-465)
LIG(460,-5,460,95)
LIG(520,40,530,40)
LIG(495,0,495,100)
LIG(10,-385,10,-290)
LIG(635,-40,635,20)
LIG(50,-325,50,-270)
LIG(350,-90,510,-90)
LIG(270,-390,270,-385)
LIG(510,-90,510,0)
LIG(510,0,520,0)
LIG(485,105,505,105)
LIG(90,-325,90,-315)
LIG(505,20,505,50)
LIG(605,-105,605,10)
LIG(515,105,515,145)
LIG(585,10,605,10)
LIG(515,145,260,145)
LIG(260,25,260,145)
LIG(430,-105,605,-105)
LIG(360,-120,360,-75)
LIG(-50,-445,-50,-310)
LIG(70,-280,-65,-280)
LIG(525,-180,525,10)
LIG(525,10,530,10)
LIG(275,-50,275,30)
LIG(350,-90,350,-50)
LIG(510,-335,510,-270)
LIG(250,25,250,30)
LIG(145,-355,210,-355)
LIG(220,-355,255,-355)
LIG(400,-325,400,-265)
LIG(250,0,250,-100)
LIG(250,-100,515,-100)
LIG(505,20,530,20)
LIG(515,-100,515,30)
LIG(490,-335,510,-335)
LIG(515,30,530,30)
LIG(585,20,635,20)
LIG(505,50,530,50)
LIG(370,-95,370,-75)
LIG(175,-320,195,-320)
LIG(380,-120,380,-95)
LIG(390,-105,410,-105)
LIG(430,-120,430,-105)
LIG(380,-85,380,-75)
LIG(380,-85,400,-85)
LIG(195,-265,310,-265)
LIG(370,-95,380,-95)
LIG(-50,-445,250,-445)
LIG(400,-120,400,-85)
LIG(420,-120,420,-75)
LIG(250,30,275,30)
LIG(410,-105,430,-105)
LIG(370,-120,370,-105)
LIG(370,-105,390,-105)
LIG(410,-120,410,-105)
LIG(390,-120,390,-105)
LIG(390,-75,420,-75)
LIG(145,-295,145,-285)
LIG(135,0,135,-250)
LIG(145,0,145,-245)
LIG(155,0,155,-240)
LIG(155,-280,360,-280)
LIG(220,0,220,-230)
LIG(230,-275,230,0)
LIG(240,0,240,-220)
LIG(285,-290,285,0)
LIG(390,-190,470,-190)
LIG(305,0,305,-205)
LIG(315,0,315,-200)
LIG(360,-280,360,-165)
LIG(370,-285,370,-165)
LIG(380,-300,380,-165)
LIG(135,-295,135,-290)
LIG(390,-190,390,-160)
LIG(125,-295,125,0)
LIG(135,-290,285,-290)
LIG(210,0,210,-285)
LIG(145,-285,210,-285)
LIG(155,-295,155,-280)
LIG(220,-230,255,-230)
LIG(255,-295,255,-230)
LIG(235,-295,235,-250)
LIG(135,-250,235,-250)
LIG(245,-295,245,-250)
LIG(295,-250,295,0)
LIG(470,-300,470,-190)
LIG(245,-250,295,-250)
LIG(340,-290,340,-205)
LIG(265,-295,265,-285)
LIG(265,-285,370,-285)
LIG(360,-300,360,-290)
LIG(145,-245,350,-245)
LIG(350,-300,350,-245)
LIG(340,-290,360,-290)
LIG(230,-275,345,-275)
LIG(345,-295,345,-275)
LIG(345,-295,370,-295)
LIG(370,-300,370,-295)
LIG(285,-330,295,-330)
LIG(305,-205,340,-205)
LIG(450,-300,450,-200)
LIG(315,-200,450,-200)
LIG(460,-300,460,-220)
LIG(240,-220,460,-220)
LIG(440,-300,440,-240)
LIG(155,-240,440,-240)
LIG(175,-330,190,-330)
LIG(415,-270,510,-270)
LIG(400,-335,415,-335)
LIG(50,-270,190,-270)
LIG(295,-270,415,-270)
LIG(230,-370,355,-370)
LIG(355,-370,355,-360)
LIG(355,-360,370,-360)
LIG(-20,-465,-20,-325)
LIG(440,-375,440,-360)
LIG(270,-385,565,-385)
LIG(440,-360,460,-360)
LIG(80,-325,80,-310)
LIG(230,-390,230,-370)
LIG(505,50,505,105)
LIG(505,105,515,105)
LIG(60,-380,60,-405)
LIG(-10,-315,-10,-435)
LIG(-65,-405,-65,-280)
LIG(190,-330,190,-270)
LIG(230,-435,-10,-435)
LIG(-20,-325,30,-325)
LIG(585,0,585,-465)
LIG(350,-50,275,-50)
LIG(250,-425,250,-445)
LIG(60,-325,60,-265)
LIG(-50,-310,80,-310)
LIG(10,-385,40,-385)
LIG(60,-265,195,-265)
LIG(40,-325,40,-290)
LIG(155,-430,220,-430)
LIG(40,-380,40,-385)
LIG(190,-270,295,-270)
LIG(10,-290,40,-290)
LIG(155,-380,155,-430)
LIG(90,-315,-10,-315)
LIG(60,-405,-65,-405)
LIG(100,-325,115,-325)
LIG(115,-325,115,-380)
LIG(70,-385,270,-385)
LIG(230,-425,230,-435)
LIG(115,-380,155,-380)
LIG(240,-375,440,-375)
LIG(310,-390,310,-465)
LIG(565,-385,565,-100)
FFIG E:\Galib\DSCH\System\PRO.sch
