DSCH3
VERSION 12/29/2015 10:37:22 AM
BB(6,-5,139,105)
SYM  #button3
BB(6,26,15,34)
TITLE 10 30  #button1
MODEL 59
PROP                                                                                                                                    
REC(7,27,6,6,r)
VIS 1
PIN(15,30,0.000,0.000)C
LIG(14,30,15,30)
LIG(6,34,6,26)
LIG(14,34,6,34)
LIG(14,26,14,34)
LIG(6,26,14,26)
LIG(7,33,7,27)
LIG(13,33,7,33)
LIG(13,27,13,33)
LIG(7,27,13,27)
FSYM
SYM  #button2
BB(6,11,15,19)
TITLE 10 15  #button2
MODEL 59
PROP                                                                                                                                    
REC(7,12,6,6,r)
VIS 1
PIN(15,15,0.000,0.000)B
LIG(14,15,15,15)
LIG(6,19,6,11)
LIG(14,19,6,19)
LIG(14,11,14,19)
LIG(6,11,14,11)
LIG(7,18,7,12)
LIG(13,18,7,18)
LIG(13,12,13,18)
LIG(7,12,13,12)
FSYM
SYM  #button1
BB(9,-4,18,4)
TITLE 13 0  #button3
MODEL 59
PROP                                                                                                                                    
REC(10,-3,6,6,r)
VIS 1
PIN(18,0,0.000,0.000)A
LIG(17,0,18,0)
LIG(9,4,9,-4)
LIG(17,4,9,4)
LIG(17,-4,17,4)
LIG(9,-4,17,-4)
LIG(10,3,10,-3)
LIG(16,3,10,3)
LIG(16,-3,16,3)
LIG(10,-3,16,-3)
FSYM
SYM  #xor2
BB(35,-5,70,15)
TITLE 52 5  #xor2_1
MODEL 602
PROP                                                                                                                                    
REC(0,0,0,0,)
VIS 0
PIN(35,0,0.000,0.000)a
PIN(35,10,0.000,0.000)b
PIN(70,5,0.090,0.200)out
LIG(43,12,39,15)
LIG(47,12,43,15)
LIG(63,5,70,5)
LIG(62,7,59,11)
LIG(63,5,62,7)
LIG(62,3,63,5)
LIG(59,-1,62,3)
LIG(54,-4,59,-1)
LIG(59,11,54,14)
LIG(54,14,43,15)
LIG(43,-5,54,-4)
LIG(49,8,47,12)
LIG(43,-5,47,-2)
LIG(47,-2,49,2)
LIG(49,2,50,5)
LIG(50,5,49,8)
LIG(39,-5,43,-2)
LIG(43,-2,45,2)
LIG(45,2,46,5)
LIG(46,5,45,8)
LIG(45,8,43,12)
LIG(35,0,44,0)
LIG(35,10,44,10)
VLG     xor xor2(out,a,b);
FSYM
SYM  #nand2
BB(35,85,70,105)
TITLE 47 96  #nand2_2
MODEL 202
PROP                                                                                                                                    
REC(0,0,0,0,)
VIS 0
PIN(35,100,0.000,0.000)b
PIN(35,90,0.000,0.000)a
PIN(70,95,0.090,0.200)s
LIG(35,100,43,100)
LIG(43,85,43,105)
LIG(62,97,59,101)
LIG(63,95,62,97)
LIG(62,93,63,95)
LIG(59,89,62,93)
LIG(54,86,59,89)
LIG(59,101,54,104)
LIG(54,104,43,105)
LIG(43,85,54,86)
LIG(35,90,43,90)
LIG(67,95,70,95)
LIG(65,95,65,95)
VLG     nand nand2(out,a,b);
FSYM
SYM  #light1
BB(133,55,139,69)
TITLE 135 70  #light1
MODEL 49
PROP                                                                                                                                    
REC(134,57,4,5,r)
VIS 1
PIN(135,70,0.000,0.000)Carry
LIG(138,62,138,57)
LIG(138,57,137,56)
LIG(134,57,134,62)
LIG(137,67,137,64)
LIG(136,67,139,67)
LIG(136,69,138,67)
LIG(137,69,139,67)
LIG(133,64,139,64)
LIG(135,64,135,70)
LIG(133,62,133,64)
LIG(139,62,133,62)
LIG(139,64,139,62)
LIG(135,56,134,57)
LIG(137,56,135,56)
FSYM
SYM  #nand2
BB(35,35,70,55)
TITLE 47 46  #nand2_3
MODEL 202
PROP                                                                                                                                    
REC(0,0,0,0,)
VIS 0
PIN(35,50,0.000,0.000)b
PIN(35,40,0.000,0.000)a
PIN(70,45,0.090,0.200)s
LIG(35,50,43,50)
LIG(43,35,43,55)
LIG(62,47,59,51)
LIG(63,45,62,47)
LIG(62,43,63,45)
LIG(59,39,62,43)
LIG(54,36,59,39)
LIG(59,51,54,54)
LIG(54,54,43,55)
LIG(43,35,54,36)
LIG(35,40,43,40)
LIG(67,45,70,45)
LIG(65,45,65,45)
VLG     nand nand2(out,a,b);
FSYM
SYM  #xor2
BB(70,0,105,20)
TITLE 87 10  #xor2_4
MODEL 602
PROP                                                                                                                                    
REC(0,0,0,0,)
VIS 0
PIN(70,5,0.000,0.000)a
PIN(70,15,0.000,0.000)b
PIN(105,10,0.090,0.200)out
LIG(78,17,74,20)
LIG(82,17,78,20)
LIG(98,10,105,10)
LIG(97,12,94,16)
LIG(98,10,97,12)
LIG(97,8,98,10)
LIG(94,4,97,8)
LIG(89,1,94,4)
LIG(94,16,89,19)
LIG(89,19,78,20)
LIG(78,0,89,1)
LIG(84,13,82,17)
LIG(78,0,82,3)
LIG(82,3,84,7)
LIG(84,7,85,10)
LIG(85,10,84,13)
LIG(74,0,78,3)
LIG(78,3,80,7)
LIG(80,7,81,10)
LIG(81,10,80,13)
LIG(80,13,78,17)
LIG(70,5,79,5)
LIG(70,15,79,15)
VLG     xor xor2(out,a,b);
FSYM
SYM  #nand3
BB(85,55,120,85)
TITLE 100 70  #nand3_5
MODEL 203
PROP                                                                                                                                    
REC(85,55,0,0,P)
VIS 0
PIN(85,60,0.000,0.000)a
PIN(85,70,0.000,0.000)b
PIN(85,80,0.000,0.000)c
PIN(125,70,0.090,0.200)s
LIG(85,80,95,80)
LIG(85,70,95,70)
LIG(85,60,95,60)
LIG(95,70,95,85)
LIG(110,81,105,84)
LIG(114,73,110,81)
LIG(95,55,95,70)
LIG(95,55,105,56)
LIG(115,70,114,73)
LIG(114,67,115,70)
LIG(95,85,105,84)
LIG(110,59,114,67)
LIG(105,56,110,59)
LIG(119,70,125,70)
LIG(117,70,117,70)
VLG     nand nand3(out,a,b,c);
FSYM
SYM  #light2
BB(118,-5,124,9)
TITLE 120 10  #light2
MODEL 49
PROP                                                                                                                                    
REC(119,-3,4,5,r)
VIS 1
PIN(120,10,0.000,0.000)Sum
LIG(123,2,123,-3)
LIG(123,-3,122,-4)
LIG(119,-3,119,2)
LIG(122,7,122,4)
LIG(121,7,124,7)
LIG(121,9,123,7)
LIG(122,9,124,7)
LIG(118,4,124,4)
LIG(120,4,120,10)
LIG(118,2,118,4)
LIG(124,2,118,2)
LIG(124,4,124,2)
LIG(120,-4,119,-3)
LIG(122,-4,120,-4)
FSYM
SYM  #nand2
BB(35,60,70,80)
TITLE 47 71  #nand2_6
MODEL 202
PROP                                                                                                                                    
REC(0,0,0,0,)
VIS 0
PIN(35,75,0.000,0.000)b
PIN(35,65,0.000,0.000)a
PIN(70,70,0.090,0.200)s
LIG(35,75,43,75)
LIG(43,60,43,80)
LIG(62,72,59,76)
LIG(63,70,62,72)
LIG(62,68,63,70)
LIG(59,64,62,68)
LIG(54,61,59,64)
LIG(59,76,54,79)
LIG(54,79,43,80)
LIG(43,60,54,61)
LIG(35,65,43,65)
LIG(67,70,70,70)
LIG(65,70,65,70)
VLG     nand nand2(out,a,b);
FSYM
CNC(20 65)
CNC(25 15)
CNC(20 30)
CNC(25 50)
CNC(20 65)
CNC(30 40)
CNC(20 30)
CNC(30 0)
CNC(30 0)
LIG(15,0,30,0)
LIG(15,15,25,15)
LIG(25,15,25,10)
LIG(25,10,35,10)
LIG(15,30,20,30)
LIG(70,15,70,30)
LIG(105,10,120,10)
LIG(30,0,30,40)
LIG(25,15,25,50)
LIG(30,40,35,40)
LIG(25,50,35,50)
LIG(125,70,135,70)
LIG(20,65,35,65)
LIG(25,50,25,75)
LIG(25,75,35,75)
LIG(20,65,20,90)
LIG(20,90,35,90)
LIG(30,40,30,100)
LIG(30,100,35,100)
LIG(70,45,75,45)
LIG(75,45,75,60)
LIG(75,60,85,60)
LIG(70,70,85,70)
LIG(70,95,75,95)
LIG(75,95,75,80)
LIG(75,80,85,80)
LIG(20,65,20,30)
LIG(20,30,70,30)
LIG(30,0,35,0)
FFIG D:\IIT@TAJ\IIT 3rd semester-5th batch@TAJ\IT-2103-computer architecture\LAB\DSCH\examples\JU_IIT\adder_raw.sch
