DSCH3
VERSION 5/22/2015 9:24:57 PM
BB(-44,-10,144,55)
SYM  #xor2
BB(5,-5,40,15)
TITLE 22 5  #^
MODEL 602
PROP                                                                                                                                   
REC(-20,0,0,0, )
VIS 0
PIN(5,0,0.000,0.000)a
PIN(5,10,0.000,0.000)b
PIN(40,5,0.090,0.140)out
LIG(13,12,9,15)
LIG(17,12,13,15)
LIG(33,5,40,5)
LIG(32,7,29,11)
LIG(33,5,32,7)
LIG(32,3,33,5)
LIG(29,-1,32,3)
LIG(24,-4,29,-1)
LIG(29,11,24,14)
LIG(24,14,13,15)
LIG(13,-5,24,-4)
LIG(19,8,17,12)
LIG(13,-5,17,-2)
LIG(17,-2,19,2)
LIG(19,2,20,5)
LIG(20,5,19,8)
LIG(9,-5,13,-2)
LIG(13,-2,15,2)
LIG(15,2,16,5)
LIG(16,5,15,8)
LIG(15,8,13,12)
LIG(5,0,14,0)
LIG(5,10,14,10)
VLG  xor xor2(out,a,b);
FSYM
SYM  #xor2
BB(55,-5,90,15)
TITLE 72 5  #^
MODEL 602
PROP                                                                                                                                   
REC(-10,0,0,0, )
VIS 0
PIN(55,0,0.000,0.000)a
PIN(55,10,0.000,0.000)b
PIN(90,5,0.090,0.070)out
LIG(63,12,59,15)
LIG(67,12,63,15)
LIG(83,5,90,5)
LIG(82,7,79,11)
LIG(83,5,82,7)
LIG(82,3,83,5)
LIG(79,-1,82,3)
LIG(74,-4,79,-1)
LIG(79,11,74,14)
LIG(74,14,63,15)
LIG(63,-5,74,-4)
LIG(69,8,67,12)
LIG(63,-5,67,-2)
LIG(67,-2,69,2)
LIG(69,2,70,5)
LIG(70,5,69,8)
LIG(59,-5,63,-2)
LIG(63,-2,65,2)
LIG(65,2,66,5)
LIG(66,5,65,8)
LIG(65,8,63,12)
LIG(55,0,64,0)
LIG(55,10,64,10)
VLG  xor xor2(out,a,b);
FSYM
SYM  #and2
BB(5,30,40,50)
TITLE 17 41  #&
MODEL 402
PROP                                                                                                                                   
REC(0,0,0,0, )
VIS 0
PIN(5,45,0.000,0.000)b
PIN(5,35,0.000,0.000)a
PIN(40,40,0.090,0.070)s
LIG(5,45,13,45)
LIG(13,30,13,50)
LIG(33,40,40,40)
LIG(32,42,29,46)
LIG(33,40,32,42)
LIG(32,38,33,40)
LIG(29,34,32,38)
LIG(24,31,29,34)
LIG(29,46,24,49)
LIG(24,49,13,50)
LIG(13,30,24,31)
LIG(5,35,13,35)
VLG  and and2(out,a,b);
FSYM
SYM  #and2
BB(55,30,90,50)
TITLE 67 41  #&
MODEL 402
PROP                                                                                                                                   
REC(0,0,0,0, )
VIS 0
PIN(55,45,0.000,0.000)b
PIN(55,35,0.000,0.000)a
PIN(90,40,0.090,0.070)s
LIG(55,45,63,45)
LIG(63,30,63,50)
LIG(83,40,90,40)
LIG(82,42,79,46)
LIG(83,40,82,42)
LIG(82,38,83,40)
LIG(79,34,82,38)
LIG(74,31,79,34)
LIG(79,46,74,49)
LIG(74,49,63,50)
LIG(63,30,74,31)
LIG(55,35,63,35)
VLG  and and2(out,a,b);
FSYM
SYM  #or2
BB(95,35,130,55)
TITLE 115 45  #|
MODEL 502
PROP                                                                                                                                   
REC(0,0,0,0, )
VIS 0
PIN(95,40,0.000,0.000)a
PIN(95,50,0.000,0.000)b
PIN(130,45,0.090,0.070)s
LIG(95,50,108,50)
LIG(107,52,103,55)
LIG(123,45,130,45)
LIG(122,47,119,51)
LIG(123,45,122,47)
LIG(122,43,123,45)
LIG(119,39,122,43)
LIG(114,36,119,39)
LIG(119,51,114,54)
LIG(114,54,103,55)
LIG(103,35,114,36)
LIG(109,48,107,52)
LIG(103,35,107,38)
LIG(107,38,109,42)
LIG(109,42,110,45)
LIG(110,45,109,48)
LIG(95,40,108,40)
VLG  or or2(s,a,b);
FSYM
SYM  #button
BB(-29,-9,-20,-1)
TITLE -25 -5  #A
MODEL 59
PROP                                                                                                                                   
REC(-28,-8,6,6,r)
VIS 1
PIN(-20,-5,0.000,0.000)A
LIG(-21,-5,-20,-5)
LIG(-29,-1,-29,-9)
LIG(-21,-1,-29,-1)
LIG(-21,-9,-21,-1)
LIG(-29,-9,-21,-9)
LIG(-28,-2,-28,-8)
LIG(-22,-2,-28,-2)
LIG(-22,-8,-22,-2)
LIG(-28,-8,-22,-8)
FSYM
SYM  #button
BB(-44,16,-35,24)
TITLE -40 20  #B
MODEL 59
PROP                                                                                                                                   
REC(-43,17,6,6,r)
VIS 1
PIN(-35,20,0.000,0.000)B
LIG(-36,20,-35,20)
LIG(-44,24,-44,16)
LIG(-36,24,-44,24)
LIG(-36,16,-36,24)
LIG(-44,16,-36,16)
LIG(-43,23,-43,17)
LIG(-37,23,-43,23)
LIG(-37,17,-37,23)
LIG(-43,17,-37,17)
FSYM
SYM  #button
BB(31,21,40,29)
TITLE 35 25  #Cin
MODEL 59
PROP                                                                                                                                   
REC(32,22,6,6,r)
VIS 1
PIN(40,25,0.000,0.000)Cin
LIG(39,25,40,25)
LIG(31,29,31,21)
LIG(39,29,31,29)
LIG(39,21,39,29)
LIG(31,21,39,21)
LIG(32,28,32,22)
LIG(38,28,32,28)
LIG(38,22,38,28)
LIG(32,22,38,22)
FSYM
SYM  #light
BB(93,-10,99,4)
TITLE 95 4  #S
MODEL 49
PROP                                                                                                                                   
REC(94,-9,4,4,r)
VIS 1
PIN(95,5,0.000,0.000)S
LIG(98,-4,98,-9)
LIG(98,-9,97,-10)
LIG(94,-9,94,-4)
LIG(97,1,97,-2)
LIG(96,1,99,1)
LIG(96,3,98,1)
LIG(97,3,99,1)
LIG(93,-2,99,-2)
LIG(95,-2,95,5)
LIG(93,-4,93,-2)
LIG(99,-4,93,-4)
LIG(99,-2,99,-4)
LIG(95,-10,94,-9)
LIG(97,-10,95,-10)
FSYM
SYM  #light
BB(138,30,144,44)
TITLE 140 44  #Cout
MODEL 49
PROP                                                                                                                                   
REC(139,31,4,4,r)
VIS 1
PIN(140,45,0.000,0.000)Cout
LIG(143,36,143,31)
LIG(143,31,142,30)
LIG(139,31,139,36)
LIG(142,41,142,38)
LIG(141,41,144,41)
LIG(141,43,143,41)
LIG(142,43,144,41)
LIG(138,38,144,38)
LIG(140,38,140,45)
LIG(138,36,138,38)
LIG(144,36,138,36)
LIG(144,38,144,36)
LIG(140,30,139,31)
LIG(142,30,140,30)
FSYM
CNC(-5 0)
CNC(-10 10)
CNC(50 0)
CNC(45 25)
LIG(-20,-5,-5,-5)
LIG(-5,-5,-5,0)
LIG(-5,0,10,0)
LIG(-15,10,-10,10)
LIG(-5,0,-5,35)
LIG(-15,20,-35,20)
LIG(-15,10,-15,20)
LIG(-10,45,5,45)
LIG(-5,35,5,35)
LIG(-10,10,-10,45)
LIG(-10,10,5,10)
LIG(40,5,45,5)
LIG(45,5,45,0)
LIG(45,0,50,0)
LIG(90,40,95,40)
LIG(40,25,45,25)
LIG(45,25,45,10)
LIG(45,10,55,10)
LIG(50,0,50,35)
LIG(50,0,55,0)
LIG(50,35,55,35)
LIG(45,25,45,45)
LIG(45,45,55,45)
LIG(40,40,40,55)
LIG(40,55,95,55)
LIG(95,55,95,50)
LIG(130,45,140,45)
LIG(90,5,95,5)
FFIG C:\Users\TSS\Desktop\EEE 4307 Digital electronics\DSCH\examples\JU_IIT\full adder.sch
