DSCH3
VERSION 5/22/2015 9:02:47 PM
BB(16,-5,89,50)
SYM  #xor2
BB(45,0,80,20)
TITLE 62 10  #^
MODEL 602
PROP                                                                                                                                   
REC(0,0,0,0, )
VIS 0
PIN(45,5,0.000,0.000)a
PIN(45,15,0.000,0.000)b
PIN(80,10,0.090,0.070)out
LIG(53,17,49,20)
LIG(57,17,53,20)
LIG(73,10,80,10)
LIG(72,12,69,16)
LIG(73,10,72,12)
LIG(72,8,73,10)
LIG(69,4,72,8)
LIG(64,1,69,4)
LIG(69,16,64,19)
LIG(64,19,53,20)
LIG(53,0,64,1)
LIG(59,13,57,17)
LIG(53,0,57,3)
LIG(57,3,59,7)
LIG(59,7,60,10)
LIG(60,10,59,13)
LIG(49,0,53,3)
LIG(53,3,55,7)
LIG(55,7,56,10)
LIG(56,10,55,13)
LIG(55,13,53,17)
LIG(45,5,54,5)
LIG(45,15,54,15)
VLG  xor xor2(out,a,b);
FSYM
SYM  #and2
BB(45,30,80,50)
TITLE 57 41  #&
MODEL 402
PROP                                                                                                                                   
REC(0,0,0,0, )
VIS 0
PIN(45,45,0.000,0.000)b
PIN(45,35,0.000,0.000)a
PIN(80,40,0.090,0.070)s
LIG(45,45,53,45)
LIG(53,30,53,50)
LIG(73,40,80,40)
LIG(72,42,69,46)
LIG(73,40,72,42)
LIG(72,38,73,40)
LIG(69,34,72,38)
LIG(64,31,69,34)
LIG(69,46,64,49)
LIG(64,49,53,50)
LIG(53,30,64,31)
LIG(45,35,53,35)
VLG  and and2(out,a,b);
FSYM
SYM  #button
BB(16,1,25,9)
TITLE 20 5  #button1
MODEL 59
PROP                                                                                                                                   
REC(17,2,6,6,r)
VIS 1
PIN(25,5,0.000,0.000)in1
LIG(24,5,25,5)
LIG(16,9,16,1)
LIG(24,9,16,9)
LIG(24,1,24,9)
LIG(16,1,24,1)
LIG(17,8,17,2)
LIG(23,8,17,8)
LIG(23,2,23,8)
LIG(17,2,23,2)
FSYM
SYM  #button
BB(16,16,25,24)
TITLE 20 20  #button2
MODEL 59
PROP                                                                                                                                   
REC(17,17,6,6,r)
VIS 1
PIN(25,20,0.000,0.000)in2
LIG(24,20,25,20)
LIG(16,24,16,16)
LIG(24,24,16,24)
LIG(24,16,24,24)
LIG(16,16,24,16)
LIG(17,23,17,17)
LIG(23,23,17,23)
LIG(23,17,23,23)
LIG(17,17,23,17)
FSYM
SYM  #light
BB(83,-5,89,9)
TITLE 85 9  #light1
MODEL 49
PROP                                                                                                                                   
REC(84,-4,4,4,r)
VIS 1
PIN(85,10,0.000,0.000)out1
LIG(88,1,88,-4)
LIG(88,-4,87,-5)
LIG(84,-4,84,1)
LIG(87,6,87,3)
LIG(86,6,89,6)
LIG(86,8,88,6)
LIG(87,8,89,6)
LIG(83,3,89,3)
LIG(85,3,85,10)
LIG(83,1,83,3)
LIG(89,1,83,1)
LIG(89,3,89,1)
LIG(85,-5,84,-4)
LIG(87,-5,85,-5)
FSYM
SYM  #light
BB(83,25,89,39)
TITLE 85 39  #light2
MODEL 49
PROP                                                                                                                                   
REC(84,26,4,4,r)
VIS 1
PIN(85,40,0.000,0.000)out2
LIG(88,31,88,26)
LIG(88,26,87,25)
LIG(84,26,84,31)
LIG(87,36,87,33)
LIG(86,36,89,36)
LIG(86,38,88,36)
LIG(87,38,89,36)
LIG(83,33,89,33)
LIG(85,33,85,40)
LIG(83,31,83,33)
LIG(89,31,83,31)
LIG(89,33,89,31)
LIG(85,25,84,26)
LIG(87,25,85,25)
FSYM
CNC(35 20)
CNC(40 5)
LIG(25,5,40,5)
LIG(25,20,35,20)
LIG(35,20,35,15)
LIG(35,15,45,15)
LIG(40,5,40,35)
LIG(40,5,45,5)
LIG(45,35,40,35)
LIG(35,20,35,45)
LIG(35,45,45,45)
LIG(80,40,85,40)
LIG(80,10,85,10)
FFIG C:\Users\TSS\Desktop\EEE 4307 Digital electronics\DSCH\examples\JU_IIT\half adder.sch
