DSCH3
VERSION 5/19/2015 11:47:57 PM
BB(-70,-180,215,25)
SYM  #b
BB(-70,-120,-20,-80)
TITLE -70 -86  #kbd1
MODEL 85
PROP                                                                                                                                    
REC(-70,-120,40,40,r)
VIS 2
PIN(-20,-85,0.000,0.000)b1
PIN(-20,-95,0.000,0.000)b2
PIN(-20,-105,0.000,0.000)b3
PIN(-20,-115,0.000,0.000)b4
LIG(-30,-120,-30,-80)
LIG(-70,-120,-30,-120)
LIG(-70,-120,-70,-80)
LIG(-36,-115,-36,-112)
LIG(-70,-100,-30,-100)
LIG(-50,-120,-50,-80)
LIG(-60,-80,-60,-120)
LIG(-70,-110,-30,-110)
LIG(-40,-120,-40,-80)
LIG(-70,-90,-30,-90)
LIG(-30,-85,-20,-85)
LIG(-20,-95,-30,-95)
LIG(-30,-105,-20,-105)
LIG(-20,-115,-30,-115)
LIG(-66,-82,-66,-88)
LIG(-66,-88,-64,-88)
LIG(-64,-88,-64,-82)
LIG(-64,-82,-66,-82)
LIG(-54,-82,-54,-88)
LIG(-46,-88,-44,-88)
LIG(-44,-88,-44,-86)
LIG(-44,-86,-46,-86)
LIG(-46,-86,-46,-82)
LIG(-46,-82,-44,-82)
LIG(-36,-82,-34,-82)
LIG(-34,-88,-36,-88)
LIG(-34,-88,-34,-82)
LIG(-36,-86,-34,-86)
LIG(-66,-98,-66,-94)
LIG(-66,-94,-64,-94)
LIG(-64,-98,-64,-92)
LIG(-54,-98,-56,-98)
LIG(-56,-98,-56,-96)
LIG(-56,-96,-54,-96)
LIG(-54,-96,-54,-92)
LIG(-54,-92,-56,-92)
LIG(-46,-98,-46,-92)
LIG(-46,-92,-44,-92)
LIG(-44,-92,-44,-96)
LIG(-44,-96,-46,-96)
LIG(-36,-98,-34,-98)
LIG(-34,-98,-34,-92)
LIG(-66,-108,-66,-102)
LIG(-66,-108,-64,-108)
LIG(-64,-108,-64,-102)
LIG(-64,-102,-66,-102)
LIG(-66,-106,-64,-106)
LIG(-36,-115,-34,-115)
LIG(-70,-80,-30,-80)
LIG(-56,-108,-54,-108)
LIG(-36,-118,-36,-115)
LIG(-47,-112,-47,-115)
LIG(-47,-118,-44,-118)
LIG(-56,-118,-56,-112)
LIG(-67,-112,-67,-118)
LIG(-67,-118,-64,-118)
LIG(-37,-108,-34,-108)
LIG(-34,-108,-33,-107)
LIG(-33,-107,-34,-106)
LIG(-37,-106,-34,-106)
LIG(-37,-102,-37,-106)
LIG(-56,-106,-54,-106)
LIG(-67,-112,-64,-112)
LIG(-56,-108,-56,-106)
LIG(-54,-106,-54,-102)
LIG(-54,-108,-54,-106)
LIG(-54,-102,-56,-102)
LIG(-47,-112,-44,-112)
LIG(-47,-102,-45,-108)
LIG(-45,-108,-43,-102)
LIG(-37,-106,-37,-108)
LIG(-34,-106,-33,-105)
LIG(-36,-118,-33,-118)
LIG(-33,-105,-33,-103)
LIG(-47,-104,-43,-104)
LIG(-53,-113,-54,-112)
LIG(-33,-103,-34,-102)
LIG(-47,-115,-47,-118)
LIG(-47,-115,-45,-115)
LIG(-53,-117,-53,-113)
LIG(-54,-118,-53,-117)
LIG(-57,-112,-56,-112)
LIG(-57,-118,-56,-118)
LIG(-37,-102,-34,-102)
LIG(-56,-118,-54,-118)
LIG(-56,-112,-54,-112)
FSYM
SYM  #a
BB(-70,-50,-20,-10)
TITLE -70 -16  #kbd2
MODEL 85
PROP                                                                                                                                    
REC(-70,-50,40,40,r)
VIS 2
PIN(-20,-15,0.000,0.000)a1
PIN(-20,-25,0.000,0.000)a2
PIN(-20,-35,0.000,0.000)a3
PIN(-20,-45,0.000,0.000)a4
LIG(-30,-50,-30,-10)
LIG(-70,-50,-30,-50)
LIG(-70,-50,-70,-10)
LIG(-36,-45,-36,-42)
LIG(-70,-30,-30,-30)
LIG(-50,-50,-50,-10)
LIG(-60,-10,-60,-50)
LIG(-70,-40,-30,-40)
LIG(-40,-50,-40,-10)
LIG(-70,-20,-30,-20)
LIG(-30,-15,-20,-15)
LIG(-20,-25,-30,-25)
LIG(-30,-35,-20,-35)
LIG(-20,-45,-30,-45)
LIG(-66,-12,-66,-18)
LIG(-66,-18,-64,-18)
LIG(-64,-18,-64,-12)
LIG(-64,-12,-66,-12)
LIG(-54,-12,-54,-18)
LIG(-46,-18,-44,-18)
LIG(-44,-18,-44,-16)
LIG(-44,-16,-46,-16)
LIG(-46,-16,-46,-12)
LIG(-46,-12,-44,-12)
LIG(-36,-12,-34,-12)
LIG(-34,-18,-36,-18)
LIG(-34,-18,-34,-12)
LIG(-36,-16,-34,-16)
LIG(-66,-28,-66,-24)
LIG(-66,-24,-64,-24)
LIG(-64,-28,-64,-22)
LIG(-54,-28,-56,-28)
LIG(-56,-28,-56,-26)
LIG(-56,-26,-54,-26)
LIG(-54,-26,-54,-22)
LIG(-54,-22,-56,-22)
LIG(-46,-28,-46,-22)
LIG(-46,-22,-44,-22)
LIG(-44,-22,-44,-26)
LIG(-44,-26,-46,-26)
LIG(-36,-28,-34,-28)
LIG(-34,-28,-34,-22)
LIG(-66,-38,-66,-32)
LIG(-66,-38,-64,-38)
LIG(-64,-38,-64,-32)
LIG(-64,-32,-66,-32)
LIG(-66,-36,-64,-36)
LIG(-36,-45,-34,-45)
LIG(-70,-10,-30,-10)
LIG(-56,-38,-54,-38)
LIG(-36,-48,-36,-45)
LIG(-47,-42,-47,-45)
LIG(-47,-48,-44,-48)
LIG(-56,-48,-56,-42)
LIG(-67,-42,-67,-48)
LIG(-67,-48,-64,-48)
LIG(-37,-38,-34,-38)
LIG(-34,-38,-33,-37)
LIG(-33,-37,-34,-36)
LIG(-37,-36,-34,-36)
LIG(-37,-32,-37,-36)
LIG(-56,-36,-54,-36)
LIG(-67,-42,-64,-42)
LIG(-56,-38,-56,-36)
LIG(-54,-36,-54,-32)
LIG(-54,-38,-54,-36)
LIG(-54,-32,-56,-32)
LIG(-47,-42,-44,-42)
LIG(-47,-32,-45,-38)
LIG(-45,-38,-43,-32)
LIG(-37,-36,-37,-38)
LIG(-34,-36,-33,-35)
LIG(-36,-48,-33,-48)
LIG(-33,-35,-33,-33)
LIG(-47,-34,-43,-34)
LIG(-53,-43,-54,-42)
LIG(-33,-33,-34,-32)
LIG(-47,-45,-47,-48)
LIG(-47,-45,-45,-45)
LIG(-53,-47,-53,-43)
LIG(-54,-48,-53,-47)
LIG(-57,-42,-56,-42)
LIG(-57,-48,-56,-48)
LIG(-37,-32,-34,-32)
LIG(-56,-48,-54,-48)
LIG(-56,-42,-54,-42)
FSYM
SYM  #halfAdder
BB(25,-5,65,25)
TITLE 35 5  #halfAdder
MODEL 6000
PROP                                                                                                                                    
REC(30,0,30,20,r)
VIS 5
PIN(25,15,0.000,0.000)B
PIN(25,5,0.000,0.000)A
PIN(65,5,0.060,0.210)Carry
PIN(65,15,0.060,0.210)Sum
LIG(25,15,30,15)
LIG(25,5,30,5)
LIG(60,5,65,5)
LIG(60,15,65,15)
LIG(30,0,30,20)
LIG(30,0,60,0)
LIG(60,0,60,20)
LIG(60,20,30,20)
VLG          module halfAdder( B,A,Carry,Sum);
VLG           input B,A;
VLG           output Carry,Sum;
VLG           xor #(12) xor2(Sum,A,B);
VLG           and #(16) and2(Carry,B,A);
VLG          endmodule
FSYM
SYM  #sum
BB(95,-180,150,-145)
TITLE 95 -155  #display1
MODEL 81
PROP                                                                                                                                    
REC(100,-175,45,21,r)
VIS 386
PIN(105,-145,0.000,0.000)sum1
PIN(110,-145,0.000,0.000)sum2
PIN(115,-145,0.000,0.000)sum3
PIN(120,-145,0.000,0.000)sum4
PIN(125,-145,0.000,0.000)sum5
PIN(130,-145,0.000,0.000)sum6
PIN(135,-145,0.000,0.000)sum7
PIN(140,-145,0.000,0.000)sum8
LIG(95,-180,95,-150)
LIG(150,-180,95,-180)
LIG(150,-150,150,-180)
LIG(95,-150,150,-150)
LIG(105,-150,105,-145)
LIG(110,-150,110,-145)
LIG(115,-150,115,-145)
LIG(120,-150,120,-145)
LIG(125,-150,125,-145)
LIG(130,-150,130,-145)
LIG(135,-150,135,-145)
LIG(140,-150,140,-145)
FSYM
SYM  #fullAdder
BB(25,-95,65,-55)
TITLE 35 -65  #fullAdder
MODEL 6000
PROP                                                                                                                                    
REC(30,-90,30,30,r)
VIS 5
PIN(25,-65,0.000,0.000)C
PIN(25,-75,0.000,0.000)B
PIN(25,-85,0.000,0.000)A
PIN(65,-75,0.060,0.210)Carry
PIN(65,-65,0.030,0.210)Sum
LIG(25,-65,30,-65)
LIG(25,-75,30,-75)
LIG(25,-85,30,-85)
LIG(60,-75,65,-75)
LIG(60,-65,65,-65)
LIG(30,-60,30,-90)
LIG(30,-60,60,-60)
LIG(60,-60,60,-90)
LIG(60,-90,30,-90)
VLG       module fullAdder( C,B,A,Carry,Sum);
VLG        input C,B,A;
VLG        output Carry,Sum;
VLG        xor #(16) xor2(w4,A,B);
VLG        assign   Carry=(A&B)|(C&(A|B))
VLG        xor #(16) xor2(Sum,w4,C);
VLG       endmodule
FSYM
SYM  #sum
BB(160,-180,215,-145)
TITLE 160 -155  #display2
MODEL 81
PROP                                                                                                                                    
REC(165,-175,45,21,r)
VIS 130
PIN(170,-145,0.000,0.000)sum1
PIN(175,-145,0.000,0.000)sum2
PIN(180,-145,0.000,0.000)sum3
PIN(185,-145,0.000,0.000)sum4
PIN(190,-145,0.000,0.000)sum5
PIN(195,-145,0.000,0.000)sum6
PIN(200,-145,0.000,0.000)sum7
PIN(205,-145,0.000,0.000)sum8
LIG(160,-180,160,-150)
LIG(215,-180,160,-180)
LIG(215,-150,215,-180)
LIG(160,-150,215,-150)
LIG(170,-150,170,-145)
LIG(175,-150,175,-145)
LIG(180,-150,180,-145)
LIG(185,-150,185,-145)
LIG(190,-150,190,-145)
LIG(195,-150,195,-145)
LIG(200,-150,200,-145)
LIG(205,-150,205,-145)
FSYM
SYM  #fullAdder
BB(25,-50,65,-10)
TITLE 35 -20  #fullAdder
MODEL 6000
PROP                                                                                                                                    
REC(30,-45,30,30,r)
VIS 5
PIN(25,-20,0.000,0.000)C
PIN(25,-30,0.000,0.000)B
PIN(25,-40,0.000,0.000)A
PIN(65,-30,0.060,0.210)Carry
PIN(65,-20,0.030,0.210)Sum
LIG(25,-20,30,-20)
LIG(25,-30,30,-30)
LIG(25,-40,30,-40)
LIG(60,-30,65,-30)
LIG(60,-20,65,-20)
LIG(30,-15,30,-45)
LIG(30,-15,60,-15)
LIG(60,-15,60,-45)
LIG(60,-45,30,-45)
VLG       module fullAdder( C,B,A,Carry,Sum);
VLG        input C,B,A;
VLG        output Carry,Sum;
VLG        xor #(16) xor2(w4,A,B);
VLG        assign   Carry=(A&B)|(C&(A|B))
VLG        xor #(16) xor2(Sum,w4,C);
VLG       endmodule
FSYM
SYM  #fullAdder
BB(25,-140,65,-100)
TITLE 35 -110  #fullAdder
MODEL 6000
PROP                                                                                                                                    
REC(30,-135,30,30,r)
VIS 5
PIN(25,-110,0.000,0.000)C
PIN(25,-120,0.000,0.000)B
PIN(25,-130,0.000,0.000)A
PIN(65,-120,0.060,0.280)Carry
PIN(65,-110,0.030,0.210)Sum
LIG(25,-110,30,-110)
LIG(25,-120,30,-120)
LIG(25,-130,30,-130)
LIG(60,-120,65,-120)
LIG(60,-110,65,-110)
LIG(30,-105,30,-135)
LIG(30,-105,60,-105)
LIG(60,-105,60,-135)
LIG(60,-135,30,-135)
VLG module fullAdder( C,B,A,Carry,Sum);
VLG  input C,B,A;
VLG  output Carry,Sum;
VLG  xor #(16) xor2(w4,A,B);
VLG  assign   Carry=(A&B)|(C&(A|B))
VLG  xor #(16) xor2(Sum,w4,C);
VLG endmodule
FSYM
SYM  #light2
BB(88,-140,94,-126)
TITLE 90 -126  #light1
MODEL 49
PROP                                                                                                                                    
REC(89,-139,4,4,r)
VIS 129
PIN(90,-125,0.000,0.000)out2
LIG(93,-134,93,-139)
LIG(93,-139,92,-140)
LIG(89,-139,89,-134)
LIG(92,-129,92,-132)
LIG(91,-129,94,-129)
LIG(91,-127,93,-129)
LIG(92,-127,94,-129)
LIG(88,-132,94,-132)
LIG(90,-132,90,-125)
LIG(88,-134,88,-132)
LIG(94,-134,88,-134)
LIG(94,-132,94,-134)
LIG(90,-140,89,-139)
LIG(92,-140,90,-140)
FSYM
CNC(140 15)
CNC(120 -130)
CNC(135 -30)
CNC(130 -75)
CNC(125 -120)
CNC(90 -120)
CNC(90 -120)
LIG(-5,-85,-5,5)
LIG(0,-115,0,-130)
LIG(0,-130,25,-130)
LIG(65,5,75,5)
LIG(-20,-45,-10,-45)
LIG(65,15,140,15)
LIG(120,-130,185,-130)
LIG(65,-20,135,-20)
LIG(120,-130,120,-120)
LIG(65,-65,130,-65)
LIG(185,-145,185,-130)
LIG(5,-85,25,-85)
LIG(5,-35,5,-75)
LIG(65,-120,90,-120)
LIG(125,-120,190,-120)
LIG(75,-5,75,5)
LIG(25,-5,75,-5)
LIG(25,-5,25,-20)
LIG(130,-145,130,-75)
LIG(65,-50,25,-50)
LIG(25,-50,25,-65)
LIG(65,-75,65,-95)
LIG(65,-95,25,-95)
LIG(25,-95,25,-110)
LIG(-20,-115,0,-115)
LIG(5,-105,5,-85)
LIG(-20,-105,5,-105)
LIG(5,-75,25,-75)
LIG(-20,-15,-10,-15)
LIG(-10,-15,-10,15)
LIG(-10,15,25,15)
LIG(10,-110,10,-120)
LIG(10,-120,25,-120)
LIG(-10,-110,10,-110)
LIG(-5,-85,-20,-85)
LIG(-5,5,25,5)
LIG(-20,-25,0,-25)
LIG(0,-25,0,-30)
LIG(0,-30,25,-30)
LIG(-20,-95,0,-95)
LIG(0,-95,0,-40)
LIG(0,-40,25,-40)
LIG(-10,-45,-10,-110)
LIG(-20,-35,5,-35)
LIG(140,-145,140,15)
LIG(125,-120,125,-110)
LIG(140,15,205,15)
LIG(205,-145,205,15)
LIG(135,-145,135,-30)
LIG(190,-120,190,-145)
LIG(135,-30,200,-30)
LIG(65,-110,125,-110)
LIG(200,-30,200,-145)
LIG(130,-75,195,-75)
LIG(195,-75,195,-145)
LIG(130,-75,130,-65)
LIG(65,-50,65,-30)
LIG(120,-145,120,-130)
LIG(125,-145,125,-120)
LIG(135,-30,135,-20)
LIG(90,-120,120,-120)
LIG(90,-125,90,-120)
FFIG C:\Users\TSS\Desktop\EEE 4307 Digital electronics\DSCH\examples\Add4.sch
