DSCH3
VERSION 9/11/2015 9:34:29 PM
BB(65,-180,279,-100)
SYM  #nor2
BB(135,-165,170,-145)
TITLE 155 -155  #|
MODEL 302
PROP                                                                                                                                    
REC(-25,-15,0,0, )
VIS 0
PIN(135,-160,0.000,0.000)a
PIN(135,-150,0.000,0.000)b
PIN(170,-155,0.090,0.140)s
LIG(135,-150,148,-150)
LIG(147,-148,143,-145)
LIG(162,-153,159,-149)
LIG(163,-155,162,-153)
LIG(162,-157,163,-155)
LIG(159,-161,162,-157)
LIG(154,-164,159,-161)
LIG(159,-149,154,-146)
LIG(154,-146,143,-145)
LIG(143,-165,154,-164)
LIG(149,-152,147,-148)
LIG(143,-165,147,-162)
LIG(147,-162,149,-158)
LIG(149,-158,150,-155)
LIG(150,-155,149,-152)
LIG(135,-160,148,-160)
LIG(167,-155,170,-155)
LIG(165,-155,165,-155)
VLG    nor nor2(s,a,b);
FSYM
SYM  #nor2
BB(135,-130,170,-110)
TITLE 155 -120  #|
MODEL 302
PROP                                                                                                                                    
REC(5,0,0,0, )
VIS 0
PIN(135,-125,0.000,0.000)a
PIN(135,-115,0.000,0.000)b
PIN(170,-120,0.090,0.140)s
LIG(135,-115,148,-115)
LIG(147,-113,143,-110)
LIG(162,-118,159,-114)
LIG(163,-120,162,-118)
LIG(162,-122,163,-120)
LIG(159,-126,162,-122)
LIG(154,-129,159,-126)
LIG(159,-114,154,-111)
LIG(154,-111,143,-110)
LIG(143,-130,154,-129)
LIG(149,-117,147,-113)
LIG(143,-130,147,-127)
LIG(147,-127,149,-123)
LIG(149,-123,150,-120)
LIG(150,-120,149,-117)
LIG(135,-125,148,-125)
LIG(167,-120,170,-120)
LIG(165,-120,165,-120)
VLG    nor nor2(s,a,b);
FSYM
SYM  #light
BB(173,-135,179,-121)
TITLE 175 -121  #Q'
MODEL 49
PROP                                                                                                                                    
REC(174,-134,4,4,r)
VIS 1
PIN(175,-120,0.000,0.000)Q'
LIG(178,-129,178,-134)
LIG(178,-134,177,-135)
LIG(174,-134,174,-129)
LIG(177,-124,177,-127)
LIG(176,-124,179,-124)
LIG(176,-122,178,-124)
LIG(177,-122,179,-124)
LIG(173,-127,179,-127)
LIG(175,-127,175,-120)
LIG(173,-129,173,-127)
LIG(179,-129,173,-129)
LIG(179,-127,179,-129)
LIG(175,-135,174,-134)
LIG(177,-135,175,-135)
FSYM
SYM  #light
BB(173,-170,179,-156)
TITLE 175 -156  #Q
MODEL 49
PROP                                                                                                                                    
REC(174,-169,4,4,r)
VIS 1
PIN(175,-155,0.000,0.000)Q
LIG(178,-164,178,-169)
LIG(178,-169,177,-170)
LIG(174,-169,174,-164)
LIG(177,-159,177,-162)
LIG(176,-159,179,-159)
LIG(176,-157,178,-159)
LIG(177,-157,179,-159)
LIG(173,-162,179,-162)
LIG(175,-162,175,-155)
LIG(173,-164,173,-162)
LIG(179,-164,173,-164)
LIG(179,-162,179,-164)
LIG(175,-170,174,-169)
LIG(177,-170,175,-170)
FSYM
SYM  #nand2
BB(100,-170,135,-150)
TITLE 112 -159  #&
MODEL 202
PROP                                                                                                                                   
REC(0,0,0,0, )
VIS 0
PIN(100,-155,0.000,0.000)b
PIN(100,-165,0.000,0.000)a
PIN(135,-160,0.060,0.070)s
LIG(100,-155,108,-155)
LIG(108,-170,108,-150)
LIG(127,-158,124,-154)
LIG(128,-160,127,-158)
LIG(127,-162,128,-160)
LIG(124,-166,127,-162)
LIG(119,-169,124,-166)
LIG(124,-154,119,-151)
LIG(119,-151,108,-150)
LIG(108,-170,119,-169)
LIG(100,-165,108,-165)
LIG(132,-160,135,-160)
LIG(130,-160,130,-160)
VLG  nand nand2(out,a,b);
FSYM
SYM  #nand2
BB(100,-125,135,-105)
TITLE 112 -114  #&
MODEL 202
PROP                                                                                                                                   
REC(0,0,0,0, )
VIS 0
PIN(100,-110,0.000,0.000)b
PIN(100,-120,0.000,0.000)a
PIN(135,-115,0.060,0.070)s
LIG(100,-110,108,-110)
LIG(108,-125,108,-105)
LIG(127,-113,124,-109)
LIG(128,-115,127,-113)
LIG(127,-117,128,-115)
LIG(124,-121,127,-117)
LIG(119,-124,124,-121)
LIG(124,-109,119,-106)
LIG(119,-106,108,-105)
LIG(108,-125,119,-124)
LIG(100,-120,108,-120)
LIG(132,-115,135,-115)
LIG(130,-115,130,-115)
VLG  nand nand2(out,a,b);
FSYM
SYM  #clock
BB(110,-143,125,-137)
TITLE 120 -140  #clock1
MODEL 69
PROP   10.000 10.000                                                                                                                               
REC(117,-142,6,4,r)
VIS 1
PIN(110,-140,1.500,0.140)CP
LIG(115,-140,110,-140)
LIG(120,-142,122,-142)
LIG(116,-142,118,-142)
LIG(115,-143,115,-137)
LIG(125,-137,125,-143)
LIG(120,-138,120,-142)
LIG(118,-142,118,-138)
LIG(118,-138,120,-138)
LIG(122,-138,124,-138)
LIG(122,-142,122,-138)
LIG(115,-137,125,-137)
LIG(115,-143,125,-143)
FSYM
SYM  #inv
BB(65,-120,100,-100)
TITLE 80 -110  #~
MODEL 101
PROP                                                                                                                                   
REC(0,0,0,0, )
VIS 0
PIN(65,-110,0.000,0.000)in
PIN(100,-110,0.030,0.070)out
LIG(65,-110,75,-110)
LIG(75,-120,75,-100)
LIG(75,-120,90,-110)
LIG(75,-100,90,-110)
LIG(92,-110,92,-110)
LIG(94,-110,100,-110)
VLG  not not1(out,in);
FSYM
SYM  #clock
BB(77,-155,83,-140)
TITLE 80 -145  #clock2
MODEL 69
PROP   20.000 20.000                                                                                                                               
REC(78,-148,4,6,r)
VIS 1
PIN(80,-155,0.030,0.140)D
LIG(80,-150,80,-155)
LIG(78,-145,78,-143)
LIG(78,-149,78,-147)
LIG(77,-150,83,-150)
LIG(83,-140,77,-140)
LIG(82,-145,78,-145)
LIG(78,-147,82,-147)
LIG(82,-147,82,-145)
LIG(82,-143,82,-141)
LIG(78,-143,82,-143)
LIG(83,-150,83,-140)
LIG(77,-150,77,-140)
FSYM
SYM  #dreg
BB(235,-155,265,-130)
TITLE 247 -147  #dreg1
MODEL 860
PROP                                                                                                                                   
REC(210,-165,0,0,r)
VIS 5
PIN(235,-150,0.000,0.000)D
PIN(235,-140,0.000,0.000)RST
PIN(250,-130,0.000,0.000)H
PIN(265,-140,0.120,0.070)Q
PIN(265,-150,0.120,0.070)nQ
LIG(235,-140,240,-140)
LIG(235,-150,240,-150)
LIG(250,-130,250,-131)
LIG(250,-133,250,-133)
LIG(260,-140,265,-140)
LIG(260,-150,265,-150)
LIG(260,-135,240,-135)
LIG(260,-155,260,-135)
LIG(240,-155,260,-155)
LIG(240,-135,240,-155)
LIG(249,-135,250,-137)
LIG(250,-137,251,-135)
VLG     module dreg(D,RST,H,Q,nQ);
VLG      input D,RST,H;
VLG      output Q,nQ;
VLG     endmodule
FSYM
SYM  #light
BB(263,-170,269,-156)
TITLE 265 -156  #Q
MODEL 49
PROP                                                                                                                                   
REC(264,-169,4,4,r)
VIS 1
PIN(265,-155,0.000,0.000)Q
LIG(268,-164,268,-169)
LIG(268,-169,267,-170)
LIG(264,-169,264,-164)
LIG(267,-159,267,-162)
LIG(266,-159,269,-159)
LIG(266,-157,268,-159)
LIG(267,-157,269,-159)
LIG(263,-162,269,-162)
LIG(265,-162,265,-155)
LIG(263,-164,263,-162)
LIG(269,-164,263,-164)
LIG(269,-162,269,-164)
LIG(265,-170,264,-169)
LIG(267,-170,265,-170)
FSYM
SYM  #light
BB(273,-155,279,-141)
TITLE 275 -141  #Q'
MODEL 49
PROP                                                                                                                                   
REC(274,-154,4,4,r)
VIS 1
PIN(275,-140,0.000,0.000)Q'
LIG(278,-149,278,-154)
LIG(278,-154,277,-155)
LIG(274,-154,274,-149)
LIG(277,-144,277,-147)
LIG(276,-144,279,-144)
LIG(276,-142,278,-144)
LIG(277,-142,279,-144)
LIG(273,-147,279,-147)
LIG(275,-147,275,-140)
LIG(273,-149,273,-147)
LIG(279,-149,273,-149)
LIG(279,-147,279,-149)
LIG(275,-155,274,-154)
LIG(277,-155,275,-155)
FSYM
SYM  #button
BB(221,-144,230,-136)
TITLE 225 -140  #button5
MODEL 59
PROP                                                                                                                                   
REC(222,-143,6,6,r)
VIS 1
PIN(230,-140,0.000,0.000)in5
LIG(229,-140,230,-140)
LIG(221,-136,221,-144)
LIG(229,-136,221,-136)
LIG(229,-144,229,-136)
LIG(221,-144,229,-144)
LIG(222,-137,222,-143)
LIG(228,-137,222,-137)
LIG(228,-143,228,-137)
LIG(222,-143,228,-143)
FSYM
SYM  #clock
BB(215,-153,230,-147)
TITLE 220 -150  #clock3
MODEL 69
PROP   40.000 40.000                                                                                                                               
REC(217,-152,6,4,r)
VIS 1
PIN(230,-150,0.030,0.070)D
LIG(225,-150,230,-150)
LIG(220,-152,218,-152)
LIG(224,-152,222,-152)
LIG(225,-153,225,-147)
LIG(215,-147,215,-153)
LIG(220,-148,220,-152)
LIG(222,-152,222,-148)
LIG(222,-148,220,-148)
LIG(218,-148,216,-148)
LIG(218,-152,218,-148)
LIG(225,-147,215,-147)
LIG(225,-153,215,-153)
FSYM
SYM  #clock
BB(235,-123,250,-117)
TITLE 240 -120  #clock4
MODEL 69
PROP   80.000 80.000                                                                                                                               
REC(237,-122,6,4,r)
VIS 1
PIN(250,-120,1.500,0.070)CP
LIG(245,-120,250,-120)
LIG(240,-122,238,-122)
LIG(244,-122,242,-122)
LIG(245,-123,245,-117)
LIG(235,-117,235,-123)
LIG(240,-118,240,-122)
LIG(242,-122,242,-118)
LIG(242,-118,240,-118)
LIG(238,-118,236,-118)
LIG(238,-122,238,-118)
LIG(245,-117,235,-117)
LIG(245,-123,235,-123)
FSYM
CNC(100 -140)
CNC(100 -140)
CNC(80 -165)
CNC(80 -165)
CNC(100 -140)
CNC(100 -140)
CNC(100 -140)
CNC(100 -140)
CNC(100 -140)
LIG(135,-150,135,-140)
LIG(135,-140,170,-140)
LIG(170,-140,170,-120)
LIG(135,-125,135,-135)
LIG(135,-135,175,-135)
LIG(175,-135,175,-155)
LIG(175,-155,170,-155)
LIG(170,-120,175,-120)
LIG(250,-130,250,-120)
LIG(100,-155,100,-140)
LIG(100,-140,110,-140)
LIG(100,-140,100,-120)
LIG(235,-150,230,-150)
LIG(65,-110,65,-165)
LIG(100,-165,80,-165)
LIG(80,-165,80,-155)
LIG(80,-165,65,-165)
LIG(230,-140,235,-140)
LIG(265,-140,275,-140)
LIG(265,-155,265,-150)
TEXT 124 -180  #D Flip Flop 
FFIG E:\IIT@TAJ\IIT 3rd semester-5th batch@TAJ\IT-2103-computer architecture\LAB\DSCH\examples\D Flip Flop @TAJ.sch
