DSCH3
VERSION 5/22/2015 11:35:44 PM
BB(-34,-155,79,-81)
SYM  #and2
BB(30,-150,65,-130)
TITLE 42 -139  #&
MODEL 402
PROP                                                                                                                                   
REC(5,0,0,0, )
VIS 0
PIN(30,-135,0.000,0.000)b
PIN(30,-145,0.000,0.000)a
PIN(65,-140,0.090,0.070)s
LIG(30,-135,38,-135)
LIG(38,-150,38,-130)
LIG(58,-140,65,-140)
LIG(57,-138,54,-134)
LIG(58,-140,57,-138)
LIG(57,-142,58,-140)
LIG(54,-146,57,-142)
LIG(49,-149,54,-146)
LIG(54,-134,49,-131)
LIG(49,-131,38,-130)
LIG(38,-150,49,-149)
LIG(30,-145,38,-145)
VLG  and and2(out,a,b);
FSYM
SYM  #and2
BB(30,-110,65,-90)
TITLE 42 -99  #&
MODEL 402
PROP                                                                                                                                   
REC(0,0,0,0, )
VIS 0
PIN(30,-95,0.000,0.000)b
PIN(30,-105,0.000,0.000)a
PIN(65,-100,0.090,0.070)s
LIG(30,-95,38,-95)
LIG(38,-110,38,-90)
LIG(58,-100,65,-100)
LIG(57,-98,54,-94)
LIG(58,-100,57,-98)
LIG(57,-102,58,-100)
LIG(54,-106,57,-102)
LIG(49,-109,54,-106)
LIG(54,-94,49,-91)
LIG(49,-91,38,-90)
LIG(38,-110,49,-109)
LIG(30,-105,38,-105)
VLG  and and2(out,a,b);
FSYM
SYM  #inv
BB(-5,-130,15,-95)
TITLE 5 -110  #~
MODEL 101
PROP                                                                                                                                   
REC(120,-120,0,0, )
VIS 0
PIN(5,-95,0.000,0.000)in
PIN(5,-130,0.030,0.070)out
LIG(5,-95,5,-105)
LIG(-5,-105,15,-105)
LIG(-5,-105,5,-120)
LIG(15,-105,5,-120)
LIG(5,-122,5,-122)
LIG(5,-124,5,-130)
VLG  not not1(out,in);
FSYM
SYM  #button
BB(-34,-149,-25,-141)
TITLE -30 -145  #I
MODEL 59
PROP                                                                                                                                   
REC(-33,-148,6,6,r)
VIS 1
PIN(-25,-145,0.000,0.000)I
LIG(-26,-145,-25,-145)
LIG(-34,-141,-34,-149)
LIG(-26,-141,-34,-141)
LIG(-26,-149,-26,-141)
LIG(-34,-149,-26,-149)
LIG(-33,-142,-33,-148)
LIG(-27,-142,-33,-142)
LIG(-27,-148,-27,-142)
LIG(-33,-148,-27,-148)
FSYM
SYM  #button
BB(-34,-89,-25,-81)
TITLE -30 -85  #S
MODEL 59
PROP                                                                                                                                   
REC(-33,-88,6,6,r)
VIS 1
PIN(-25,-85,0.000,0.000)S
LIG(-26,-85,-25,-85)
LIG(-34,-81,-34,-89)
LIG(-26,-81,-34,-81)
LIG(-26,-89,-26,-81)
LIG(-34,-89,-26,-89)
LIG(-33,-82,-33,-88)
LIG(-27,-82,-33,-82)
LIG(-27,-88,-27,-82)
LIG(-33,-88,-27,-88)
FSYM
SYM  #light
BB(73,-155,79,-141)
TITLE 75 -141  #D0
MODEL 49
PROP                                                                                                                                   
REC(74,-154,4,4,r)
VIS 1
PIN(75,-140,0.000,0.000)D0
LIG(78,-149,78,-154)
LIG(78,-154,77,-155)
LIG(74,-154,74,-149)
LIG(77,-144,77,-147)
LIG(76,-144,79,-144)
LIG(76,-142,78,-144)
LIG(77,-142,79,-144)
LIG(73,-147,79,-147)
LIG(75,-147,75,-140)
LIG(73,-149,73,-147)
LIG(79,-149,73,-149)
LIG(79,-147,79,-149)
LIG(75,-155,74,-154)
LIG(77,-155,75,-155)
FSYM
SYM  #light
BB(73,-115,79,-101)
TITLE 75 -101  #D1
MODEL 49
PROP                                                                                                                                   
REC(74,-114,4,4,r)
VIS 1
PIN(75,-100,0.000,0.000)D1
LIG(78,-109,78,-114)
LIG(78,-114,77,-115)
LIG(74,-114,74,-109)
LIG(77,-104,77,-107)
LIG(76,-104,79,-104)
LIG(76,-102,78,-104)
LIG(77,-102,79,-104)
LIG(73,-107,79,-107)
LIG(75,-107,75,-100)
LIG(73,-109,73,-107)
LIG(79,-109,73,-109)
LIG(79,-107,79,-109)
LIG(75,-115,74,-114)
LIG(77,-115,75,-115)
FSYM
CNC(20 -145)
LIG(-25,-145,20,-145)
LIG(30,-105,20,-105)
LIG(65,-100,75,-100)
LIG(15,-135,30,-135)
LIG(-25,-85,-10,-85)
LIG(-10,-85,-10,-95)
LIG(65,-140,75,-140)
LIG(5,-130,15,-130)
LIG(15,-130,15,-135)
LIG(20,-145,20,-105)
LIG(20,-145,30,-145)
LIG(-10,-95,30,-95)
FFIG C:\Users\TSS\Desktop\EEE 4307 Digital electronics\DSCH\examples\demux.sch
