DSCH3
VERSION 9/12/2015 10:22:53 AM
BB(-245,-115,54,70)
SYM  #pmos
BB(-130,-105,-110,-85)
TITLE -115 -100  #pmos
MODEL 902
PROP   A 0.12u MP                                                                                                                               
REC(-129,-100,19,15,r)
VIS 0
PIN(-110,-105,0.000,0.000)s
PIN(-130,-95,0.000,0.000)g
PIN(-110,-85,0.030,0.140)d
LIG(-130,-95,-124,-95)
LIG(-122,-95,-122,-95)
LIG(-120,-89,-120,-101)
LIG(-118,-89,-118,-101)
LIG(-110,-101,-118,-101)
LIG(-110,-105,-110,-101)
LIG(-110,-89,-118,-89)
LIG(-110,-85,-110,-89)
VLG    pmos pmos(drain,source,gate);
FSYM
SYM  #pmos
BB(-140,-80,-120,-60)
TITLE -125 -75  #pmos
MODEL 902
PROP   2.0u 0.12u MP                                                                                                                               
REC(-139,-75,19,15,r)
VIS 0
PIN(-120,-80,0.000,0.000)s
PIN(-140,-70,0.000,0.000)g
PIN(-120,-60,0.030,0.140)d
LIG(-140,-70,-134,-70)
LIG(-132,-70,-132,-70)
LIG(-130,-64,-130,-76)
LIG(-128,-64,-128,-76)
LIG(-120,-76,-128,-76)
LIG(-120,-80,-120,-76)
LIG(-120,-64,-128,-64)
LIG(-120,-60,-120,-64)
VLG    pmos pmos(drain,source,gate);
FSYM
SYM  #pmos
BB(-100,-80,-80,-60)
TITLE -95 -75  #pmos
MODEL 902
PROP   2.0u 0.12u MP                                                                                                                               
REC(-100,-75,19,15,r)
VIS 0
PIN(-100,-80,0.000,0.000)s
PIN(-80,-70,0.000,0.000)g
PIN(-100,-60,0.030,0.140)d
LIG(-80,-70,-86,-70)
LIG(-88,-70,-88,-70)
LIG(-90,-64,-90,-76)
LIG(-92,-64,-92,-76)
LIG(-100,-76,-92,-76)
LIG(-100,-80,-100,-76)
LIG(-100,-64,-92,-64)
LIG(-100,-60,-100,-64)
VLG    pmos pmos(drain,source,gate);
FSYM
SYM  #pmos
BB(-125,-60,-105,-40)
TITLE -110 -55  #pmos
MODEL 902
PROP   2.0u 0.12u MP                                                                                                                               
REC(-124,-55,19,15,r)
VIS 0
PIN(-105,-60,0.000,0.000)s
PIN(-125,-50,0.000,0.000)g
PIN(-105,-40,0.030,0.140)d
LIG(-125,-50,-119,-50)
LIG(-117,-50,-117,-50)
LIG(-115,-44,-115,-56)
LIG(-113,-44,-113,-56)
LIG(-105,-56,-113,-56)
LIG(-105,-60,-105,-56)
LIG(-105,-44,-113,-44)
LIG(-105,-40,-105,-44)
VLG    pmos pmos(drain,source,gate);
FSYM
SYM  #pmos
BB(-125,-35,-105,-15)
TITLE -110 -30  #pmos
MODEL 902
PROP   2.0u 0.12u MP                                                                                                                               
REC(-124,-30,19,15,r)
VIS 0
PIN(-105,-35,0.000,0.000)s
PIN(-125,-25,0.000,0.000)g
PIN(-105,-15,0.030,0.420)d
LIG(-125,-25,-119,-25)
LIG(-117,-25,-117,-25)
LIG(-115,-19,-115,-31)
LIG(-113,-19,-113,-31)
LIG(-105,-31,-113,-31)
LIG(-105,-35,-105,-31)
LIG(-105,-19,-113,-19)
LIG(-105,-15,-105,-19)
VLG    pmos pmos(drain,source,gate);
FSYM
SYM  #pmos
BB(-95,-35,-75,-15)
TITLE -80 -30  #pmos
MODEL 902
PROP   2.0u 0.12u MP                                                                                                                               
REC(-94,-30,19,15,r)
VIS 0
PIN(-75,-35,0.000,0.000)s
PIN(-95,-25,0.000,0.000)g
PIN(-75,-15,0.030,0.420)d
LIG(-95,-25,-89,-25)
LIG(-87,-25,-87,-25)
LIG(-85,-19,-85,-31)
LIG(-83,-19,-83,-31)
LIG(-75,-31,-83,-31)
LIG(-75,-35,-75,-31)
LIG(-75,-19,-83,-19)
LIG(-75,-15,-75,-19)
VLG    pmos pmos(drain,source,gate);
FSYM
SYM  #nmos
BB(-175,5,-155,25)
TITLE -160 10  #nmos
MODEL 901
PROP   1.0u 0.12u MN                                                                                                                               
REC(-174,10,19,15,r)
VIS 0
PIN(-155,25,0.000,0.000)s
PIN(-175,15,0.000,0.000)g
PIN(-155,5,0.030,0.420)d
LIG(-165,15,-175,15)
LIG(-165,21,-165,9)
LIG(-163,21,-163,9)
LIG(-155,9,-163,9)
LIG(-155,5,-155,9)
LIG(-155,21,-163,21)
LIG(-155,25,-155,21)
VLG    nmos nmos(drain,source,gate);
FSYM
SYM  #nmos
BB(-135,5,-115,25)
TITLE -120 10  #nmos
MODEL 901
PROP   1.0u 0.12u MN                                                                                                                               
REC(-134,10,19,15,r)
VIS 0
PIN(-115,25,0.000,0.000)s
PIN(-135,15,0.000,0.000)g
PIN(-115,5,0.030,0.420)d
LIG(-125,15,-135,15)
LIG(-125,21,-125,9)
LIG(-123,21,-123,9)
LIG(-115,9,-123,9)
LIG(-115,5,-115,9)
LIG(-115,21,-123,21)
LIG(-115,25,-115,21)
VLG    nmos nmos(drain,source,gate);
FSYM
SYM  #nmos
BB(-135,30,-115,50)
TITLE -120 35  #nmos
MODEL 901
PROP   1.0u 0.12u MN                                                                                                                               
REC(-134,35,19,15,r)
VIS 0
PIN(-115,50,0.000,0.000)s
PIN(-135,40,0.000,0.000)g
PIN(-115,30,0.030,0.070)d
LIG(-125,40,-135,40)
LIG(-125,46,-125,34)
LIG(-123,46,-123,34)
LIG(-115,34,-123,34)
LIG(-115,30,-115,34)
LIG(-115,46,-123,46)
LIG(-115,50,-115,46)
VLG    nmos nmos(drain,source,gate);
FSYM
SYM  #nmos
BB(-90,5,-70,25)
TITLE -75 10  #nmos
MODEL 901
PROP   1.0u 0.12u MN                                                                                                                               
REC(-89,10,19,15,r)
VIS 0
PIN(-70,25,0.000,0.000)s
PIN(-90,15,0.000,0.000)g
PIN(-70,5,0.030,0.420)d
LIG(-80,15,-90,15)
LIG(-80,21,-80,9)
LIG(-78,21,-78,9)
LIG(-70,9,-78,9)
LIG(-70,5,-70,9)
LIG(-70,21,-78,21)
LIG(-70,25,-70,21)
VLG    nmos nmos(drain,source,gate);
FSYM
SYM  #nmos
BB(-45,5,-25,25)
TITLE -30 10  #nmos
MODEL 901
PROP   1.0u 0.12u MN                                                                                                                               
REC(-44,10,19,15,r)
VIS 0
PIN(-25,25,0.000,0.000)s
PIN(-45,15,0.000,0.000)g
PIN(-25,5,0.030,0.420)d
LIG(-35,15,-45,15)
LIG(-35,21,-35,9)
LIG(-33,21,-33,9)
LIG(-25,9,-33,9)
LIG(-25,5,-25,9)
LIG(-25,21,-33,21)
LIG(-25,25,-25,21)
VLG    nmos nmos(drain,source,gate);
FSYM
SYM  #nmos
BB(-45,30,-25,50)
TITLE -30 35  #nmos
MODEL 901
PROP   1.0u 0.12u MN                                                                                                                               
REC(-44,35,19,15,r)
VIS 0
PIN(-25,50,0.000,0.000)s
PIN(-45,40,0.000,0.000)g
PIN(-25,30,0.030,0.070)d
LIG(-35,40,-45,40)
LIG(-35,46,-35,34)
LIG(-33,46,-33,34)
LIG(-25,34,-33,34)
LIG(-25,30,-25,34)
LIG(-25,46,-33,46)
LIG(-25,50,-25,46)
VLG    nmos nmos(drain,source,gate);
FSYM
SYM  #inv
BB(15,-15,50,5)
TITLE 30 -5  #~
MODEL 101
PROP                                                                                                                                    
REC(0,0,0,0, )
VIS 0
PIN(15,-5,0.000,0.000)in
PIN(50,-5,0.030,0.070)out
LIG(15,-5,25,-5)
LIG(25,-15,25,5)
LIG(25,-15,40,-5)
LIG(25,5,40,-5)
LIG(42,-5,42,-5)
LIG(44,-5,50,-5)
VLG    not not1(out,in);
FSYM
SYM  #light
BB(48,-20,54,-6)
TITLE 50 -6  #light1
MODEL 49
PROP                                                                                                                                    
REC(49,-19,4,4,r)
VIS 1
PIN(50,-5,0.000,0.000)out1
LIG(53,-14,53,-19)
LIG(53,-19,52,-20)
LIG(49,-19,49,-14)
LIG(52,-9,52,-12)
LIG(51,-9,54,-9)
LIG(51,-7,53,-9)
LIG(52,-7,54,-9)
LIG(48,-12,54,-12)
LIG(50,-12,50,-5)
LIG(48,-14,48,-12)
LIG(54,-14,48,-14)
LIG(54,-12,54,-14)
LIG(50,-20,49,-19)
LIG(52,-20,50,-20)
FSYM
SYM  #clock
BB(-190,-98,-175,-92)
TITLE -185 -95  #clock1
MODEL 69
PROP   10.000 10.000                                                                                                                                
REC(-188,-97,6,4,r)
VIS 1
PIN(-175,-95,1.500,0.140)A
LIG(-180,-95,-175,-95)
LIG(-185,-97,-187,-97)
LIG(-181,-97,-183,-97)
LIG(-180,-98,-180,-92)
LIG(-190,-92,-190,-98)
LIG(-185,-93,-185,-97)
LIG(-183,-97,-183,-93)
LIG(-183,-93,-185,-93)
LIG(-187,-93,-189,-93)
LIG(-187,-97,-187,-93)
LIG(-180,-92,-190,-92)
LIG(-180,-98,-190,-98)
FSYM
SYM  #clock
BB(-170,-73,-155,-67)
TITLE -165 -70  #clock2
MODEL 69
PROP   20.000 20.000                                                                                                                                
REC(-168,-72,6,4,r)
VIS 1
PIN(-155,-70,1.500,0.140)B
LIG(-160,-70,-155,-70)
LIG(-165,-72,-167,-72)
LIG(-161,-72,-163,-72)
LIG(-160,-73,-160,-67)
LIG(-170,-67,-170,-73)
LIG(-165,-68,-165,-72)
LIG(-163,-72,-163,-68)
LIG(-163,-68,-165,-68)
LIG(-167,-68,-169,-68)
LIG(-167,-72,-167,-68)
LIG(-160,-67,-170,-67)
LIG(-160,-73,-170,-73)
FSYM
SYM  #clock
BB(-30,-63,-15,-57)
TITLE -25 -60  #clock3
MODEL 69
PROP   40.000 40.000                                                                                                                                
REC(-28,-62,6,4,r)
VIS 1
PIN(-15,-60,1.500,0.140)C
LIG(-20,-60,-15,-60)
LIG(-25,-62,-27,-62)
LIG(-21,-62,-23,-62)
LIG(-20,-63,-20,-57)
LIG(-30,-57,-30,-63)
LIG(-25,-58,-25,-62)
LIG(-23,-62,-23,-58)
LIG(-23,-58,-25,-58)
LIG(-27,-58,-29,-58)
LIG(-27,-62,-27,-58)
LIG(-20,-57,-30,-57)
LIG(-20,-63,-30,-63)
FSYM
SYM  #clock
BB(-200,-53,-185,-47)
TITLE -195 -50  #clock4
MODEL 69
PROP   80.000 80.000                                                                                                                                
REC(-198,-52,6,4,r)
VIS 1
PIN(-185,-50,0.030,0.140)D
LIG(-190,-50,-185,-50)
LIG(-195,-52,-197,-52)
LIG(-191,-52,-193,-52)
LIG(-190,-53,-190,-47)
LIG(-200,-47,-200,-53)
LIG(-195,-48,-195,-52)
LIG(-193,-52,-193,-48)
LIG(-193,-48,-195,-48)
LIG(-197,-48,-199,-48)
LIG(-197,-52,-197,-48)
LIG(-190,-47,-200,-47)
LIG(-190,-53,-200,-53)
FSYM
SYM  #inv
BB(-230,-35,-195,-15)
TITLE -215 -25  #~
MODEL 101
PROP                                                                                                                                    
REC(0,0,0,0, )
VIS 0
PIN(-230,-25,0.000,0.000)in
PIN(-195,-25,0.030,0.140)out
LIG(-230,-25,-220,-25)
LIG(-220,-35,-220,-15)
LIG(-220,-35,-205,-25)
LIG(-220,-15,-205,-25)
LIG(-203,-25,-203,-25)
LIG(-201,-25,-195,-25)
VLG    not not1(out,in);
FSYM
SYM  #clock
BB(-245,-28,-230,-22)
TITLE -240 -25  #clock5
MODEL 69
PROP   160.000 160.000                                                                                                                                
REC(-243,-27,6,4,r)
VIS 1
PIN(-230,-25,1.500,0.070)E'
LIG(-235,-25,-230,-25)
LIG(-240,-27,-242,-27)
LIG(-236,-27,-238,-27)
LIG(-235,-28,-235,-22)
LIG(-245,-22,-245,-28)
LIG(-240,-23,-240,-27)
LIG(-238,-27,-238,-23)
LIG(-238,-23,-240,-23)
LIG(-242,-23,-244,-23)
LIG(-242,-27,-242,-23)
LIG(-235,-22,-245,-22)
LIG(-235,-28,-245,-28)
FSYM
SYM  #clock
BB(-10,-38,5,-32)
TITLE -5 -35  #clock6
MODEL 69
PROP   320.000 320.000                                                                                                                                
REC(-8,-37,6,4,r)
VIS 1
PIN(5,-35,1.500,0.140)F
LIG(0,-35,5,-35)
LIG(-5,-37,-7,-37)
LIG(-1,-37,-3,-37)
LIG(0,-38,0,-32)
LIG(-10,-32,-10,-38)
LIG(-5,-33,-5,-37)
LIG(-3,-37,-3,-33)
LIG(-3,-33,-5,-33)
LIG(-7,-33,-9,-33)
LIG(-7,-37,-7,-33)
LIG(0,-32,-10,-32)
LIG(0,-38,-10,-38)
FSYM
SYM  #vdd
BB(-115,-115,-105,-105)
TITLE -112 -109  #vdd
MODEL 1
PROP                                                                                                                                    
REC(0,0,0,0, )
VIS 0
PIN(-110,-105,0.000,0.000)vdd
LIG(-110,-105,-110,-110)
LIG(-110,-110,-115,-110)
LIG(-115,-110,-110,-115)
LIG(-110,-115,-105,-110)
LIG(-105,-110,-110,-110)
FSYM
SYM  #vss
BB(-105,52,-95,60)
TITLE -101 57  #vss
MODEL 0
PROP                                                                                                                                    
REC(-105,50,0,0,b)
VIS 0
PIN(-100,50,0.000,0.000)vss
LIG(-100,50,-100,55)
LIG(-105,55,-95,55)
LIG(-105,58,-103,55)
LIG(-103,58,-101,55)
LIG(-101,58,-99,55)
LIG(-99,58,-97,55)
FSYM
CNC(-110 -80)
CNC(-90 -5)
CNC(-90 5)
CNC(-70 50)
CNC(-90 -15)
CNC(-190 -25)
LIG(-120,-80,-110,-80)
LIG(-110,-85,-110,-80)
LIG(-110,-80,-100,-80)
LIG(-120,-60,-100,-60)
LIG(-105,-35,-75,-35)
LIG(-105,-40,-105,-35)
LIG(-105,-15,-90,-15)
LIG(-155,5,-90,5)
LIG(-115,25,-115,30)
LIG(-90,-5,15,-5)
LIG(-155,-70,-140,-70)
LIG(-175,-95,-175,15)
LIG(-130,-95,-175,-95)
LIG(-190,-25,-195,-25)
LIG(-70,25,-70,50)
LIG(-70,50,-25,50)
LIG(-155,25,-155,50)
LIG(-155,50,-70,50)
LIG(-90,-5,-90,5)
LIG(-25,25,-25,30)
LIG(-90,-15,-90,-5)
LIG(-90,-15,-75,-15)
LIG(-90,5,-25,5)
LIG(-135,15,-140,15)
LIG(-140,15,-140,-70)
LIG(-80,-70,-15,-70)
LIG(-15,-70,-15,60)
LIG(-15,60,-135,60)
LIG(-135,40,-135,60)
LIG(-125,-50,-185,-50)
LIG(-90,15,-90,70)
LIG(-90,70,-185,70)
LIG(-185,-50,-185,70)
LIG(-125,-25,-190,-25)
LIG(-55,65,-190,65)
LIG(5,70,5,-45)
LIG(-190,65,-190,-25)
LIG(-45,15,-55,15)
LIG(-55,15,-55,65)
LIG(-95,-25,-95,-45)
LIG(-95,-45,5,-45)
LIG(-45,40,-45,70)
LIG(-45,70,5,70)
FFIG E:\IIT@TAJ\IIT 3rd semester-5th batch@TAJ\IT-2103-computer architecture\LAB\DSCH\examples\exam final1@TAJ.sch
