DSCH3
VERSION 5/22/2015 10:47:03 PM
BB(-54,-140,145,-70)
SYM  #nand2
BB(25,-140,60,-120)
TITLE 37 -129  #&
MODEL 202
PROP                                                                                                                                   
REC(0,0,0,0, )
VIS 0
PIN(25,-125,0.000,0.000)b
PIN(25,-135,0.000,0.000)a
PIN(60,-130,0.060,0.070)s
LIG(25,-125,33,-125)
LIG(33,-140,33,-120)
LIG(52,-128,49,-124)
LIG(53,-130,52,-128)
LIG(52,-132,53,-130)
LIG(49,-136,52,-132)
LIG(44,-139,49,-136)
LIG(49,-124,44,-121)
LIG(44,-121,33,-120)
LIG(33,-140,44,-139)
LIG(25,-135,33,-135)
LIG(57,-130,60,-130)
LIG(55,-130,55,-130)
VLG  nand nand2(out,a,b);
FSYM
SYM  #nand2
BB(-25,-110,10,-90)
TITLE -13 -99  #&
MODEL 202
PROP                                                                                                                                   
REC(0,0,0,0, )
VIS 0
PIN(-25,-95,0.000,0.000)b
PIN(-25,-105,0.000,0.000)a
PIN(10,-100,0.060,0.070)s
LIG(-25,-95,-17,-95)
LIG(-17,-110,-17,-90)
LIG(2,-98,-1,-94)
LIG(3,-100,2,-98)
LIG(2,-102,3,-100)
LIG(-1,-106,2,-102)
LIG(-6,-109,-1,-106)
LIG(-1,-94,-6,-91)
LIG(-6,-91,-17,-90)
LIG(-17,-110,-6,-109)
LIG(-25,-105,-17,-105)
LIG(7,-100,10,-100)
LIG(5,-100,5,-100)
VLG  nand nand2(out,a,b);
FSYM
SYM  #nand2
BB(25,-90,60,-70)
TITLE 37 -79  #&
MODEL 202
PROP                                                                                                                                   
REC(0,0,0,0, )
VIS 0
PIN(25,-75,0.000,0.000)b
PIN(25,-85,0.000,0.000)a
PIN(60,-80,0.060,0.070)s
LIG(25,-75,33,-75)
LIG(33,-90,33,-70)
LIG(52,-78,49,-74)
LIG(53,-80,52,-78)
LIG(52,-82,53,-80)
LIG(49,-86,52,-82)
LIG(44,-89,49,-86)
LIG(49,-74,44,-71)
LIG(44,-71,33,-70)
LIG(33,-90,44,-89)
LIG(25,-85,33,-85)
LIG(57,-80,60,-80)
LIG(55,-80,55,-80)
VLG  nand nand2(out,a,b);
FSYM
SYM  #nand2
BB(90,-120,125,-100)
TITLE 102 -109  #&
MODEL 202
PROP                                                                                                                                   
REC(0,0,0,0, )
VIS 0
PIN(90,-105,0.000,0.000)b
PIN(90,-115,0.000,0.000)a
PIN(125,-110,0.060,0.070)s
LIG(90,-105,98,-105)
LIG(98,-120,98,-100)
LIG(117,-108,114,-104)
LIG(118,-110,117,-108)
LIG(117,-112,118,-110)
LIG(114,-116,117,-112)
LIG(109,-119,114,-116)
LIG(114,-104,109,-101)
LIG(109,-101,98,-100)
LIG(98,-120,109,-119)
LIG(90,-115,98,-115)
LIG(122,-110,125,-110)
LIG(120,-110,120,-110)
VLG  nand nand2(out,a,b);
FSYM
SYM  #button
BB(-54,-139,-45,-131)
TITLE -50 -135  #I0
MODEL 59
PROP                                                                                                                                   
REC(-53,-138,6,6,r)
VIS 1
PIN(-45,-135,0.000,0.000)I0
LIG(-46,-135,-45,-135)
LIG(-54,-131,-54,-139)
LIG(-46,-131,-54,-131)
LIG(-46,-139,-46,-131)
LIG(-54,-139,-46,-139)
LIG(-53,-132,-53,-138)
LIG(-47,-132,-53,-132)
LIG(-47,-138,-47,-132)
LIG(-53,-138,-47,-138)
FSYM
SYM  #button
BB(-49,-109,-40,-101)
TITLE -45 -105  #A
MODEL 59
PROP                                                                                                                                   
REC(-48,-108,6,6,r)
VIS 1
PIN(-40,-105,0.000,0.000)A
LIG(-41,-105,-40,-105)
LIG(-49,-101,-49,-109)
LIG(-41,-101,-49,-101)
LIG(-41,-109,-41,-101)
LIG(-49,-109,-41,-109)
LIG(-48,-102,-48,-108)
LIG(-42,-102,-48,-102)
LIG(-42,-108,-42,-102)
LIG(-48,-108,-42,-108)
FSYM
SYM  #button
BB(-49,-79,-40,-71)
TITLE -45 -75  #I1
MODEL 59
PROP                                                                                                                                   
REC(-48,-78,6,6,r)
VIS 1
PIN(-40,-75,0.000,0.000)I1
LIG(-41,-75,-40,-75)
LIG(-49,-71,-49,-79)
LIG(-41,-71,-49,-71)
LIG(-41,-79,-41,-71)
LIG(-49,-79,-41,-79)
LIG(-48,-72,-48,-78)
LIG(-42,-72,-48,-72)
LIG(-42,-78,-42,-72)
LIG(-48,-78,-42,-78)
FSYM
SYM  #light
BB(138,-125,144,-111)
TITLE 140 -111  #light1
MODEL 49
PROP                                                                                                                                   
REC(139,-124,4,4,r)
VIS 1
PIN(140,-110,0.000,0.000)out1
LIG(143,-119,143,-124)
LIG(143,-124,142,-125)
LIG(139,-124,139,-119)
LIG(142,-114,142,-117)
LIG(141,-114,144,-114)
LIG(141,-112,143,-114)
LIG(142,-112,144,-114)
LIG(138,-117,144,-117)
LIG(140,-117,140,-110)
LIG(138,-119,138,-117)
LIG(144,-119,138,-119)
LIG(144,-117,144,-119)
LIG(140,-125,139,-124)
LIG(142,-125,140,-125)
FSYM
CNC(-30 -105)
CNC(-30 -105)
LIG(-45,-135,25,-135)
LIG(-40,-105,-30,-105)
LIG(25,-125,-30,-125)
LIG(-30,-125,-30,-105)
LIG(-30,-105,-25,-105)
LIG(-30,-105,-30,-95)
LIG(-30,-95,-25,-95)
LIG(-40,-75,25,-75)
LIG(10,-100,15,-100)
LIG(15,-100,15,-85)
LIG(15,-85,25,-85)
LIG(125,-110,145,-110)
LIG(75,-105,90,-105)
LIG(75,-80,75,-105)
LIG(60,-80,75,-80)
LIG(75,-115,90,-115)
LIG(75,-130,75,-115)
LIG(60,-130,75,-130)
FFIG C:\Users\TSS\Desktop\EEE 4307 Digital electronics\DSCH\examples\multiplexer.sch
