DSCH3
VERSION 9/13/2015 2:03:18 AM
BB(338,18,669,262)
SYM  #inv
BB(485,90,520,110)
TITLE 500 100  #1
MODEL 101
PROP                                                                                                                                    
REC(450,95,0,0,)
VIS 0
PIN(485,100,0.000,0.000)in
PIN(520,100,0.030,0.140)out
LIG(485,100,495,100)
LIG(495,90,495,110)
LIG(495,90,510,100)
LIG(495,110,510,100)
LIG(512,100,512,100)
LIG(514,100,520,100)
VLG         not not1(out,in);
FSYM
SYM  #nmos
BB(525,120,545,140)
TITLE 540 125  #nmos
MODEL 901
PROP   1.0u 0.12u                                                                                                                                
REC(530,120,15,19,r)
VIS 0
PIN(545,120,0.000,0.000)source
PIN(535,140,0.000,0.000)gate
PIN(525,120,1.000,0.140)drain
LIG(535,130,535,140)
LIG(541,130,529,130)
LIG(541,128,529,128)
LIG(529,120,529,128)
LIG(525,120,529,120)
LIG(541,120,541,128)
LIG(545,120,541,120)
VLG          nmos nmos(drain,source,gate);
FSYM
SYM  #nmos
BB(465,120,485,140)
TITLE 480 125  #nmos
MODEL 901
PROP   1.0u 0.12u                                                                                                                                
REC(470,120,15,19,r)
VIS 0
PIN(485,120,0.000,0.000)source
PIN(475,140,0.000,0.000)gate
PIN(465,120,1.000,2.730)drain
LIG(475,130,475,140)
LIG(481,130,469,130)
LIG(481,128,469,128)
LIG(469,120,469,128)
LIG(465,120,469,120)
LIG(481,120,481,128)
LIG(485,120,481,120)
VLG          nmos nmos(drain,source,gate);
FSYM
SYM  #inv
BB(485,120,520,140)
TITLE 505 130  #1
MODEL 101
PROP                                                                                                                                    
REC(555,125,0,0,)
VIS 0
PIN(520,130,0.000,0.000)in
PIN(485,130,0.030,0.140)out
LIG(520,130,510,130)
LIG(510,120,510,140)
LIG(510,120,495,130)
LIG(510,140,495,130)
LIG(493,130,493,130)
LIG(491,130,485,130)
VLG         not not1(out,in);
FSYM
SYM  #inv
BB(400,120,435,140)
TITLE 420 130  #1
MODEL 101
PROP                                                                                                                                    
REC(470,125,0,0,)
VIS 0
PIN(435,130,0.000,0.000)in
PIN(400,130,0.030,0.140)out
LIG(435,130,425,130)
LIG(425,120,425,140)
LIG(425,120,410,130)
LIG(425,140,410,130)
LIG(408,130,408,130)
LIG(406,130,400,130)
VLG         not not1(out,in);
FSYM
SYM  #nmos
BB(380,120,400,140)
TITLE 395 125  #nmos
MODEL 901
PROP   1.0u 0.12u                                                                                                                                
REC(385,120,15,19,r)
VIS 0
PIN(400,120,0.000,0.000)source
PIN(390,140,0.000,0.000)gate
PIN(380,120,1.000,2.730)drain
LIG(390,130,390,140)
LIG(396,130,384,130)
LIG(396,128,384,128)
LIG(384,120,384,128)
LIG(380,120,384,120)
LIG(396,120,396,128)
LIG(400,120,396,120)
VLG          nmos nmos(drain,source,gate);
FSYM
SYM  #nmos
BB(440,120,460,140)
TITLE 455 125  #nmos
MODEL 901
PROP   1.0u 0.12u                                                                                                                                
REC(445,120,15,19,r)
VIS 0
PIN(460,120,0.000,0.000)source
PIN(450,140,0.000,0.000)gate
PIN(440,120,1.000,0.140)drain
LIG(450,130,450,140)
LIG(456,130,444,130)
LIG(456,128,444,128)
LIG(444,120,444,128)
LIG(440,120,444,120)
LIG(456,120,456,128)
LIG(460,120,456,120)
VLG          nmos nmos(drain,source,gate);
FSYM
SYM  #inv
BB(400,90,435,110)
TITLE 415 100  #1
MODEL 101
PROP                                                                                                                                    
REC(365,95,0,0,)
VIS 0
PIN(400,100,0.000,0.000)in
PIN(435,100,0.030,0.140)out
LIG(400,100,410,100)
LIG(410,90,410,110)
LIG(410,90,425,100)
LIG(410,110,425,100)
LIG(427,100,427,100)
LIG(429,100,435,100)
VLG         not not1(out,in);
FSYM
SYM  #inv
BB(400,35,435,55)
TITLE 415 45  #1
MODEL 101
PROP                                                                                                                                    
REC(365,40,0,0,)
VIS 0
PIN(400,45,0.000,0.000)in
PIN(435,45,0.030,0.140)out
LIG(400,45,410,45)
LIG(410,35,410,55)
LIG(410,35,425,45)
LIG(410,55,425,45)
LIG(427,45,427,45)
LIG(429,45,435,45)
VLG         not not1(out,in);
FSYM
SYM  #nmos
BB(440,65,460,85)
TITLE 455 70  #nmos
MODEL 901
PROP   1.0u 0.12u                                                                                                                                
REC(445,65,15,19,r)
VIS 0
PIN(460,65,0.000,0.000)source
PIN(450,85,0.000,0.000)gate
PIN(440,65,1.000,0.140)drain
LIG(450,75,450,85)
LIG(456,75,444,75)
LIG(456,73,444,73)
LIG(444,65,444,73)
LIG(440,65,444,65)
LIG(456,65,456,73)
LIG(460,65,456,65)
VLG          nmos nmos(drain,source,gate);
FSYM
SYM  #nmos
BB(380,65,400,85)
TITLE 395 70  #nmos
MODEL 901
PROP   1.0u 0.12u                                                                                                                                
REC(385,65,15,19,r)
VIS 0
PIN(400,65,0.000,0.000)source
PIN(390,85,0.000,0.000)gate
PIN(380,65,1.000,2.730)drain
LIG(390,75,390,85)
LIG(396,75,384,75)
LIG(396,73,384,73)
LIG(384,65,384,73)
LIG(380,65,384,65)
LIG(396,65,396,73)
LIG(400,65,396,65)
VLG          nmos nmos(drain,source,gate);
FSYM
SYM  #inv
BB(400,65,435,85)
TITLE 420 75  #1
MODEL 101
PROP                                                                                                                                    
REC(470,70,0,0,)
VIS 0
PIN(435,75,0.000,0.000)in
PIN(400,75,0.030,0.140)out
LIG(435,75,425,75)
LIG(425,65,425,85)
LIG(425,65,410,75)
LIG(425,85,410,75)
LIG(408,75,408,75)
LIG(406,75,400,75)
VLG         not not1(out,in);
FSYM
SYM  #inv
BB(485,65,520,85)
TITLE 505 75  #1
MODEL 101
PROP                                                                                                                                    
REC(555,70,0,0,)
VIS 0
PIN(520,75,0.000,0.000)in
PIN(485,75,0.030,0.140)out
LIG(520,75,510,75)
LIG(510,65,510,85)
LIG(510,65,495,75)
LIG(510,85,495,75)
LIG(493,75,493,75)
LIG(491,75,485,75)
VLG         not not1(out,in);
FSYM
SYM  #nmos
BB(465,65,485,85)
TITLE 480 70  #nmos
MODEL 901
PROP   1.0u 0.12u                                                                                                                                
REC(470,65,15,19,r)
VIS 0
PIN(485,65,0.000,0.000)source
PIN(475,85,0.000,0.000)gate
PIN(465,65,1.000,2.730)drain
LIG(475,75,475,85)
LIG(481,75,469,75)
LIG(481,73,469,73)
LIG(469,65,469,73)
LIG(465,65,469,65)
LIG(481,65,481,73)
LIG(485,65,481,65)
VLG          nmos nmos(drain,source,gate);
FSYM
SYM  #nmos
BB(525,65,545,85)
TITLE 540 70  #nmos
MODEL 901
PROP   1.0u 0.12u                                                                                                                                
REC(530,65,15,19,r)
VIS 0
PIN(545,65,0.000,0.000)source
PIN(535,85,0.000,0.000)gate
PIN(525,65,1.000,0.140)drain
LIG(535,75,535,85)
LIG(541,75,529,75)
LIG(541,73,529,73)
LIG(529,65,529,73)
LIG(525,65,529,65)
LIG(541,65,541,73)
LIG(545,65,541,65)
VLG          nmos nmos(drain,source,gate);
FSYM
SYM  #inv
BB(485,35,520,55)
TITLE 500 45  #1
MODEL 101
PROP                                                                                                                                    
REC(450,40,0,0,)
VIS 0
PIN(485,45,0.000,0.000)in
PIN(520,45,0.030,0.140)out
LIG(485,45,495,45)
LIG(495,35,495,55)
LIG(495,35,510,45)
LIG(495,55,510,45)
LIG(512,45,512,45)
LIG(514,45,520,45)
VLG         not not1(out,in);
FSYM
SYM  #inv
BB(485,230,520,250)
TITLE 505 240  #1
MODEL 101
PROP                                                                                                                                    
REC(555,235,0,0,)
VIS 0
PIN(520,240,0.000,0.000)in
PIN(485,240,0.030,0.140)out
LIG(520,240,510,240)
LIG(510,230,510,250)
LIG(510,230,495,240)
LIG(510,250,495,240)
LIG(493,240,493,240)
LIG(491,240,485,240)
VLG         not not1(out,in);
FSYM
SYM  #nmos
BB(465,230,485,250)
TITLE 480 235  #nmos
MODEL 901
PROP   1.0u 0.12u                                                                                                                                
REC(470,230,15,19,r)
VIS 0
PIN(485,230,0.000,0.000)source
PIN(475,250,0.000,0.000)gate
PIN(465,230,1.000,2.730)drain
LIG(475,240,475,250)
LIG(481,240,469,240)
LIG(481,238,469,238)
LIG(469,230,469,238)
LIG(465,230,469,230)
LIG(481,230,481,238)
LIG(485,230,481,230)
VLG          nmos nmos(drain,source,gate);
FSYM
SYM  #nmos
BB(525,230,545,250)
TITLE 540 235  #nmos
MODEL 901
PROP   1.0u 0.12u                                                                                                                                
REC(530,230,15,19,r)
VIS 0
PIN(545,230,0.000,0.000)source
PIN(535,250,0.000,0.000)gate
PIN(525,230,1.000,0.140)drain
LIG(535,240,535,250)
LIG(541,240,529,240)
LIG(541,238,529,238)
LIG(529,230,529,238)
LIG(525,230,529,230)
LIG(541,230,541,238)
LIG(545,230,541,230)
VLG          nmos nmos(drain,source,gate);
FSYM
SYM  #inv
BB(485,200,520,220)
TITLE 500 210  #1
MODEL 101
PROP                                                                                                                                    
REC(450,205,0,0,)
VIS 0
PIN(485,210,0.000,0.000)in
PIN(520,210,0.030,0.140)out
LIG(485,210,495,210)
LIG(495,200,495,220)
LIG(495,200,510,210)
LIG(495,220,510,210)
LIG(512,210,512,210)
LIG(514,210,520,210)
VLG         not not1(out,in);
FSYM
SYM  #inv
BB(485,145,520,165)
TITLE 500 155  #1
MODEL 101
PROP                                                                                                                                    
REC(450,150,0,0,)
VIS 0
PIN(485,155,0.000,0.000)in
PIN(520,155,0.030,0.140)out
LIG(485,155,495,155)
LIG(495,145,495,165)
LIG(495,145,510,155)
LIG(495,165,510,155)
LIG(512,155,512,155)
LIG(514,155,520,155)
VLG         not not1(out,in);
FSYM
SYM  #nmos
BB(525,175,545,195)
TITLE 540 180  #nmos
MODEL 901
PROP   1.0u 0.12u                                                                                                                                
REC(530,175,15,19,r)
VIS 0
PIN(545,175,0.000,0.000)source
PIN(535,195,0.000,0.000)gate
PIN(525,175,1.000,0.140)drain
LIG(535,185,535,195)
LIG(541,185,529,185)
LIG(541,183,529,183)
LIG(529,175,529,183)
LIG(525,175,529,175)
LIG(541,175,541,183)
LIG(545,175,541,175)
VLG          nmos nmos(drain,source,gate);
FSYM
SYM  #nmos
BB(465,175,485,195)
TITLE 480 180  #nmos
MODEL 901
PROP   1.0u 0.12u                                                                                                                                
REC(470,175,15,19,r)
VIS 0
PIN(485,175,0.000,0.000)source
PIN(475,195,0.000,0.000)gate
PIN(465,175,1.000,2.730)drain
LIG(475,185,475,195)
LIG(481,185,469,185)
LIG(481,183,469,183)
LIG(469,175,469,183)
LIG(465,175,469,175)
LIG(481,175,481,183)
LIG(485,175,481,175)
VLG          nmos nmos(drain,source,gate);
FSYM
SYM  #inv
BB(485,175,520,195)
TITLE 505 185  #1
MODEL 101
PROP                                                                                                                                    
REC(555,180,0,0,)
VIS 0
PIN(520,185,0.000,0.000)in
PIN(485,185,0.030,0.140)out
LIG(520,185,510,185)
LIG(510,175,510,195)
LIG(510,175,495,185)
LIG(510,195,495,185)
LIG(493,185,493,185)
LIG(491,185,485,185)
VLG         not not1(out,in);
FSYM
SYM  #inv
BB(400,175,435,195)
TITLE 420 185  #1
MODEL 101
PROP                                                                                                                                    
REC(470,180,0,0,)
VIS 0
PIN(435,185,0.000,0.000)in
PIN(400,185,0.030,0.140)out
LIG(435,185,425,185)
LIG(425,175,425,195)
LIG(425,175,410,185)
LIG(425,195,410,185)
LIG(408,185,408,185)
LIG(406,185,400,185)
VLG         not not1(out,in);
FSYM
SYM  #nmos
BB(380,175,400,195)
TITLE 395 180  #nmos
MODEL 901
PROP   1.0u 0.12u                                                                                                                                
REC(385,175,15,19,r)
VIS 0
PIN(400,175,0.000,0.000)source
PIN(390,195,0.000,0.000)gate
PIN(380,175,1.000,2.730)drain
LIG(390,185,390,195)
LIG(396,185,384,185)
LIG(396,183,384,183)
LIG(384,175,384,183)
LIG(380,175,384,175)
LIG(396,175,396,183)
LIG(400,175,396,175)
VLG          nmos nmos(drain,source,gate);
FSYM
SYM  #nmos
BB(440,175,460,195)
TITLE 455 180  #nmos
MODEL 901
PROP   1.0u 0.12u                                                                                                                                
REC(445,175,15,19,r)
VIS 0
PIN(460,175,0.000,0.000)source
PIN(450,195,0.000,0.000)gate
PIN(440,175,1.000,0.140)drain
LIG(450,185,450,195)
LIG(456,185,444,185)
LIG(456,183,444,183)
LIG(444,175,444,183)
LIG(440,175,444,175)
LIG(456,175,456,183)
LIG(460,175,456,175)
VLG          nmos nmos(drain,source,gate);
FSYM
SYM  #inv
BB(400,145,435,165)
TITLE 415 155  #1
MODEL 101
PROP                                                                                                                                    
REC(365,150,0,0,)
VIS 0
PIN(400,155,0.000,0.000)in
PIN(435,155,0.030,0.140)out
LIG(400,155,410,155)
LIG(410,145,410,165)
LIG(410,145,425,155)
LIG(410,165,425,155)
LIG(427,155,427,155)
LIG(429,155,435,155)
VLG         not not1(out,in);
FSYM
SYM  #inv
BB(400,200,435,220)
TITLE 415 210  #1
MODEL 101
PROP                                                                                                                                    
REC(365,205,0,0,)
VIS 0
PIN(400,210,0.000,0.000)in
PIN(435,210,0.030,0.140)out
LIG(400,210,410,210)
LIG(410,200,410,220)
LIG(410,200,425,210)
LIG(410,220,425,210)
LIG(427,210,427,210)
LIG(429,210,435,210)
VLG         not not1(out,in);
FSYM
SYM  #nmos
BB(440,230,460,250)
TITLE 455 235  #nmos
MODEL 901
PROP   1.0u 0.12u                                                                                                                                
REC(445,230,15,19,r)
VIS 0
PIN(460,230,0.000,0.000)source
PIN(450,250,0.000,0.000)gate
PIN(440,230,1.000,0.140)drain
LIG(450,240,450,250)
LIG(456,240,444,240)
LIG(456,238,444,238)
LIG(444,230,444,238)
LIG(440,230,444,230)
LIG(456,230,456,238)
LIG(460,230,456,230)
VLG          nmos nmos(drain,source,gate);
FSYM
SYM  #nmos
BB(380,230,400,250)
TITLE 395 235  #nmos
MODEL 901
PROP   1.0u 0.12u                                                                                                                                
REC(385,230,15,19,r)
VIS 0
PIN(400,230,0.000,0.000)source
PIN(390,250,0.000,0.000)gate
PIN(380,230,1.000,2.730)drain
LIG(390,240,390,250)
LIG(396,240,384,240)
LIG(396,238,384,238)
LIG(384,230,384,238)
LIG(380,230,384,230)
LIG(396,230,396,238)
LIG(400,230,396,230)
VLG          nmos nmos(drain,source,gate);
FSYM
SYM  #inv
BB(400,230,435,250)
TITLE 420 240  #1
MODEL 101
PROP                                                                                                                                    
REC(470,235,0,0,)
VIS 0
PIN(435,240,0.000,0.000)in
PIN(400,240,0.030,0.140)out
LIG(435,240,425,240)
LIG(425,230,425,250)
LIG(425,230,410,240)
LIG(425,250,410,240)
LIG(408,240,408,240)
LIG(406,240,400,240)
VLG         not not1(out,in);
FSYM
SYM  #button
BB(371,31,380,39)
TITLE 375 35  #button1
MODEL 59
PROP                                                                                                                                   
REC(372,32,6,6,r)
VIS 1
PIN(380,35,0.000,0.000)in1
LIG(379,35,380,35)
LIG(371,39,371,31)
LIG(379,39,371,39)
LIG(379,31,379,39)
LIG(371,31,379,31)
LIG(372,38,372,32)
LIG(378,38,372,38)
LIG(378,32,378,38)
LIG(372,32,378,32)
FSYM
SYM  #button
BB(451,31,460,39)
TITLE 455 35  #button2
MODEL 59
PROP                                                                                                                                   
REC(452,32,6,6,r)
VIS 1
PIN(460,35,0.000,0.000)in2
LIG(459,35,460,35)
LIG(451,39,451,31)
LIG(459,39,451,39)
LIG(459,31,459,39)
LIG(451,31,459,31)
LIG(452,38,452,32)
LIG(458,38,452,38)
LIG(458,32,458,38)
LIG(452,32,458,32)
FSYM
SYM  #button
BB(471,31,479,40)
TITLE 475 35  #button3
MODEL 59
PROP                                                                                                                                   
REC(472,32,6,6,r)
VIS 1
PIN(475,40,0.000,0.000)in3
LIG(475,39,475,40)
LIG(471,31,479,31)
LIG(471,39,471,31)
LIG(479,39,471,39)
LIG(479,31,479,39)
LIG(472,32,478,32)
LIG(472,38,472,32)
LIG(478,38,472,38)
LIG(478,32,478,38)
FSYM
SYM  #button
BB(536,36,545,44)
TITLE 540 40  #button4
MODEL 59
PROP                                                                                                                                   
REC(537,37,6,6,r)
VIS 1
PIN(545,40,0.000,0.000)in4
LIG(544,40,545,40)
LIG(536,44,536,36)
LIG(544,44,536,44)
LIG(544,36,544,44)
LIG(536,36,544,36)
LIG(537,43,537,37)
LIG(543,43,537,43)
LIG(543,37,543,43)
LIG(537,37,543,37)
FSYM
SYM  #sym4
BB(600,115,660,175)
TITLE 610 108  #sym4
MODEL 6000
PROP                                                                                                                                   
REC(605,120,50,50,r)
VIS 5
PIN(635,175,0.000,0.000)B
PIN(600,125,0.000,0.000)in1
PIN(600,135,0.000,0.000)in2
PIN(600,145,0.000,0.000)in3
PIN(600,155,0.000,0.000)in4
PIN(625,175,0.000,0.000)A
PIN(660,135,0.060,0.140)out1
LIG(635,170,635,175)
LIG(600,125,605,125)
LIG(600,135,605,135)
LIG(600,145,605,145)
LIG(600,155,605,155)
LIG(625,170,625,175)
LIG(655,135,660,135)
LIG(605,120,605,170)
LIG(605,120,655,120)
LIG(655,120,655,170)
LIG(655,170,605,170)
VLG  module sym4( B,in1,in2,in3,in4,A,out1);
VLG   input B,in1,in2,in3,in4,A;
VLG   output out1;
VLG   wire w4,w5,w6,w8,w11,w13,w14,;
VLG   and #(16) and3_1(w6,in1,w4,w5);
VLG   and #(16) and3_2(w8,in2,w5,B);
VLG   and #(16) and3_3(w11,in3,A,w4);
VLG   and #(16) and3_4(w13,in4,A,A);
VLG   or #(19) or3_5(w14,w6,w8,w11);
VLG   or #(16) or2_6(out1,w14,w13);
VLG   not #(17) inv_7(w4,B);
VLG   not #(17) inv_8(w5,A);
VLG  endmodule
FSYM
SYM  #button
BB(616,181,625,189)
TITLE 620 185  #in5
MODEL 59
PROP                                                                                                                                   
REC(617,182,6,6,r)
VIS 0
PIN(625,185,0.000,0.000)in5
LIG(624,185,625,185)
LIG(616,189,616,181)
LIG(624,189,616,189)
LIG(624,181,624,189)
LIG(616,181,624,181)
LIG(617,188,617,182)
LIG(623,188,617,188)
LIG(623,182,623,188)
LIG(617,182,623,182)
FSYM
SYM  #button
BB(635,181,644,189)
TITLE 640 185  #in6
MODEL 59
PROP                                                                                                                                   
REC(637,182,6,6,r)
VIS 0
PIN(635,185,0.000,0.000)in6
LIG(636,185,635,185)
LIG(644,189,644,181)
LIG(636,189,644,189)
LIG(636,181,636,189)
LIG(644,181,636,181)
LIG(643,188,643,182)
LIG(637,188,643,188)
LIG(637,182,637,188)
LIG(643,182,637,182)
FSYM
SYM  #light
BB(663,120,669,134)
TITLE 665 134  #light1
MODEL 49
PROP                                                                                                                                   
REC(664,121,4,4,r)
VIS 1
PIN(665,135,0.000,0.000)out1
LIG(668,126,668,121)
LIG(668,121,667,120)
LIG(664,121,664,126)
LIG(667,131,667,128)
LIG(666,131,669,131)
LIG(666,133,668,131)
LIG(667,133,669,131)
LIG(663,128,669,128)
LIG(665,128,665,135)
LIG(663,126,663,128)
LIG(669,126,663,126)
LIG(669,128,669,126)
LIG(665,120,664,121)
LIG(667,120,665,120)
FSYM
CNC(520 120)
CNC(520 230)
CNC(535 255)
CNC(435 120)
CNC(450 145)
CNC(390 145)
CNC(390 90)
CNC(450 90)
CNC(435 65)
CNC(520 175)
CNC(535 200)
CNC(475 90)
CNC(475 145)
CNC(535 145)
CNC(475 255)
CNC(475 200)
CNC(535 90)
CNC(520 65)
CNC(435 175)
CNC(450 200)
CNC(390 200)
CNC(390 255)
CNC(450 255)
CNC(435 230)
CNC(465 40)
CNC(380 90)
CNC(460 90)
CNC(460 145)
CNC(380 145)
CNC(380 200)
CNC(460 200)
CNC(460 255)
CNC(380 255)
CNC(465 90)
CNC(465 145)
CNC(465 200)
CNC(465 255)
CNC(545 90)
CNC(545 145)
CNC(545 200)
CNC(545 255)
LIG(475,145,535,145)
LIG(520,120,520,130)
LIG(535,140,535,145)
LIG(475,140,475,145)
LIG(535,145,580,145)
LIG(435,100,435,120)
LIG(520,120,525,120)
LIG(520,100,520,120)
LIG(485,130,485,100)
LIG(485,240,485,210)
LIG(520,210,520,230)
LIG(435,175,440,175)
LIG(435,230,440,230)
LIG(435,210,435,230)
LIG(400,240,400,210)
LIG(460,35,460,260)
LIG(380,35,380,260)
LIG(390,250,390,255)
LIG(365,255,390,255)
LIG(450,250,450,255)
LIG(435,230,435,240)
LIG(390,255,450,255)
LIG(365,145,390,145)
LIG(450,140,450,145)
LIG(435,120,435,130)
LIG(390,145,450,145)
LIG(390,90,450,90)
LIG(435,65,435,75)
LIG(450,85,450,90)
LIG(435,155,435,175)
LIG(400,185,400,155)
LIG(485,75,485,45)
LIG(520,45,520,65)
LIG(520,65,525,65)
LIG(400,130,400,100)
LIG(475,85,475,90)
LIG(535,85,535,90)
LIG(520,65,520,75)
LIG(475,90,535,90)
LIG(520,230,525,230)
LIG(365,90,390,90)
LIG(535,90,600,90)
LIG(390,85,390,90)
LIG(435,120,440,120)
LIG(475,250,475,255)
LIG(535,250,535,255)
LIG(435,65,440,65)
LIG(520,230,520,240)
LIG(450,145,475,145)
LIG(450,255,475,255)
LIG(450,200,475,200)
LIG(465,35,465,40)
LIG(520,175,520,185)
LIG(475,200,535,200)
LIG(545,35,545,260)
LIG(535,195,535,200)
LIG(450,90,475,90)
LIG(435,45,435,65)
LIG(390,195,390,200)
LIG(400,75,400,45)
LIG(535,255,600,255)
LIG(365,200,390,200)
LIG(485,185,485,155)
LIG(475,255,535,255)
LIG(520,155,520,175)
LIG(450,195,450,200)
LIG(435,175,435,185)
LIG(535,200,585,200)
LIG(390,200,450,200)
LIG(475,195,475,200)
LIG(390,140,390,145)
LIG(520,175,525,175)
LIG(465,40,475,40)
LIG(465,40,465,260)
LIG(660,135,665,135)
LIG(600,90,600,125)
LIG(600,135,580,135)
LIG(580,135,580,145)
LIG(600,145,585,145)
LIG(585,145,585,200)
LIG(635,175,635,185)
LIG(600,155,600,255)
LIG(625,175,625,185)
TEXT 338 142  #WL[1]
TEXT 423 18  #8bit 6T RAM
TEXT 338 197  #WL[2]
TEXT 338 252  #WL[3]
TEXT 338 87  #WL[0]
FFIG E:\IIT@TAJ\IIT 3rd semester-5th batch@TAJ\IT-2103-computer architecture\LAB\DSCH\examples\Ram6T 8 bit with MUX4@TAJ.sch
