DSCH3
VERSION 9/11/2015 6:33:30 PM
BB(55,-180,179,-110)
SYM  #nor2
BB(135,-165,170,-145)
TITLE 155 -155  #|
MODEL 302
PROP                                                                                                                                    
REC(-25,-15,0,0, )
VIS 0
PIN(135,-160,0.000,0.000)a
PIN(135,-150,0.000,0.000)b
PIN(170,-155,0.090,0.140)s
LIG(135,-150,148,-150)
LIG(147,-148,143,-145)
LIG(162,-153,159,-149)
LIG(163,-155,162,-153)
LIG(162,-157,163,-155)
LIG(159,-161,162,-157)
LIG(154,-164,159,-161)
LIG(159,-149,154,-146)
LIG(154,-146,143,-145)
LIG(143,-165,154,-164)
LIG(149,-152,147,-148)
LIG(143,-165,147,-162)
LIG(147,-162,149,-158)
LIG(149,-158,150,-155)
LIG(150,-155,149,-152)
LIG(135,-160,148,-160)
LIG(167,-155,170,-155)
LIG(165,-155,165,-155)
VLG   nor nor2(s,a,b);
FSYM
SYM  #nor2
BB(135,-130,170,-110)
TITLE 155 -120  #|
MODEL 302
PROP                                                                                                                                    
REC(5,0,0,0, )
VIS 0
PIN(135,-125,0.000,0.000)a
PIN(135,-115,0.000,0.000)b
PIN(170,-120,0.090,0.140)s
LIG(135,-115,148,-115)
LIG(147,-113,143,-110)
LIG(162,-118,159,-114)
LIG(163,-120,162,-118)
LIG(162,-122,163,-120)
LIG(159,-126,162,-122)
LIG(154,-129,159,-126)
LIG(159,-114,154,-111)
LIG(154,-111,143,-110)
LIG(143,-130,154,-129)
LIG(149,-117,147,-113)
LIG(143,-130,147,-127)
LIG(147,-127,149,-123)
LIG(149,-123,150,-120)
LIG(150,-120,149,-117)
LIG(135,-125,148,-125)
LIG(167,-120,170,-120)
LIG(165,-120,165,-120)
VLG   nor nor2(s,a,b);
FSYM
SYM  #and2
BB(80,-130,115,-110)
TITLE 92 -119  #&
MODEL 402
PROP                                                                                                                                   
REC(0,0,0,0, )
VIS 0
PIN(80,-115,0.000,0.000)b
PIN(80,-125,0.000,0.000)a
PIN(115,-120,0.090,0.070)s
LIG(80,-115,88,-115)
LIG(88,-130,88,-110)
LIG(108,-120,115,-120)
LIG(107,-118,104,-114)
LIG(108,-120,107,-118)
LIG(107,-122,108,-120)
LIG(104,-126,107,-122)
LIG(99,-129,104,-126)
LIG(104,-114,99,-111)
LIG(99,-111,88,-110)
LIG(88,-130,99,-129)
LIG(80,-125,88,-125)
VLG  and and2(out,a,b);
FSYM
SYM  #clock
BB(55,-143,70,-137)
TITLE 60 -140  #clock3
MODEL 69
PROP   40.000 40.000                                                                                                                               
REC(57,-142,6,4,r)
VIS 1
PIN(70,-140,1.500,0.140)CP
LIG(65,-140,70,-140)
LIG(60,-142,58,-142)
LIG(64,-142,62,-142)
LIG(65,-143,65,-137)
LIG(55,-137,55,-143)
LIG(60,-138,60,-142)
LIG(62,-142,62,-138)
LIG(62,-138,60,-138)
LIG(58,-138,56,-138)
LIG(58,-142,58,-138)
LIG(65,-137,55,-137)
LIG(65,-143,55,-143)
FSYM
SYM  #light
BB(173,-170,179,-156)
TITLE 175 -156  #Q
MODEL 49
PROP                                                                                                                                    
REC(174,-169,4,4,r)
VIS 1
PIN(175,-155,0.000,0.000)Q
LIG(178,-164,178,-169)
LIG(178,-169,177,-170)
LIG(174,-169,174,-164)
LIG(177,-159,177,-162)
LIG(176,-159,179,-159)
LIG(176,-157,178,-159)
LIG(177,-157,179,-159)
LIG(173,-162,179,-162)
LIG(175,-162,175,-155)
LIG(173,-164,173,-162)
LIG(179,-164,173,-164)
LIG(179,-162,179,-164)
LIG(175,-170,174,-169)
LIG(177,-170,175,-170)
FSYM
SYM  #light
BB(173,-135,179,-121)
TITLE 175 -121  #Q'
MODEL 49
PROP                                                                                                                                    
REC(174,-134,4,4,r)
VIS 1
PIN(175,-120,0.000,0.000)Q'
LIG(178,-129,178,-134)
LIG(178,-134,177,-135)
LIG(174,-134,174,-129)
LIG(177,-124,177,-127)
LIG(176,-124,179,-124)
LIG(176,-122,178,-124)
LIG(177,-122,179,-124)
LIG(173,-127,179,-127)
LIG(175,-127,175,-120)
LIG(173,-129,173,-127)
LIG(179,-129,173,-129)
LIG(179,-127,179,-129)
LIG(175,-135,174,-134)
LIG(177,-135,175,-135)
FSYM
SYM  #and2
BB(80,-165,115,-145)
TITLE 92 -154  #&
MODEL 402
PROP                                                                                                                                   
REC(0,0,0,0, )
VIS 0
PIN(80,-150,0.000,0.000)b
PIN(80,-160,0.000,0.000)a
PIN(115,-155,0.090,0.070)s
LIG(80,-150,88,-150)
LIG(88,-165,88,-145)
LIG(108,-155,115,-155)
LIG(107,-153,104,-149)
LIG(108,-155,107,-153)
LIG(107,-157,108,-155)
LIG(104,-161,107,-157)
LIG(99,-164,104,-161)
LIG(104,-149,99,-146)
LIG(99,-146,88,-145)
LIG(88,-165,99,-164)
LIG(80,-160,88,-160)
VLG  and and2(out,a,b);
FSYM
SYM  #clock
BB(55,-163,70,-157)
TITLE 60 -160  #clock1
MODEL 69
PROP   10.000 10.000                                                                                                                               
REC(57,-162,6,4,r)
VIS 1
PIN(70,-160,1.500,0.070)R
LIG(65,-160,70,-160)
LIG(60,-162,58,-162)
LIG(64,-162,62,-162)
LIG(65,-163,65,-157)
LIG(55,-157,55,-163)
LIG(60,-158,60,-162)
LIG(62,-162,62,-158)
LIG(62,-158,60,-158)
LIG(58,-158,56,-158)
LIG(58,-162,58,-158)
LIG(65,-157,55,-157)
LIG(65,-163,55,-163)
FSYM
SYM  #clock
BB(55,-118,70,-112)
TITLE 60 -115  #clock2
MODEL 69
PROP   20.000 20.000                                                                                                                               
REC(57,-117,6,4,r)
VIS 1
PIN(70,-115,1.500,0.070)S
LIG(65,-115,70,-115)
LIG(60,-117,58,-117)
LIG(64,-117,62,-117)
LIG(65,-118,65,-112)
LIG(55,-112,55,-118)
LIG(60,-113,60,-117)
LIG(62,-117,62,-113)
LIG(62,-113,60,-113)
LIG(58,-113,56,-113)
LIG(58,-117,58,-113)
LIG(65,-112,55,-112)
LIG(65,-118,55,-118)
FSYM
CNC(80 -140)
LIG(135,-150,135,-140)
LIG(135,-140,170,-140)
LIG(170,-140,170,-120)
LIG(135,-125,135,-135)
LIG(135,-135,175,-135)
LIG(175,-135,175,-155)
LIG(175,-155,170,-155)
LIG(170,-120,175,-120)
LIG(80,-150,80,-140)
LIG(115,-155,125,-155)
LIG(125,-155,125,-160)
LIG(125,-160,135,-160)
LIG(115,-120,125,-120)
LIG(125,-120,125,-115)
LIG(125,-115,135,-115)
LIG(70,-160,80,-160)
LIG(70,-140,80,-140)
LIG(80,-140,80,-125)
LIG(70,-115,80,-115)
TEXT 124 -180  #Clocked  S-R Flip Flop  (G flipflop)
FFIG E:\IIT@TAJ\IIT 3rd semester-5th batch@TAJ\IT-2103-computer architecture\LAB\DSCH\examples\S-R flipflop @TAJ.sch
