DSCH3
VERSION 9/11/2015 6:40:13 PM
BB(116,-180,279,-110)
SYM  #nor2
BB(135,-165,170,-145)
TITLE 155 -155  #|
MODEL 302
PROP                                                                                                                                    
REC(-25,-15,0,0, )
VIS 0
PIN(135,-160,0.000,0.000)a
PIN(135,-150,0.000,0.000)b
PIN(170,-155,0.090,0.140)s
LIG(135,-150,148,-150)
LIG(147,-148,143,-145)
LIG(162,-153,159,-149)
LIG(163,-155,162,-153)
LIG(162,-157,163,-155)
LIG(159,-161,162,-157)
LIG(154,-164,159,-161)
LIG(159,-149,154,-146)
LIG(154,-146,143,-145)
LIG(143,-165,154,-164)
LIG(149,-152,147,-148)
LIG(143,-165,147,-162)
LIG(147,-162,149,-158)
LIG(149,-158,150,-155)
LIG(150,-155,149,-152)
LIG(135,-160,148,-160)
LIG(167,-155,170,-155)
LIG(165,-155,165,-155)
VLG   nor nor2(s,a,b);
FSYM
SYM  #nor2
BB(135,-130,170,-110)
TITLE 155 -120  #|
MODEL 302
PROP                                                                                                                                    
REC(5,0,0,0, )
VIS 0
PIN(135,-125,0.000,0.000)a
PIN(135,-115,0.000,0.000)b
PIN(170,-120,0.090,0.140)s
LIG(135,-115,148,-115)
LIG(147,-113,143,-110)
LIG(162,-118,159,-114)
LIG(163,-120,162,-118)
LIG(162,-122,163,-120)
LIG(159,-126,162,-122)
LIG(154,-129,159,-126)
LIG(159,-114,154,-111)
LIG(154,-111,143,-110)
LIG(143,-130,154,-129)
LIG(149,-117,147,-113)
LIG(143,-130,147,-127)
LIG(147,-127,149,-123)
LIG(149,-123,150,-120)
LIG(150,-120,149,-117)
LIG(135,-125,148,-125)
LIG(167,-120,170,-120)
LIG(165,-120,165,-120)
VLG   nor nor2(s,a,b);
FSYM
SYM  #light
BB(173,-135,179,-121)
TITLE 175 -121  #Q'
MODEL 49
PROP                                                                                                                                    
REC(174,-134,4,4,r)
VIS 1
PIN(175,-120,0.000,0.000)Q'
LIG(178,-129,178,-134)
LIG(178,-134,177,-135)
LIG(174,-134,174,-129)
LIG(177,-124,177,-127)
LIG(176,-124,179,-124)
LIG(176,-122,178,-124)
LIG(177,-122,179,-124)
LIG(173,-127,179,-127)
LIG(175,-127,175,-120)
LIG(173,-129,173,-127)
LIG(179,-129,173,-129)
LIG(179,-127,179,-129)
LIG(175,-135,174,-134)
LIG(177,-135,175,-135)
FSYM
SYM  #light
BB(173,-170,179,-156)
TITLE 175 -156  #Q
MODEL 49
PROP                                                                                                                                    
REC(174,-169,4,4,r)
VIS 1
PIN(175,-155,0.000,0.000)Q
LIG(178,-164,178,-169)
LIG(178,-169,177,-170)
LIG(174,-169,174,-164)
LIG(177,-159,177,-162)
LIG(176,-159,179,-159)
LIG(176,-157,178,-159)
LIG(177,-157,179,-159)
LIG(173,-162,179,-162)
LIG(175,-162,175,-155)
LIG(173,-164,173,-162)
LIG(179,-164,173,-164)
LIG(179,-162,179,-164)
LIG(175,-170,174,-169)
LIG(177,-170,175,-170)
FSYM
SYM  #button
BB(116,-164,125,-156)
TITLE 120 -160  #R
MODEL 59
PROP                                                                                                                                   
REC(117,-163,6,6,r)
VIS 1
PIN(125,-160,0.000,0.000)R
LIG(124,-160,125,-160)
LIG(116,-156,116,-164)
LIG(124,-156,116,-156)
LIG(124,-164,124,-156)
LIG(116,-164,124,-164)
LIG(117,-157,117,-163)
LIG(123,-157,117,-157)
LIG(123,-163,123,-157)
LIG(117,-163,123,-163)
FSYM
SYM  #button
BB(116,-119,125,-111)
TITLE 120 -115  #S
MODEL 59
PROP                                                                                                                                   
REC(117,-118,6,6,r)
VIS 1
PIN(125,-115,0.000,0.000)S
LIG(124,-115,125,-115)
LIG(116,-111,116,-119)
LIG(124,-111,116,-111)
LIG(124,-119,124,-111)
LIG(116,-119,124,-119)
LIG(117,-112,117,-118)
LIG(123,-112,117,-112)
LIG(123,-118,123,-112)
LIG(117,-118,123,-118)
FSYM
SYM  #nand2
BB(235,-165,270,-145)
TITLE 247 -154  #&
MODEL 202
PROP                                                                                                                                   
REC(20,-5,0,0, )
VIS 0
PIN(235,-150,0.000,0.000)b
PIN(235,-160,0.000,0.000)a
PIN(270,-155,0.060,0.140)s
LIG(235,-150,243,-150)
LIG(243,-165,243,-145)
LIG(262,-153,259,-149)
LIG(263,-155,262,-153)
LIG(262,-157,263,-155)
LIG(259,-161,262,-157)
LIG(254,-164,259,-161)
LIG(259,-149,254,-146)
LIG(254,-146,243,-145)
LIG(243,-165,254,-164)
LIG(235,-160,243,-160)
LIG(267,-155,270,-155)
LIG(265,-155,265,-155)
VLG  nand nand2(out,a,b);
FSYM
SYM  #nand2
BB(235,-130,270,-110)
TITLE 247 -119  #&
MODEL 202
PROP                                                                                                                                   
REC(0,0,0,0, )
VIS 0
PIN(235,-115,0.000,0.000)b
PIN(235,-125,0.000,0.000)a
PIN(270,-120,0.060,0.140)s
LIG(235,-115,243,-115)
LIG(243,-130,243,-110)
LIG(262,-118,259,-114)
LIG(263,-120,262,-118)
LIG(262,-122,263,-120)
LIG(259,-126,262,-122)
LIG(254,-129,259,-126)
LIG(259,-114,254,-111)
LIG(254,-111,243,-110)
LIG(243,-130,254,-129)
LIG(235,-125,243,-125)
LIG(267,-120,270,-120)
LIG(265,-120,265,-120)
VLG  nand nand2(out,a,b);
FSYM
SYM  #light
BB(273,-170,279,-156)
TITLE 275 -156  #Q
MODEL 49
PROP                                                                                                                                   
REC(274,-169,4,4,r)
VIS 1
PIN(275,-155,0.000,0.000)Q
LIG(278,-164,278,-169)
LIG(278,-169,277,-170)
LIG(274,-169,274,-164)
LIG(277,-159,277,-162)
LIG(276,-159,279,-159)
LIG(276,-157,278,-159)
LIG(277,-157,279,-159)
LIG(273,-162,279,-162)
LIG(275,-162,275,-155)
LIG(273,-164,273,-162)
LIG(279,-164,273,-164)
LIG(279,-162,279,-164)
LIG(275,-170,274,-169)
LIG(277,-170,275,-170)
FSYM
SYM  #light
BB(273,-135,279,-121)
TITLE 275 -121  #Q'
MODEL 49
PROP                                                                                                                                   
REC(274,-134,4,4,r)
VIS 1
PIN(275,-120,0.000,0.000)Q'
LIG(278,-129,278,-134)
LIG(278,-134,277,-135)
LIG(274,-134,274,-129)
LIG(277,-124,277,-127)
LIG(276,-124,279,-124)
LIG(276,-122,278,-124)
LIG(277,-122,279,-124)
LIG(273,-127,279,-127)
LIG(275,-127,275,-120)
LIG(273,-129,273,-127)
LIG(279,-129,273,-129)
LIG(279,-127,279,-129)
LIG(275,-135,274,-134)
LIG(277,-135,275,-135)
FSYM
SYM  #button
BB(221,-164,230,-156)
TITLE 225 -160  #S
MODEL 59
PROP                                                                                                                                   
REC(222,-163,6,6,r)
VIS 1
PIN(230,-160,0.000,0.000)S
LIG(229,-160,230,-160)
LIG(221,-156,221,-164)
LIG(229,-156,221,-156)
LIG(229,-164,229,-156)
LIG(221,-164,229,-164)
LIG(222,-157,222,-163)
LIG(228,-157,222,-157)
LIG(228,-163,228,-157)
LIG(222,-163,228,-163)
FSYM
SYM  #button
BB(221,-119,230,-111)
TITLE 225 -115  #R
MODEL 59
PROP                                                                                                                                   
REC(222,-118,6,6,r)
VIS 1
PIN(230,-115,0.000,0.000)R
LIG(229,-115,230,-115)
LIG(221,-111,221,-119)
LIG(229,-111,221,-111)
LIG(229,-119,229,-111)
LIG(221,-119,229,-119)
LIG(222,-112,222,-118)
LIG(228,-112,222,-112)
LIG(228,-118,228,-112)
LIG(222,-118,228,-118)
FSYM
LIG(135,-150,135,-140)
LIG(135,-140,170,-140)
LIG(170,-140,170,-120)
LIG(135,-125,135,-135)
LIG(135,-135,175,-135)
LIG(175,-135,175,-155)
LIG(175,-155,170,-155)
LIG(170,-120,175,-120)
LIG(230,-115,235,-115)
LIG(125,-160,135,-160)
LIG(125,-115,135,-115)
LIG(230,-160,235,-160)
LIG(235,-150,235,-140)
LIG(235,-140,270,-140)
LIG(270,-140,270,-120)
LIG(235,-125,235,-135)
LIG(235,-135,275,-135)
LIG(275,-135,275,-155)
LIG(270,-155,275,-155)
LIG(270,-120,275,-120)
TEXT 124 -180  #S-R Flip Flop using NOR Gate  @TAJ 
TEXT 229 -180  #S-R Flip Flop using NAND Gate @TAJ
FFIG E:\IIT@TAJ\IIT 3rd semester-5th batch@TAJ\IT-2103-computer architecture\LAB\DSCH\examples\S-R Flip Flop using NAND+NOR Gate @TAJ.sch
