DSCH3
VERSION 9/11/2015 10:16:21 PM
BB(60,-194,179,-90)
SYM  #nor2
BB(135,-165,170,-145)
TITLE 155 -155  #|
MODEL 302
PROP                                                                                                                                    
REC(-25,-15,0,0, )
VIS 0
PIN(135,-160,0.000,0.000)a
PIN(135,-150,0.000,0.000)b
PIN(170,-155,0.090,0.210)s
LIG(135,-150,148,-150)
LIG(147,-148,143,-145)
LIG(162,-153,159,-149)
LIG(163,-155,162,-153)
LIG(162,-157,163,-155)
LIG(159,-161,162,-157)
LIG(154,-164,159,-161)
LIG(159,-149,154,-146)
LIG(154,-146,143,-145)
LIG(143,-165,154,-164)
LIG(149,-152,147,-148)
LIG(143,-165,147,-162)
LIG(147,-162,149,-158)
LIG(149,-158,150,-155)
LIG(150,-155,149,-152)
LIG(135,-160,148,-160)
LIG(167,-155,170,-155)
LIG(165,-155,165,-155)
VLG     nor nor2(s,a,b);
FSYM
SYM  #nor2
BB(135,-130,170,-110)
TITLE 155 -120  #|
MODEL 302
PROP                                                                                                                                    
REC(5,0,0,0, )
VIS 0
PIN(135,-125,0.000,0.000)a
PIN(135,-115,0.000,0.000)b
PIN(170,-120,0.090,0.210)s
LIG(135,-115,148,-115)
LIG(147,-113,143,-110)
LIG(162,-118,159,-114)
LIG(163,-120,162,-118)
LIG(162,-122,163,-120)
LIG(159,-126,162,-122)
LIG(154,-129,159,-126)
LIG(159,-114,154,-111)
LIG(154,-111,143,-110)
LIG(143,-130,154,-129)
LIG(149,-117,147,-113)
LIG(143,-130,147,-127)
LIG(147,-127,149,-123)
LIG(149,-123,150,-120)
LIG(150,-120,149,-117)
LIG(135,-125,148,-125)
LIG(167,-120,170,-120)
LIG(165,-120,165,-120)
VLG     nor nor2(s,a,b);
FSYM
SYM  #light
BB(173,-135,179,-121)
TITLE 175 -121  #Q'
MODEL 49
PROP                                                                                                                                    
REC(174,-134,4,4,r)
VIS 1
PIN(175,-120,0.000,0.000)Q'
LIG(178,-129,178,-134)
LIG(178,-134,177,-135)
LIG(174,-134,174,-129)
LIG(177,-124,177,-127)
LIG(176,-124,179,-124)
LIG(176,-122,178,-124)
LIG(177,-122,179,-124)
LIG(173,-127,179,-127)
LIG(175,-127,175,-120)
LIG(173,-129,173,-127)
LIG(179,-129,173,-129)
LIG(179,-127,179,-129)
LIG(175,-135,174,-134)
LIG(177,-135,175,-135)
FSYM
SYM  #light
BB(173,-170,179,-156)
TITLE 175 -156  #Q
MODEL 49
PROP                                                                                                                                    
REC(174,-169,4,4,r)
VIS 1
PIN(175,-155,0.000,0.000)Q
LIG(178,-164,178,-169)
LIG(178,-169,177,-170)
LIG(174,-169,174,-164)
LIG(177,-159,177,-162)
LIG(176,-159,179,-159)
LIG(176,-157,178,-159)
LIG(177,-157,179,-159)
LIG(173,-162,179,-162)
LIG(175,-162,175,-155)
LIG(173,-164,173,-162)
LIG(179,-164,173,-164)
LIG(179,-162,179,-164)
LIG(175,-170,174,-169)
LIG(177,-170,175,-170)
FSYM
SYM  #clock
BB(65,-143,80,-137)
TITLE 70 -140  #clock4
MODEL 69
PROP   80.000 80.000                                                                                                                               
REC(67,-142,6,4,r)
VIS 1
PIN(80,-140,1.500,0.140)CP
LIG(75,-140,80,-140)
LIG(70,-142,68,-142)
LIG(74,-142,72,-142)
LIG(75,-143,75,-137)
LIG(65,-137,65,-143)
LIG(70,-138,70,-142)
LIG(72,-142,72,-138)
LIG(72,-138,70,-138)
LIG(68,-138,66,-138)
LIG(68,-142,68,-138)
LIG(75,-137,65,-137)
LIG(75,-143,65,-143)
FSYM
SYM  #and3
BB(85,-175,120,-145)
TITLE 100 -160  #&
MODEL 403
PROP                                                                                                                                    
REC(85,-175,0,0,P)
VIS 0
PIN(85,-170,0.000,0.000)a
PIN(85,-160,0.000,0.000)b
PIN(85,-150,0.000,0.000)c
PIN(125,-160,0.090,0.070)s
LIG(125,-160,115,-160)
LIG(85,-150,95,-150)
LIG(85,-160,95,-160)
LIG(85,-170,95,-170)
LIG(95,-160,95,-145)
LIG(110,-149,105,-146)
LIG(114,-157,110,-149)
LIG(95,-175,95,-160)
LIG(95,-175,105,-174)
LIG(115,-160,114,-157)
LIG(114,-163,115,-160)
LIG(95,-145,105,-146)
LIG(110,-171,114,-163)
LIG(105,-174,110,-171)
VLG   and and3(s,a,b,c);
FSYM
SYM  #and3
BB(85,-130,120,-100)
TITLE 100 -115  #&
MODEL 403
PROP                                                                                                                                    
REC(85,-130,0,0,P)
VIS 0
PIN(85,-125,0.000,0.000)a
PIN(85,-115,0.000,0.000)b
PIN(85,-105,0.000,0.000)c
PIN(125,-115,0.090,0.070)s
LIG(125,-115,115,-115)
LIG(85,-105,95,-105)
LIG(85,-115,95,-115)
LIG(85,-125,95,-125)
LIG(95,-115,95,-100)
LIG(110,-104,105,-101)
LIG(114,-112,110,-104)
LIG(95,-130,95,-115)
LIG(95,-130,105,-129)
LIG(115,-115,114,-112)
LIG(114,-118,115,-115)
LIG(95,-100,105,-101)
LIG(110,-126,114,-118)
LIG(105,-129,110,-126)
VLG   and and3(s,a,b,c);
FSYM
SYM  #clock
BB(60,-173,75,-167)
TITLE 65 -170  #clock5
MODEL 69
PROP   160.000 160.000                                                                                                                               
REC(62,-172,6,4,r)
VIS 1
PIN(75,-170,1.500,3.500)T
LIG(70,-170,75,-170)
LIG(65,-172,63,-172)
LIG(69,-172,67,-172)
LIG(70,-173,70,-167)
LIG(60,-167,60,-173)
LIG(65,-168,65,-172)
LIG(67,-172,67,-168)
LIG(67,-168,65,-168)
LIG(63,-168,61,-168)
LIG(63,-172,63,-168)
LIG(70,-167,60,-167)
LIG(70,-173,60,-173)
FSYM
CNC(170 -120)
CNC(85 -140)
CNC(85 -140)
CNC(75 -160)
CNC(75 -160)
LIG(135,-150,135,-140)
LIG(135,-140,170,-140)
LIG(170,-140,170,-120)
LIG(135,-125,135,-135)
LIG(135,-135,175,-135)
LIG(175,-135,175,-155)
LIG(175,-155,170,-155)
LIG(170,-120,175,-120)
LIG(125,-115,135,-115)
LIG(125,-160,135,-160)
LIG(85,-150,85,-140)
LIG(170,-120,170,-90)
LIG(85,-170,85,-185)
LIG(85,-185,170,-185)
LIG(170,-185,170,-155)
LIG(85,-105,85,-90)
LIG(85,-90,170,-90)
LIG(85,-160,75,-160)
LIG(80,-140,85,-140)
LIG(85,-140,85,-125)
LIG(60,-160,60,-115)
LIG(85,-115,60,-115)
LIG(75,-170,75,-160)
LIG(75,-160,60,-160)
TEXT 102 -194  #T - Flip Flop using NOR Gate  @TAJ 
FFIG E:\IIT@TAJ\IIT 3rd semester-5th batch@TAJ\IT-2103-computer architecture\LAB\DSCH\examples\T Flip Flop using NAND+NOR Gate @TAJ.sch
